	-0.245497431321
	-0.377825767259
	-0.43606340749
	-0.296422153653
	-0.171373829661
	-0.447175845147
	-0.374815289164
	-0.438723329287
	-0.430949165728
	-0.32991861379
	-0.345005056662
	-0.322139330503
	-0.43690344828
	-0.25650932032
	-0.341185141268
	-0.356099241821
	-0.558514014955
	-0.307875710222
	-0.35050830157
	-0.433456838269
	-0.292583833276
	-0.292583833276
	-0.46401920211
	-0.46401920211
	-0.341813633343
	-0.418094952705
	-0.418094952705
	-0.357723359463
	-0.358591110026
	-0.335191145296
	-0.259616863176
	-0.437776277076
	-0.180372930864
	-0.442496105379
	-0.128403845842
	-0.463322654925
	-0.394534578656
	-0.190989444533
	-0.230987213719
	-0.327879246638
	-0.272813626538
	-0.409801131337
	-0.359551130653
	-0.302283649051
	-0.316333382708
	-0.324478429482
	-0.352959729104
	-0.561948532764
	-0.295656198533
	-0.27878437916
	-0.363856489994
	-0.238659138418
	-0.404764672365
	-0.462956215663
	-0.425557572501
	-0.468189827856
	-0.369225105774
	-0.358950250543
	-0.250271394983
	-0.176081708166
	-0.321941831519
	-0.131162390445
	-0.236204798637
	-0.260631377717
	-0.476949994762
	-0.359109308314
	-0.356492620122
	-0.403526466825
	-0.386534476966
	-0.277015258918
	-0.225511800415
	-0.352238273581
	-0.320518492068
	-0.403543508175
	-0.327045516796
	-0.307494188709
	-0.473343393858
	-0.272314193479
	-0.341744665527
	-0.359757421348
	-0.316068694898
	-0.318202547016
	-0.322864290107
	-0.446474036109
	-0.248118785465
	-0.442260109493
	-0.249433664486
	-0.387335291426
	-0.182376270829
	-0.362547043099
	-0.321402133799
	-0.153810492098
	-0.359655334117
	-0.346526021127
	-0.451767649731
	-0.204237845467
	-0.161780090424
	-0.281372853267
	-0.333184597533
	-0.362450474937
	-0.186841246123
	-0.35465548346
	-0.35465548346
	-0.342827195645
	-0.353373238044
	-0.353373238044
	-0.391105158528
	-0.308092759534
	-0.402504466491
	-0.311143156882
	-0.295072165342
	-0.406650255541
	-0.308704224767
	-0.374063550516
	-0.322722527895
	-0.299298216599
	-0.316366816506
	-0.310250491732
	-0.322349002399
	-0.274399780126
	-0.342525503795
	-0.43554388818
	-0.082922331407
	-0.250785215152
	-0.286744870645
	-0.173099301859
	-0.260781300229
	-0.393723841185
	-0.20748272761
	-0.400282625571
	-0.226730662596
	-0.478515991333
	-0.360995712634
	-0.327515433793
	-0.273474944012
	-0.254053820859
	-0.514884686688
	-0.418484682442
	-0.410855864326
	-0.456653265494
	-0.303714362235
	-0.310373504412
	-0.253404438829
	-0.346340710816
	-0.317172661791
	-0.18979069488
	-0.299972596842
	-0.405138120299
	-0.322992696084
	-0.407597475424
	-0.199766186024
	-0.263803748436
	-0.41816774553
	-0.230675221537
	-0.28006497459
	-0.510710774417
	-0.317843843768
	-0.359779867697
	-0.0848031003955
	-0.320227578429
	-0.220693313093
	-0.33686115198
	-0.351364077364
	-0.378862069781
	-0.323562946875
	-0.502218411861
	-0.34518843571
	-0.32107520116
	-0.348922027932
	-0.285091082474
	-0.212907765794
	-0.105639373428
	-0.408977083862
	-0.171128489808
	-0.322025679157
	-0.308744198523
	-0.287307068661
	-0.33603679881
	-0.33603679881
	-0.324177159001
	-0.363250978187
	-0.237682797206
	-0.410871738498
	-0.480291484689
	-0.326295118681
	-0.436457773428
	-0.152460446141
	-0.25805672322
	-0.320525488091
	-0.257140413924
	-0.279294707276
	-0.347376058238
	-0.276479248534
	-0.523242013673
	-0.20307364059
	-0.324577308053
	-0.324577308053
	-0.29777614944
	-0.417851931717
	-0.269703505297
	-0.156687196212
	-0.261533406493
	-0.219894974088
	-0.433726111484
	-0.379023525352
	-0.338020590395
	-0.312400661696
	-0.216886296507
	-0.218299497756
	-0.318961718591
	-0.377449912775
	-0.43956200289
	-0.186438209221
	-0.291712588723
	-0.282001804403
	-0.393889959417
	-0.404703904303
	-0.379389077731
	-0.441932065643
	-0.338286607926
	-0.489524286475
	-0.391066931927
	-0.365179763219
	-0.388944986564
	-0.366585666407
	-0.399141621755
	-0.440145794404
	-0.279012685216
	-0.433345461633
	-0.25542045312
	-0.318151019783
	-0.359857936181
	-0.393208083062
	-0.295966061264
	-0.295966061264
	-0.461541366904
	-0.405440158389
	-0.370960030544
	-0.195278125784
	-0.367340280019
	-0.336939278066
	-0.405768340656
	-0.393436657471
	-0.4390401629
	-0.380438658018
	-0.34447778645
	-0.29917271123
	-0.324750674246
	-0.368634221738
	-0.401992261716
	-0.221673667463
	-0.266445361897
	-0.412096910677
	-0.261043596428
	-0.308091306653
	-0.459015666421
	-0.170829245339
	-0.305478092564
	-0.392626323711
	-0.319114336836
	-0.34441714359
	-0.227637023536
	-0.259854469752
	-0.505599487524
	-0.427999351141
	-0.331724504788
	-0.348090111578
	-0.264357943704
	-0.225026670246
	-0.301293214204
	-0.377259189473
	-0.387578879349
	-0.469707336694
	-0.474733843744
	-0.251180674132
	-0.276335786935
	-0.293142337519
	-0.375440963948
	-0.316017176547
	-0.287151828224
	-0.333563786454
	-0.288043060777
	-0.384232878105
	-0.343891340911
	-0.428646457499
	-0.447774449793
	-0.509056071561
	-0.361590651717
	-0.536889759117
	-0.28817568659
	-0.416663510528
	-0.498566337005
	-0.254428380526
	-0.370529899161
	-0.357982635269
	-0.402315861049
	-0.402315861049
	-0.232799771395
	-0.360332107342
	-0.161255779066
	-0.412806345253
	-0.328326755747
	-0.494839386106
	-0.318351737358
	-0.308093842961
	-0.308093842961
	-0.399639416586
	-0.398280979827
	-0.500260956672
	-0.337676597335
	-0.240812909122
	-0.407124756122
	-0.158832043875
	-0.379655703741
	-0.372701671942
	-0.347063801534
	-0.213148293145
	-0.416660865425
	-0.41962920672
	-0.440806969043
	-0.416472173384
	-0.431142566847
	-0.354258963041
	-0.269453114856
	-0.283549104255
	-0.212221651888
	-0.228486384972
	-0.40318994034
	-0.466023050889
	-0.216993451944
	-0.425154448013
	-0.346899131613
	-0.450702361881
	-0.324108864977
	-0.244524800484
	-0.323852212209
	-0.235556979349
	-0.509940081401
	-0.27125159577
	-0.274132132542
	-0.321198956104
	-0.353891658222
	-0.395912849417
	-0.225350962527
	-0.282385870597
	-0.443900903476
	-0.485601967111
	-0.38895769615
	-0.225035587903
	-0.242870905094
	-0.293342269294
	-0.45077942556
	-0.40526579281
	-0.408987545398
	-0.408987545398
	-0.360932687535
	-0.360932687535
	-0.331510903825
	-0.337583530925
	-0.427285569559
	-0.39293309468
	-0.405109162249
	-0.230751952548
	-0.327571277109
	-0.325709291063
	-0.521560751379
	-0.03047436801
	-0.277830478975
	-0.34729839517
	-0.249892550668
	-0.357640917237
	-0.40909041808
	-0.256389829655
	-0.256389829655
	-0.49815410145
	-0.15420558508
	-0.425960617186
	-0.404549807389
	-0.332642981257
	-0.222557064242
	-0.260375460023
	-0.273036937809
	-0.416625516204
	-0.350286108694
	-0.168517353759
	-0.141256671592
	-0.151688455245
	-0.415773330266
	-0.402694839511
	-0.258301510878
	-0.404667836998
	-0.299588033633
	-0.406972470487
	-0.378261604176
	-0.378261604176
	-0.419023833962
	-0.311198227992
	-0.279607343772
	-0.215951228081
	-0.356991674175
	-0.279455497995
	-0.277878774874
	-0.340735941262
	-0.244707173941
	-0.304661739755
	-0.325992924474
	-0.434312333208
	-0.504005101634
	-0.148109928879
	-0.422252733993
	-0.297341504895
	-0.316527615461
	-0.316527615461
	-0.362698115535
	-0.277802818837
	-0.271814478131
	-0.323720591055
	-0.323720591055
	-0.41834841353
	-0.220899117939
	-0.384238349524
	-0.371574332246
	-0.356718589393
	-0.331890873472
	-0.278835576067
	-0.317992827359
	-0.385735732347
	-0.371561467113
	-0.371561467113
	-0.424206409638
	-0.175452834594
	-0.299414277415
	-0.237956627954
	-0.480379721737
	-0.133557635606
	-0.272498451506
	-0.301467964336
	-0.251969868538
	-0.437462085975
	-0.276814902795
	-0.342111832925
	-0.461834931117
	-0.260866770067
	-0.238217640427
	-0.429722284668
	-0.296399981335
	-0.296399981335
	-0.365437766279
	-0.38038064263
	-0.304918847353
	-0.4461083469
	-0.300983593334
	-0.295176671936
	-0.332189520446
	-0.38884672737
	-0.300981724904
	-0.316852592836
	-0.392479774832
	-0.183457364533
	-0.550371537494
	-0.455580064886
	-0.319475163757
	-0.433312050297
	-0.36584470605
	-0.522628467782
	-0.474004570558
	-0.490866873242
	-0.471863826881
	-0.242544052788
	-0.323195193211
	-0.475599804995
	-0.444698572171
	-0.35061883213
	-0.35061883213
	-0.316402808472
	-0.350373272068
	-0.302941519143
	-0.243873749824
	-0.261051975442
	-0.227212910068
	-0.193105047434
	-0.332047075905
	-0.256001705256
	-0.286709086911
	-0.286985239337
	-0.286985239337
	-0.484767830272
	-0.318204650774
	-0.229322717092
	-0.408548830146
	-0.405569803844
	-0.380613388043
	-0.350898587789
	-0.296419784237
	-0.228474707387
	-0.271508496725
	-0.381566607297
	-0.445037502432
	-0.437337782935
	-0.365887447549
	-0.535697102709
	-0.199533241919
	-0.320707952482
	-0.324999815165
	-0.358583919294
	-0.258730992752
	-0.460549560732
	-0.443067274221
	-0.407407965003
	-0.353965043727
	-0.304544262223
	-0.466131462242
	-0.327739223172
	-0.43055886176
	-0.30904129511
	-0.328687369612
	-0.348303290924
	-0.353164895183
	-0.286561192129
	-0.33657941389
	-0.359946637262
	-0.489109318657
	-0.312396591489
	-0.222132274991
	-0.380914579827
	-0.341725387673
	-0.421294339376
	-0.421294339376
	-0.372268009601
	-0.497135612534
	-0.508926369705
	-0.318808878052
	-0.383947377987
	-0.324913024857
	-0.360857413443
	-0.151439190816
	-0.313092431332
	-0.236481204153
	-0.294865883568
	-0.274349544827
	-0.269112093762
	-0.248764585946
	-0.302137491852
	-0.289929801533
	-0.279046288653
	-0.349487519015
	-0.23978917528
	-0.317357125889
	-0.273039813396
	-0.157468283842
	-0.28890341185
	-0.40246390513
	-0.358622143408
	-0.411511415297
	-0.342781829036
	-0.406354716281
	-0.378584282564
	-0.371122510199
	-0.320860198459
	-0.404531367367
	-0.224211452832
	-0.206956355529
	-0.280385897823
	-0.359465066745
	-0.317759487808
	-0.420528706279
	-0.301280360334
	-0.301280360334
	-0.464169669351
	-0.427213676899
	-0.427213676899
	-0.308266310267
	-0.30531333156
	-0.386386857954
	-0.170188034116
	-0.4153124342
	-0.360520082824
	-0.338477723437
	-0.281950857138
	-0.298643091553
	-0.369746852577
	-0.184643209152
	-0.24705296209
	-0.482054761934
	-0.276706595374
	-0.521831426701
	-0.412695059684
	-0.458825104615
	-0.300091011486
	-0.29858217636
	-0.286040718768
	-0.401663390246
	-0.206183348768
	-0.403706795669
	-0.311481684552
	-0.249627967997
	-0.277127549697
	-0.400917944423
	-0.413730061325
	-0.354182441975
	-0.429040476276
	-0.35490483483
	-0.186925997863
	-0.381648228404
	-0.233340353106
	-0.344095522094
	-0.258295228699
	-0.376008901002
	-0.249710475079
	-0.340686636308
	-0.307642081577
	-0.288728270117
	-0.36160359955
	-0.279514527494
	-0.349313658065
	-0.296984410519
	-0.314482852385
	-0.415593868332
	-0.279883430054
	-0.24881789834
	-0.366942637246
	-0.321302400713
	-0.321302400713
	-0.400434949288
	-0.273793460977
	-0.237557752778
	-0.321201967975
	-0.351274638529
	-0.288540735684
	-0.256783216527
	-0.310680395704
	-0.348717440996
	-0.474040698904
	-0.441633601389
	-0.413085528462
	-0.2132114682
	-0.357262146569
	-0.448481743463
	-0.17684451377
	-0.288406192658
	-0.29108840018
	-0.140999845587
	-0.251390352382
	-0.141130344034
	-0.179109613117
	-0.418989130528
	-0.2519549109
	-0.162176372512
	-0.329406831457
	-0.413008600084
	-0.379076326765
	-0.254116286542
	-0.451157937576
	-0.559995906822
	-0.442677783792
	-0.450228363855
	-0.450228363855
	-0.431093503088
	-0.11365177869
	-0.234355047078
	-0.406492211785
	-0.307726762382
	-0.169577062833
	-0.371081679505
	-0.275614404403
	-0.392743198774
	-0.301168654417
	-0.435950522096
	-0.365305306641
	-0.279163490363
	-0.230358718829
	-0.241075349811
	-0.415470952569
	-0.166764467408
	-0.375736048028
	-0.285970605759
	-0.183659543403
	-0.338561535128
	-0.485167847694
	-0.284579124688
	-0.260341941565
	-0.346635269
	-0.481136593572
	-0.302100682575
	-0.337883062051
	-0.287895079566
	-0.467756737054
	-0.277660270327
	-0.311532661053
	-0.50115549526
	-0.434263750937
	-0.253294939999
	-0.381618118549
	-0.214368494695
	-0.331466706628
	-0.338975801047
	-0.326650187631
	-0.21372919771
	-0.400751245078
	-0.525972860332
	-0.388696572867
	-0.337849913909
	-0.400887976577
	-0.400887976577
	-0.378728659083
	-0.130283608943
	-0.33609782247
	-0.316506123511
	-0.364306225988
	-0.425678766998
	-0.282657781762
	-0.438140405775
	-0.342118564482
	-0.120703767189
	-0.436588392758
	-0.326462658443
	-0.324807043511
	-0.161719111477
	-0.315704663564
	-0.38950922433
	-0.361955339227
	-0.39783193105
	-0.472785673091
	-0.498192767879
	-0.325737669106
	-0.486975933358
	-0.341761682039
	-0.439525122423
	-0.292958192015
	-0.159809823461
	-0.352714541654
	-0.318837876061
	-0.278013511676
	-0.18580451795
	-0.247666111837
	-0.265073994215
	-0.10264251212
	-0.285172023073
	-0.466755290916
	-0.189532430334
	-0.38324811937
	-0.439916525907
	-0.427223964477
	-0.274088722708
	-0.426593482536
	-0.27070818563
	-0.253771643504
	-0.295622809121
	-0.361481826367
	-0.416497891959
	-0.203281920807
	-0.31509745831
	-0.276215391785
	-0.344337781071
	-0.434576503498
	-0.1893279205
	-0.259850401199
	-0.24629548525
	-0.282522363848
	-0.442158250703
	-0.388221620066
	-0.299698236018
	-0.464686261917
	-0.412203840703
	-0.313053243182
	-0.327865245418
	-0.269615124816
	-0.295634686104
	-0.402915112586
	-0.473623173723
	-0.453343031312
	-0.462410099328
	-0.257922865691
	-0.37632919669
	-0.439940434151
	-0.428581481588
	-0.449198907254
	-0.23014892541
	-0.196363237241
	-0.470572181922
	-0.352100621682
	-0.352100621682
	-0.235848505285
	-0.382801641074
	-0.456691728077
	-0.330683680162
	-0.390828447499
	-0.268244657561
	-0.287013307785
	-0.123642497376
	-0.321779131825
	-0.134840360601
	-0.285753558126
	-0.37592524728
	-0.423568469191
	-0.423568469191
	-0.135196508353
	-0.373318966162
	-0.441251157676
	-0.305581866405
	-0.401783398647
	-0.44775229995
	-0.467874668002
	-0.467874668002
	-0.351375209972
	-0.34306608065
	-0.310384002964
	-0.21338255619
	-0.233804311176
	-0.419640277559
	-0.121137831494
	-0.317359312869
	-0.308506302142
	-0.34057510764
	-0.0399888852947
	-0.25476077038
	-0.397171744598
	-0.376068610957
	-0.401356661557
	-0.332540402769
	-0.378412138519
	-0.396012129497
	-0.246361624881
	-0.246361624881
	-0.308780432114
	-0.248681956754
	-0.347224441006
	-0.44025667695
	-0.201259141127
	-0.272217858058
	-0.307581222289
	-0.303764464359
	-0.240061643607
	-0.439608978612
	-0.240557633833
	-0.246794420655
	-0.267106527041
	-0.336837928104
	-0.343858968008
	-0.356291907361
	-0.482324342656
	-0.279623645199
	-0.401420754912
	-0.37661903978
	-0.499207893807
	-0.281848752931
	-0.373074593184
	-0.344536063402
	-0.289068792193
	-0.360111007252
	-0.355452250429
	-0.141654287139
	-0.446924545132
	-0.462562948815
	-0.250632394149
	-0.479246502994
	-0.423669794383
	-0.383656862446
	-0.269858041058
	-0.344476715659
	-0.537951213932
	-0.359503206273
	-0.415645043674
	-0.347166822758
	-0.332411695679
	-0.379139386555
	-0.3939078062
	-0.347106890562
	-0.397209865337
	-0.397209865337
	-0.433201775084
	-0.329700504641
	-0.466076310583
	-0.374940151034
	-0.443710867484
	-0.302031883965
	-0.515536708045
	-0.291784367555
	-0.341895914455
	-0.233350123895
	-0.327668250715
	-0.327668250715
	-0.465290624352
	-0.484227931063
	-0.289950656998
	-0.263883072197
	-0.253122441299
	-0.372373523911
	-0.259972385108
	-0.277385795352
	-0.330491385037
	-0.37360149574
	-0.299331455842
	-0.341193611152
	-0.341193611152
	-0.341193611152
	-0.315039346867
	-0.494554825792
	-0.355602718343
	-0.464311997427
	-0.358909643652
	-0.424570515055
	-0.354708194524
	-0.40823631837
	-0.444626562997
	-0.370365334518
	-0.335782640905
	-0.331799327442
	-0.407084910106
	-0.426289656376
	-0.431536361704
	-0.343564772459
	-0.310978711368
	-0.421348457938
	-0.272520805865
	-0.369935142239
	-0.1329526109
	-0.276154906678
	-0.301853583065
	-0.335753796824
	-0.401021131755
	-0.260226055804
	-0.360257402619
	-0.472627112649
	-0.423303908705
	-0.271744171604
	-0.385294242675
	-0.290292660864
	-0.363069584211
	-0.180074899843
	-0.327555203126
	-0.356855486334
	-0.277255714264
	-0.422224400399
	-0.229158197455
	-0.254032385121
	-0.384670383595
	-0.384670383595
	-0.289056901839
	-0.240611438576
	-0.43782789947
	-0.374383892454
	-0.373987569732
	-0.327492696513
	-0.42588824657
	-0.389718660996
	-0.330271972921
	-0.362304749674
	-0.450487737118
	-0.514601795693
	-0.347878781718
	-0.493921201975
	-0.509547906319
	-0.457501621188
	-0.416150519581
	-0.355288668243
	-0.277089605887
	-0.277089605887
	-0.227193053362
	-0.325149443215
	-0.249939453712
	-0.41633571855
	-0.32438594822
	-0.415296548397
	-0.364542768098
	-0.306226373536
	-0.312896929578
	-0.214565956297
	-0.419647091961
	-0.233316346587
	-0.374889363602
	-0.445111883582
	-0.355097028324
	-0.417431538432
	-0.31417935335
	-0.315248218414
	-0.37814945093
	-0.387338383001
	-0.534227076698
	-0.207661908169
	-0.298780688112
	-0.286241416304
	-0.389039501802
	-0.35371144882
	-0.192679444769
	-0.28587002122
	-0.330293679871
	-0.35424108791
	-0.202372353426
	-0.287937680808
	-0.307466541183
	-0.302287025772
	-0.302287025772
	-0.368811819168
	-0.458609533697
	-0.298333685611
	-0.446833077558
	-0.337600412057
	-0.295283030682
	-0.295771918755
	-0.421779821843
	-0.435214373049
	-0.292324120409
	-0.171765427937
	-0.224304226794
	-0.362147116407
	-0.294935574549
	-0.164897231867
	-0.408179216785
	-0.276675206466
	-0.384209837903
	-0.345940767683
	-0.254071413339
	-0.456655623629
	-0.417302420675
	-0.392423885675
	-0.47073136101
	-0.159490974586
	-0.275939104041
	-0.171302182402
	-0.249013719827
	-0.35562817853
	-0.276170315221
	-0.324840378788
	-0.350493912847
	-0.355706286874
	-0.225287231656
	-0.207362464067
	-0.338762622541
	-0.387230066261
	-0.515367713397
	-0.483041433761
	-0.451623273014
	-0.520702311246
	-0.448577565996
	-0.450815719061
	-0.317841593529
	-0.362111842883
	-0.390299787439
	-0.371318965698
	-0.325198633591
	-0.178025151974
	-0.348477568258
	-0.299583998265
	-0.252562832108
	-0.111191779827
	-0.304121456525
	-0.12034141337
	-0.160798767272
	-0.40420066258
	-0.438591396183
	-0.467794343058
	-0.418133086908
	-0.495427922407
	-0.424106334854
	-0.31666526426
	-0.307549404217
	-0.283066955982
	-0.396773796986
	-0.340507292323
	-0.340507292323
	-0.439265076543
	-0.42841020074
	-0.433039459433
	-0.24768994164
	-0.45907369079
	-0.400092969093
	-0.343992089305
	-0.224146212632
	-0.397467166392
	-0.12403611279
	-0.356170914092
	-0.300540364964
	-0.215165623149
	-0.268069312703
	-0.387489412697
	-0.217708306763
	-0.218329969814
	-0.310889260365
	-0.367338610841
	-0.329697710454
	-0.253278110875
	-0.322983356047
	-0.496956641885
	-0.281122497922
	-0.291280653002
	-0.469439375985
	-0.292517397731
	-0.387502338364
	-0.33421470347
	-0.33421470347
	-0.244245511283
	-0.301176384186
	-0.344413901976
	-0.426891949373
	-0.40536732642
	-0.415068730071
	-0.376632063184
	-0.345223052027
	-0.345223052027
	-0.352860315563
	-0.346041659583
	-0.278715312108
	-0.37478192512
	-0.377576623551
	-0.205844573229
	-0.330340368736
	-0.395904724026
	-0.317606655537
	-0.379991480113
	-0.338556382395
	-0.273294648673
	-0.388080995532
	-0.238541858759
	-0.285163063862
	-0.260924102845
	-0.228766718757
	-0.31995053382
	-0.256500539907
	-0.415606188281
	-0.33025432318
	-0.27181498957
	-0.348968605182
	-0.308538037407
	-0.419679318499
	-0.39900545865
	-0.412660606734
	-0.323451322438
	-0.294234284996
	-0.307605696349
	-0.307605696349
	-0.416159450275
	-0.416159450275
	-0.32960763526
	-0.369613670972
	-0.424474181195
	-0.452501350201
	-0.32369315164
	-0.37811709242
	-0.224146167658
	-0.468946270213
	-0.333136692799
	-0.138547826451
	-0.300181635053
	-0.308300262099
	-0.340607547393
	-0.340607547393
	-0.413471969609
	-0.392505550007
	-0.399566683859
	-0.399566683859
	-0.328723424347
	-0.330271345345
	-0.469678019226
	-0.23658134918
	-0.377221761516
	-0.335861577302
	-0.470105472494
	-0.530948513674
	-0.312827084986
	-0.382552956655
	-0.325412831708
	-0.354911851804
	-0.335881368746
	-0.390038686522
	-0.401619461387
	-0.488532211962
	-0.234975458492
	-0.336212777474
	-0.383378223004
	-0.387466915326
	-0.29887905338
	-0.257468964243
	-0.3231807785
	-0.389335537273
	-0.389335537273
	-0.234394310627
	-0.304786144225
	-0.437985984013
	-0.420094376199
	-0.327251830785
	-0.377870977604
	-0.404477283463
	-0.311592754155
	-0.438348690629
	-0.445925228084
	-0.290435321834
	-0.330805653979
	-0.470151595762
	-0.410344881782
	-0.403505127506
	-0.471667196528
	-0.446569213538
	-0.407088871279
	-0.385309791101
	-0.455936102065
	-0.239281289855
	-0.303549878281
	-0.424463348369
	-0.415251190795
	-0.438947798975
	-0.364275679073
	-0.313474539181
	-0.303005419834
	-0.324028516447
	-0.500251093286
	-0.376225073185
	-0.171022481002
	-0.293043874456
	-0.129146859941
	-0.471317791378
	-0.430813569303
	-0.394660788953
	-0.29951601842
	-0.294227197929
	-0.292032666394
	-0.351923560189
	-0.181270216602
	-0.310478150169
	-0.389217209734
	-0.209041896359
	-0.223329338389
	-0.412791736842
	-0.376734448072
	-0.338378378074
	-0.249688961374
	-0.30266498685
	-0.196800930398
	-0.387311789771
	-0.27041694983
	-0.319160731195
	-0.389603123686
	-0.365400149668
	-0.333747279206
	-0.357728738656
	-0.489815265705
	-0.261732391005
	-0.340420527141
	-0.208366906907
	-0.297372526902
	-0.329445574477
	-0.395170153528
	-0.338098907466
	-0.220734620902
	-0.358850125757
	-0.359418533104
	-0.355791334986
	-0.367650099754
	-0.391770387963
	-0.111730839101
	-0.236975640055
	-0.329032583802
	-0.390650675737
	-0.385358111558
	-0.2168859529
	-0.230875595445
	-0.501868749937
	-0.34849941206
	-0.276757931925
	-0.268309519501
	-0.322405697988
	-0.338600855776
	-0.336357299605
	-0.469928742562
	-0.334156127707
	-0.220966094511
	-0.341280013063
	-0.334181279847
	-0.436500622687
	-0.440169209158
	-0.290547764859
	-0.254794820688
	-0.365214150019
	-0.365214150019
	-0.365214150019
	-0.219235594604
	-0.293433243896
	-0.327177165397
	-0.126975918367
	-0.336364058327
	-0.387657307735
	-0.387657307735
	-0.350313489904
	-0.34627001705
	-0.463277874932
	-0.336255174236
	-0.38174680502
	-0.342375614522
	-0.233203722666
	-0.393122639007
	-0.425398751367
	-0.465900231807
	-0.339235732793
	-0.268568903778
	-0.268568903778
	-0.36857558229
	-0.489813134896
	-0.390414986098
	-0.335965030141
	-0.376976958034
	-0.486747926524
	-0.366320026474
	-0.28634794705
	-0.281721647335
	-0.309720315455
	-0.406096536196
	-0.462192369361
	-0.452954126175
	-0.403780852863
	-0.355478268205
	-0.412335534392
	-0.384315588262
	-0.4004179151
	-0.220935909502
	-0.357548695893
	-0.264599702682
	-0.474865564692
	-0.351362276355
	-0.344999656789
	-0.389768037486
	-0.492901030827
	-0.256340660037
	-0.341639687055
	-0.341639687055
	-0.341639687055
	-0.3278448515
	-0.362758184927
	-0.506061866271
	-0.359957248737
	-0.359786275974
	-0.359786275974
	-0.322930310121
	-0.273779664425
	-0.239300022028
	-0.116700564147
	-0.296442962536
	-0.398410649776
	-0.218068559111
	-0.32884135525
	-0.403900899492
	-0.368248221701
	-0.383165176118
	-0.395557617899
	-0.468161826296
	-0.517137861019
	-0.353800652752
	-0.175871752918
	-0.413304714232
	-0.214123420435
	-0.392644312066
	-0.364650908693
	-0.30995878658
	-0.302659967541
	-0.348477322053
	-0.238281829076
	-0.359896429822
	-0.183313497383
	-0.177069820922
	-0.391818931374
	-0.297577103987
	-0.330370678452
	-0.220213090411
	-0.341550981892
	-0.417777034042
	-0.334885274322
	-0.303133216537
	-0.241262499222
	-0.314400062156
	-0.462890243327
	-0.41612082451
	-0.494875132479
	-0.280077577522
	-0.378201646754
	-0.36388719683
	-0.419755804145
	-0.333646833638
	-0.343681129431
	-0.351627437162
	-0.403411086177
	-0.403411086177
	-0.362355716256
	-0.354365138468
	-0.272214164464
	-0.539409512164
	-0.380371255999
	-0.285341308779
	-0.237678452396
	-0.405709452664
	-0.405709452664
	-0.499757007755
	-0.265500923009
	-0.447911699444
	-0.435031990881
	-0.422147635786
	-0.560170963446
	-0.375557908602
	-0.310310234473
	-0.462516603106
	-0.257913159086
	-0.441608667544
	-0.396639973937
	-0.316714895638
	-0.401686429407
	-0.198057344799
	-0.382748223388
	-0.228629647389
	-0.237172790977
	-0.349888696811
	-0.43945169549
	-0.375853500043
	-0.379325229998
	-0.212381324753
	-0.251531761688
	-0.353832276474
	-0.187005446718
	-0.299261269628
	-0.224697244829
	-0.396764676345
	-0.396764676345
	-0.525269880409
	-0.285734606778
	-0.24733380251
	-0.359853015006
	-0.295105200558
	-0.380690194079
	-0.546793842638
	-0.486614694787
	-0.472590286286
	-0.377460404269
	-0.357011879169
	-0.355104300141
	-0.478607614977
	-0.33132696646
	-0.333880158153
	-0.419856746945
	-0.242758921297
	-0.39237855792
	-0.30400996769
	-0.368677524676
	-0.135486641629
	-0.345432018782
	-0.347475650919
	-0.333508208481
	-0.399493610506
	-0.483178540957
	-0.443388852781
	-0.288274084319
	-0.193382106567
	-0.246181547524
	-0.399163720341
	-0.353549986575
	-0.236496987098
	-0.327455090503
	-0.322087949361
	-0.314625702303
	-0.210042905947
	-0.411370593815
	-0.36177980293
	-0.391417887038
	-0.266978848363
	-0.396178887292
	-0.258497076605
	-0.265943773922
	-0.401052841191
	-0.412927626221
	-0.216730862431
	-0.555613481854
	-0.149758488012
	-0.0994180345315
	-0.313257230941
	-0.277461458892
	-0.261502714614
	-0.313025470095
	-0.423937534152
	-0.232824858566
	-0.364689692157
	-0.334430492
	-0.371560476716
	-0.410209037734
	-0.487001116974
	-0.289553736119
	-0.25470040829
	-0.315316204405
	-0.323408795509
	-0.331285735731
	-0.397707853646
	-0.411697300684
	-0.352947313857
	-0.476340902177
	-0.447820143381
	-0.264470027965
	-0.301773360619
	-0.255125811768
	-0.299339745045
	-0.267304776018
	-0.388872194796
	-0.3892346987
	-0.313427759208
	-0.322406853659
	-0.358844090982
	-0.117476248006
	-0.31472264311
	-0.22825283096
	-0.372804688733
	-0.309870834331
	-0.369385772973
	-0.380997750386
	-0.296429494329
	-0.329508357942
	-0.367987232432
	-0.383473489513
	-0.187578526049
	-0.194304314699
	-0.238727990003
	-0.22620162752
	-0.488345234273
	-0.261685555748
	-0.262966844772
	-0.292832705459
	-0.341461153334
	-0.26936817013
	-0.337064909683
	-0.337064909683
	-0.366285045762
	-0.265741040917
	-0.347398120347
	-0.297217007497
	-0.149644401695
	-0.370615440463
	-0.400142260862
	-0.39828398786
	-0.388354675968
	-0.344097407701
	-0.367183726759
	-0.221000966359
	-0.215325990548
	-0.157168260099
	-0.326884290991
	-0.379743097215
	-0.281758151754
	-0.252817490196
	-0.262621634105
	-0.391966803106
	-0.339031754187
	-0.437136357828
	-0.182941964442
	-0.495181808852
	-0.547948306185
	-0.31062484063
	-0.388093234266
	-0.295266735613
	-0.338384165958
	-0.354642851173
	-0.492513765639
	-0.515277783031
	-0.377537303351
	-0.377537303351
	0.0319159806646
	-0.382629821708
	-0.236384493529
	-0.292399168954
	-0.355326212186
	-0.38198603332
	-0.33274074396
	-0.33274074396
	-0.465464644391
	-0.510556749422
	-0.442600381931
	-0.387013705758
	-0.27782209094
	-0.32366299928
	-0.27342954021
	-0.232502094746
	-0.233957072607
	-0.329963261523
	-0.403642271674
	-0.300806453589
	-0.343147733957
	-0.399324217347
	-0.235900206545
	-0.187428331206
	-0.366954107126
	-0.366954107126
	-0.4597356956
	-0.308477715003
	-0.337562499573
	-0.435421806139
	-0.336637735072
	-0.277824866704
	-0.361348041585
	-0.361348041585
	-0.289198210587
	-0.290134105076
	-0.358783479046
	-0.320172436101
	-0.323438858574
	-0.372711270289
	-0.343519147096
	-0.206631732455
	-0.353660897417
	-0.347958852051
	-0.351692078809
	-0.183364696238
	-0.35755498482
	-0.417327155251
	-0.422278442432
	-0.414873899278
	-0.323558450595
	-0.207229786939
	-0.272386884002
	-0.335209546307
	-0.515799840297
	-0.34366459295
	-0.225373584169
	-0.402250256456
	-0.381032008358
	-0.396863055368
	-0.298048854855
	-0.318443188733
	-0.375132583598
	-0.380705649589
	-0.378741279931
	-0.421747709906
	-0.381330772688
	-0.208577986345
	-0.383592923462
	-0.25756408235
	-0.238867551805
	-0.325107495522
	-0.34484647774
	-0.40564193092
	-0.28220515041
	-0.36993117748
	-0.372011786377
	-0.347521509377
	-0.427754746088
	-0.408492701893
	-0.274434128526
	-0.423296420407
	-0.492905063739
	-0.52273814553
	-0.226884834071
	-0.327506340428
	-0.416602484289
	-0.422673566939
	-0.430355081679
	-0.245382390352
	-0.192424312574
	-0.316492653861
	-0.278741193345
	-0.214147075426
	-0.276231905386
	-0.34200851385
	-0.29654257992
	-0.329602790117
	-0.293881841183
	-0.349043900348
	-0.117062441569
	-0.417069543964
	-0.413877665351
	-0.308908994617
	-0.433485879034
	-0.383853553573
	-0.255791736887
	-0.305865815227
	-0.440641038508
	-0.442946052191
	-0.427420430073
	-0.402682857212
	-0.358877306364
	-0.30477063032
	-0.218634762019
	-0.402714348538
	-0.245054246199
	-0.387777917244
	-0.290025254983
	-0.269776901363
	-0.350545458526
	-0.334219721612
	-0.305083865804
	-0.368705737581
	-0.405485031998
	-0.400213002527
	-0.222190348815
	-0.394902459381
	-0.259921046194
	-0.260992347837
	-0.288922201328
	-0.422021954917
	-0.334450426121
	-0.270540681288
	-0.386015391661
	-0.441227812056
	-0.205349331447
	-0.317744033085
	-0.309216755205
	-0.282044343341
	-0.335324860132
	-0.335324860132
	-0.353215503141
	-0.298225980796
	-0.461240474835
	-0.376607742625
	-0.274510844602
	-0.274510844602
	-0.234824447036
	-0.341348112849
	-0.269829513675
	-0.269276956013
	-0.416787059447
	-0.177285152926
	-0.37147759262
	-0.347435502245
	-0.344167035934
	-0.313439708835
	-0.345862734845
	-0.415814050262
	-0.467433757214
	-0.407534619153
	-0.312614111442
	-0.549268060758
	-0.182332108678
	-0.359765922909
	-0.216405695399
	-0.190767678063
	-0.378311741024
	-0.302619276778
	-0.303006152766
	-0.333197656062
	-0.259431374853
	-0.408788238025
	-0.392080739486
	-0.392080739486
	-0.34645865985
	-0.292753672143
	-0.317675769041
	-0.340585234006
	-0.173731772054
	-0.306937732212
	-0.374220194828
	-0.431569938361
	-0.287801287766
	-0.272924201181
	-0.389437786006
	-0.364069275151
	-0.314004528342
	-0.401369865649
	-0.589209405087
	-0.357689792478
	-0.398529637601
	-0.438553511883
	-0.352321351566
	-0.352321351566
	-0.24785153431
	-0.393329434472
	-0.383732486732
	-0.427022121099
	-0.458630658841
	-0.276079281297
	-0.361324068988
	-0.345830184006
	-0.370442654544
	-0.319032880846
	-0.310437208673
	-0.400232347228
	-0.303366062973
	-0.396213056344
	-0.360802289732
	-0.315073476527
	-0.346983469809
	-0.369609395728
	-0.378440007969
	-0.396677807909
	-0.422130667339
	-0.324455177957
	-0.295616455382
	-0.394253129511
	-0.195648544541
	-0.33792471125
	-0.123175776548
	-0.276490129205
	-0.385399041033
	-0.221720361463
	-0.434390662195
	-0.433459891536
	-0.446805009788
	-0.364745509683
	-0.273158869508
	-0.347790003509
	-0.496898570711
	-0.434202868874
	-0.281390826084
	-0.143119615839
	-0.402834449568
	-0.297560028508
	-0.14739376704
	-0.262782599157
	-0.44073987575
	-0.315369808055
	-0.350998960665
	-0.14233947677
	-0.307831436067
	-0.561121379762
	-0.308378794267
	-0.464857038923
	-0.199291746158
	-0.36333608216
	-0.350791806102
	-0.313864339201
	-0.521838109537
	-0.280504233053
	-0.350333842341
	-0.41783398136
	-0.336350561625
	-0.319299543443
	-0.430935853415
	-0.300650941374
	-0.215580541292
	-0.348466812937
	-0.411294665659
	-0.334654527642
	-0.451256753599
	-0.29619292851
	-0.265851038477
	-0.276624119909
	-0.375713425077
	-0.399306615418
	-0.106888603303
	-0.247970148823
	-0.336920920666
	-0.324805967876
	-0.317462777305
	-0.292034101304
	-0.402618923942
	-0.256675620055
	-0.502984303976
	-0.420714049357
	-0.325845499916
	-0.456536639669
	-0.352648968134
	-0.315214508743
	-0.313484959406
	-0.217348336176
	-0.497235641994
	-0.392105566436
	-0.421523601125
	-0.197457527623
	-0.338864520995
	-0.338864520995
	-0.39035565836
	-0.243060257857
	-0.138369451833
	-0.370288681681
	-0.428973363298
	-0.241127845992
	-0.361867730197
	-0.401361549306
	-0.216621483132
	-0.411772070178
	-0.411772070178
	-0.394138422823
	-0.39250448454
	-0.441370879202
	-0.287842880421
	-0.370823044216
	-0.348524657403
	-0.348524657403
	-0.47764136062
	-0.30819865583
	-0.39891522949
	-0.393763607327
	-0.342425619892
	-0.28822199837
	-0.2923261562
	-0.213605549303
	-0.303525253619
	-0.38560308709
	-0.224514603601
	-0.236435259543
	-0.43811265276
	-0.254897556448
	-0.534451215628
	-0.34348402988
	-0.352116772917
	-0.416633487787
	-0.279156459437
	-0.308166651464
	-0.304916842446
	-0.356815327421
	-0.33292599919
	-0.407304471166
	-0.507499104004
	-0.489603407225
	-0.245618206013
	-0.304932807321
	-0.429785854683
	-0.205921813754
	-0.452054434855
	-0.305389882226
	-0.234804353731
	-0.34680801127
	-0.404408712586
	-0.430560698252
	-0.478809597447
	-0.298871786316
	-0.250253603523
	-0.444887151849
	-0.331574030357
	-0.349017427851
	-0.358114198743
	-0.377798839379
	-0.204184228522
	-0.288934156459
	-0.445259957193
	-0.364859152588
	-0.426596839789
	-0.133612670588
	-0.296094976437
	-0.44572611729
	-0.398980929697
	-0.236115113237
	-0.29137566463
	-0.29137566463
	-0.192037622761
	-0.252747260931
	-0.366899949209
	-0.233353622054
	-0.326050906092
	-0.326050906092
	-0.343512521802
	-0.401282526837
	-0.482114957299
	-0.478913789123
	-0.43660944569
	-0.358615985967
	-0.431395339683
	-0.295498930197
	-0.422300852916
	-0.473562235236
	-0.240936218425
	-0.400632551385
	-0.370553601069
	-0.439681735168
	-0.5329342128
	-0.412054953366
	-0.401246527449
	-0.330501679669
	-0.223994104918
	-0.410217886894
	-0.463213159122
	-0.300388285346
	-0.357229844734
	-0.323449672806
	-0.489799623501
	-0.253994415342
	-0.361799985625
	-0.229294381988
	-0.306032139039
	-0.298689733026
	-0.307153366373
	-0.423757530256
	-0.480944084868
	-0.372299042477
	-0.400096797794
	-0.453176827496
	-0.448162940103
	-0.33440773742
	-0.336020313795
	-0.264689112244
	-0.42710184725
	-0.33149294667
	-0.320591784888
	-0.320591784888
	-0.345394491946
	-0.379316850513
	-0.446089953691
	-0.41353743618
	-0.405817252455
	-0.2686154121
	-0.322829379269
	-0.179315634397
	-0.297691857133
	-0.398363686761
	-0.218738427362
	-0.375882522112
	-0.303965007986
	-0.337530282461
	-0.345091658329
	-0.251343970044
	-0.20894539712
	-0.368636159553
	-0.497409725612
	-0.390006070881
	-0.491232081991
	-0.436191886014
	-0.344208977173
	-0.484714182109
	-0.257304470153
	-0.423572545676
	-0.129071511338
	-0.413665469488
	-0.447705421188
	-0.409515591966
	-0.468147914564
	-0.249168099631
	-0.292477959659
	-0.506108679982
	-0.253498187091
	-0.253498187091
	-0.321812381475
	-0.408678648191
	-0.354755159187
	-0.354755159187
	-0.401001516024
	-0.32117973943
	-0.173668171697
	-0.359956584672
	-0.357235652137
	-0.41355888426
	-0.376165028273
	-0.36082065654
	-0.370436005428
	-0.42493512043
	-0.324030618443
	-0.292009831543
	-0.362444051327
	-0.289820559159
	-0.293922298742
	-0.396570367564
	-0.257724073512
	-0.207270493969
	-0.362539495313
	-0.553444094966
	-0.390029000389
	-0.353123845546
	-0.456267756144
	-0.347840615986
	-0.294274142956
	-0.413357211329
	-0.364073970496
	-0.401843142737
	-0.557134174475
	-0.417843118883
	-0.435884450817
	-0.464844830035
	-0.221311047724
	-0.5207212641
	-0.273245068858
	-0.299658515249
	-0.272915639028
	-0.304249657945
	-0.245357632562
	-0.349606553425
	-0.305460367216
	-0.361023070494
	-0.25540228807
	-0.38121876595
	-0.170522871015
	-0.342527558621
	-0.28471949864
	-0.424880455444
	-0.487734982118
	-0.191782796474
	-0.541075553745
	-0.411374419014
	-0.19785324569
	-0.373012890193
	-0.400678193084
	-0.372181439585
	-0.380948671669
	-0.215199532695
	-0.427677656044
	-0.41522587014
	-0.329174718427
	-0.410318742882
	-0.295992743619
	-0.232316029304
	-0.405721324708
	-0.473180502983
	-0.388258935326
	-0.499928672563
	-0.416450566285
	-0.303471397631
	-0.107654455373
	-0.338327526672
	-0.266185119892
	-0.274369906529
	-0.426167018039
	-0.272184946022
	-0.496772412604
	-0.142355461443
	-0.280236845344
	-0.0731824690285
	-0.310006723632
	-0.214893619932
	-0.425558113265
	-0.303395508578
	-0.346220842603
	-0.296237964867
	-0.376012383954
	-0.375684258113
	-0.342087678207
	-0.340306548254
	-0.524566058245
	-0.373076582483
	-0.251663695417
	-0.301058878834
	-0.469177019118
	-0.30842082218
	-0.352588912041
	-0.47069633466
	-0.285379347628
	-0.430530912704
	-0.313212194197
	-0.313363574482
	-0.216129428571
	-0.336113695935
	-0.448791729277
	-0.438308227171
	-0.282440068292
	-0.308643808894
	-0.308643808894
	-0.384956592296
	-0.274880261582
	-0.369464242624
	-0.389944534046
	-0.525469824461
	-0.462276092922
	-0.171113517285
	-0.36509815566
	-0.424457981576
	-0.346392471916
	-0.368908779934
	-0.140314682247
	-0.141094011033
	-0.352258379372
	-0.291435004915
	-0.431600955296
	-0.431600955296
	-0.392744595154
	-0.305121727806
	-0.330686688037
	-0.407771069366
	-0.407043088062
	-0.299720279186
	-0.411349009864
	-0.378187434501
	-0.273913769539
	-0.429452531317
	-0.298138715909
	-0.260589741169
	-0.547444922873
	-0.387826204897
	-0.474766510527
	-0.384265506698
	-0.350200790136
	-0.342758219651
	-0.342758219651
	-0.342758219651
	-0.307629689109
	-0.263277134973
	-0.360691154859
	-0.301296558325
	-0.380604150081
	-0.266117696625
	-0.303957854906
	-0.305231024815
	-0.409586244953
	-0.515540381629
	-0.364656800257
	-0.352419108383
	-0.257193574578
	-0.383500663855
	-0.330347561205
	-0.330347561205
	-0.256632857478
	-0.392205528039
	-0.24962866276
	-0.342810899105
	-0.31342289558
	-0.363211494961
	-0.318351319467
	-0.34693828755
	-0.370661060628
	-0.363061202925
	-0.204015004393
	-0.470709222198
	-0.214183926679
	-0.536440542905
	-0.464268113757
	-0.388870705292
	-0.342298149115
	-0.207336011613
	-0.252530825858
	-0.395301590675
	-0.3529842361
	-0.217021216156
	-0.217021216156
	-0.499065033418
	-0.274314313208
	-0.129949820306
	-0.440988712085
	-0.323772058643
	-0.404260788867
	-0.404260788867
	-0.410743835705
	-0.243014793281
	-0.124378904077
	-0.284142611624
	-0.412344068449
	-0.408257235023
	-0.313522266264
	-0.235912829909
	-0.2842239603
	-0.312929080713
	-0.453885618887
	-0.4578259537
	-0.400156449539
	-0.292637398769
	-0.382593637406
	-0.306081629161
	-0.40768669703
	-0.399862390593
	-0.306617421475
	-0.298291504862
	-0.312852514152
	-0.461024203598
	-0.418879277414
	-0.506663035517
	-0.296805390664
	-0.267155321909
	-0.396848872437
	-0.390163387006
	-0.26983853501
	-0.481115503824
	-0.344534505272
	-0.432654741551
	-0.270569168044
	-0.332486058504
	-0.32824517069
	-0.391391428426
	-0.273951007018
	-0.324231509624
	-0.377897354614
	-0.31823962685
	-0.326370889803
	-0.425014640357
	-0.250992314663
	-0.384337558184
	-0.352397810217
	-0.468594788181
	-0.241449387444
	-0.19206516321
	-0.254664431077
	-0.214618270728
	-0.391409267986
	-0.423831016101
	-0.381624121053
	-0.49490507384
	-0.437829048238
	-0.381443435702
	-0.391041043682
	-0.262402290698
	-0.356951044708
	-0.219903387937
	-0.325146404089
	-0.307005229303
	-0.315401608947
	-0.319539399736
	-0.384458019443
	-0.45407010667
	-0.389789435949
	-0.187339790743
	-0.322216216042
	-0.322216216042
	-0.39671398148
	-0.364861236202
	-0.364861236202
	-0.364861236202
	-0.350285202819
	-0.506853939559
	-0.281208463867
	-0.436004730591
	-0.267788131183
	-0.309764021468
	-0.213308738036
	-0.52448371634
	-0.383082631897
	-0.339497487215
	-0.339497487215
	-0.339497487215
	-0.47449073315
	-0.412836253342
	-0.232256236603
	-0.507345040873
	-0.275204608123
	-0.297512528665
	-0.413552551855
	-0.376446033888
	-0.321371152126
	-0.33709133085
	-0.244592294734
	-0.423579171698
	-0.343552729195
	-0.343552729195
	-0.259358809661
	-0.355870129454
	-0.328770362564
	-0.164103807759
	-0.466875566492
	-0.189697105098
	-0.287574440269
	-0.127508858588
	-0.316228275524
	-0.210915043516
	-0.494234504879
	-0.364341451891
	-0.179969276538
	-0.246216516698
	-0.341623303569
	-0.342952841963
	-0.0957361679786
	-0.391560847334
	-0.425479849142
	-0.465318239686
	-0.465318239686
	-0.402768593098
	-0.319761177113
	-0.321440537614
	-0.316716196092
	-0.365109485307
	-0.365109485307
	-0.240673760762
	-0.327750624967
	-0.268298134713
	-0.368928538234
	-0.287404448159
	-0.353237762454
	-0.205051929852
	-0.180454733534
	-0.345639161884
	-0.393185733366
	-0.393185733366
	-0.393019795741
	-0.292628236127
	-0.352778398591
	-0.475060210896
	-0.339775035385
	-0.427443429628
	-0.178433939706
	-0.39933729236
	-0.479337405566
	-0.412524370346
	-0.126863639669
	-0.494037654093
	-0.320299820179
	-0.469697174451
	-0.281141535155
	-0.407503182323
	-0.383010229429
	-0.226100618636
	-0.283405507065
	-0.23602690409
	-0.206866598359
	-0.206866598359
	-0.239393143624
	-0.321653309034
	-0.228873207105
	-0.249128227303
	-0.402359379221
	-0.402359379221
	-0.342897065167
	-0.288937619568
	-0.363977884684
	-0.361951262768
	-0.40547615899
	-0.509709169003
	-0.379802084348
	-0.420321638475
	-0.365088972451
	-0.276687849903
	-0.353633997026
	-0.260441741099
	-0.205766291788
	-0.21181107195
	-0.41122679936
	-0.165912888159
	-0.390312061838
	-0.451050250851
	-0.460420646654
	-0.27968602495
	-0.370119966986
	-0.342951982159
	-0.299990539203
	-0.274725235137
	-0.337294170344
	-0.42552958227
	-0.262030989966
	-0.236302703285
	-0.472832940188
	-0.310237027225
	-0.305270326008
	-0.379107304744
	-0.386265745013
	-0.0733338198766
	-0.266617515338
	-0.303411437323
	-0.320530484104
	-0.386040125468
	-0.391415407056
	-0.391415407056
	-0.236198112196
	-0.309767600287
	-0.220670064299
	-0.226108379896
	-0.373475502999
	-0.281279289832
	-0.431378304765
	-0.42569977895
	-0.32126891781
	-0.395438423884
	-0.386450008064
	-0.3628943439
	-0.364129480676
	-0.261460789329
	-0.364619919503
	-0.332904010451
	-0.326050466146
	-0.359034294618
	-0.237268746478
	-0.359088903169
	-0.39387942011
	-0.477311317518
	-0.401135654487
	-0.100631431821
	-0.357660390462
	-0.340982098766
	-0.320366155015
	-0.320366155015
	-0.310992502169
	-0.310992502169
	-0.453509183103
	-0.256554397573
	-0.491815617097
	-0.397758656568
	-0.301720574508
	-0.346152423522
	-0.339880959108
	-0.488701905903
	-0.272917265584
	-0.409265650807
	-0.324638962873
	-0.322616189182
	-0.22538954335
	-0.443715243994
	-0.390264162319
	-0.237831169264
	-0.503524848668
	-0.273567701471
	-0.355826383305
	-0.485907055487
	-0.259327530513
	-0.257107228813
	-0.376341290299
	-0.376341290299
	-0.422674120167
	-0.331026916491
	-0.278423908034
	-0.331654806998
	-0.307678360819
	-0.490616655373
	-0.288665522145
	-0.126583253451
	-0.404261183046
	-0.329748183145
	-0.239423222343
	-0.470842264698
	-0.455137048466
	-0.455137048466
	-0.334424838656
	-0.322283375471
	-0.372700641607
	-0.377666873497
	-0.474170229219
	-0.374188857742
	-0.361805495828
	-0.284142305859
	-0.410326573425
	-0.243465629526
	-0.243465629526
	-0.438240023865
	-0.374676749241
	-0.391180502386
	-0.405783006669
	-0.241083876824
	-0.386681115936
	-0.437894465529
	-0.268979290005
	-0.451834903096
	-0.451834903096
	-0.353879028943
	-0.353983063592
	-0.393367415702
	-0.474540084786
	-0.483372236857
	-0.292614129292
	-0.327447335426
	-0.4210285057
	-0.234911381796
	-0.323857208057
	-0.346563358701
	-0.357619915461
	-0.331310948443
	-0.321087343173
	-0.386649013467
	-0.491762100652
	-0.361697213219
	-0.386056116031
	-0.416904264235
	-0.409224361622
	-0.402802964913
	-0.329875923319
	-0.196545523879
	-0.362529802464
	-0.324091440721
	-0.311210290276
	-0.137499989972
	-0.358157174742
	-0.271112627505
	-0.236135209885
	-0.320452437484
	-0.320452437484
	-0.373464974815
	-0.313776056725
	-0.29119022592
	-0.392688988478
	-0.403502089796
	-0.441993422219
	-0.441993422219
	-0.371072400269
	-0.221229119927
	-0.374557744294
	-0.404240609542
	-0.377610657596
	-0.377610657596
	-0.292430968727
	-0.247607955741
	-0.495789965919
	-0.327626393998
	-0.393109217694
	-0.404003988767
	-0.278239833239
	-0.426031996836
	-0.343820656584
	-0.274942654009
	-0.325346739623
	-0.375119862774
	-0.332698851957
	-0.264887570196
	-0.287372844227
	-0.0455083476808
	-0.370247681946
	-0.312593433331
	-0.248316699044
	-0.307639821222
	-0.246627919129
	-0.217414248531
	-0.442338229749
	-0.326066813422
	-0.346287468284
	-0.472826918861
	-0.413996796676
	-0.352799766089
	-0.209339851722
	-0.416562952342
	-0.391731430578
	-0.15945617675
	-0.313145208654
	-0.473499035539
	-0.341225885307
	-0.350101890297
	-0.342222864189
	-0.330132286636
	-0.279126467942
	-0.283110547252
	-0.437559275875
	-0.198687691111
	-0.308814960245
	-0.308814960245
	-0.463432766778
	-0.475653890322
	-0.387105874886
	-0.377054623688
	-0.190688745192
	-0.435241841415
	-0.531220317953
	-0.41342096892
	-0.216601402693
	-0.325914253686
	-0.398239685877
	-0.212639968239
	-0.423984210892
	-0.452673166215
	-0.34968448807
	-0.424948244037
	-0.225476118457
	-0.326630342136
	-0.346777254117
	-0.452599546556
	-0.393511784407
	-0.367019338872
	-0.400186830213
	-0.422152934213
	-0.407478317592
	-0.281436869802
	-0.324027126172
	-0.358930901463
	-0.366432041447
	-0.228644763518
	-0.191308967145
	-0.296755922871
	-0.344948920779
	-0.307907495092
	-0.20757053216
	-0.262728113005
	-0.318033530324
	-0.35137459174
	-0.450648648021
	-0.153408529544
	-0.268192772401
	-0.300319428264
	-0.306406492671
	-0.398895186944
	-0.267009286603
	-0.462676907456
	-0.19193238632
	-0.440664376103
	-0.252761885266
	-0.377167716827
	-0.37382732583
	-0.576720845923
	-0.331126387903
	-0.350637707169
	-0.334556156364
	-0.160300034531
	-0.324461605667
	-0.319531510118
	-0.178114132623
	-0.454509302203
	-0.316546231723
	-0.27644966463
	-0.284958045433
	-0.425826613489
	-0.313880703645
	-0.420286261187
	-0.395287324472
	-0.363219042481
	-0.30623854281
	-0.575282394113
	-0.279275215043
	-0.433616910536
	-0.297323911356
	-0.174245107738
	-0.332115293525
	-0.331777440916
	-0.403151368608
	-0.396583614119
	-0.407121039834
	-0.308011396402
	-0.146030087246
	-0.328782929248
	-0.342605642482
	-0.179684855568
	-0.47133747911
	-0.220524633033
	-0.31463438986
	-0.377911966943
	-0.340545744663
	-0.394266800221
	-0.397822568669
	-0.389725470776
	-0.383525725461
	-0.490318509683
	-0.50529527664
	-0.237237268913
	-0.465390965194
	-0.331685900892
	-0.331685900892
	-0.234417633319
	-0.401633716502
	-0.306331158935
	-0.31078380881
	-0.252771641389
	-0.348209437138
	-0.207336049812
	-0.323992457998
	-0.300670431777
	-0.345932362439
	-0.249760833217
	-0.342286302836
	-0.273458659203
	-0.413719428537
	-0.282276913712
	-0.336447531931
	-0.337845034089
	-0.487738532666
	-0.487738532666
	-0.395699713027
	-0.328300306038
	-0.141405106962
	-0.37498498785
	-0.373525559049
	-0.235041499255
	-0.438056763599
	-0.464022409231
	-0.307824838678
	-0.264906792773
	-0.401610146171
	-0.533148079446
	-0.512015358351
	-0.407188842658
	-0.419022704944
	-0.298682474435
	-0.34491748254
	-0.271756893607
	-0.271756893607
	-0.370319042292
	-0.343501614337
	-0.333031162783
	-0.379211317894
	-0.378635248708
	-0.264392417653
	-0.360243011037
	-0.116278347803
	-0.204306519388
	-0.23671769156
	-0.328300289919
	-0.230136373606
	-0.270654065862
	-0.370424945331
	-0.257095540343
	-0.456192409766
	-0.270126485929
	-0.371628621864
	-0.429312056863
	-0.283334902028
	-0.251499939104
	-0.219283595545
	-0.275296792336
	-0.276681698004
	-0.206857924386
	-0.400155593861
	-0.463094265998
	-0.407840318501
	-0.373110888304
	-0.393706364363
	-0.140425668318
	-0.171837497356
	-0.414555746889
	-0.155685994529
	-0.426479681615
	-0.209537493807
	-0.342316086302
	-0.43215507268
	-0.287440753852
	-0.365564682991
	-0.340201766788
	-0.340800734425
	-0.357874828299
	-0.478396179678
	-0.285266044805
	-0.340718109411
	-0.305231441655
	-0.378955722811
	-0.294985806473
	-0.311300929093
	-0.367242798013
	-0.417508396517
	-0.227207250148
	-0.265501197553
	-0.370658883162
	-0.133640357107
	-0.50920893342
	-0.260855706751
	-0.260855706751
	-0.323157835438
	-0.25806660384
	-0.298330694152
	-0.252811930208
	-0.243240538161
	-0.33905474633
	-0.083362316301
	-0.2931391947
	-0.314185607941
	-0.391409587965
	-0.432360623003
	-0.316517732174
	-0.312568997796
	-0.229973071791
	-0.422364546269
	-0.31562116761
	-0.367703017868
	-0.301537551237
	-0.303615215012
	-0.436614996101
	-0.401144239412
	-0.465787715619
	-0.263357895989
	-0.438285081369
	-0.225224192712
	-0.297787219515
	-0.190291186222
	-0.327235285923
	-0.336192400196
	-0.340378510868
	-0.397398706608
	-0.171163676465
	-0.331409857371
	-0.449796240321
	-0.461084671441
	-0.417106695419
	-0.352852705924
	-0.255443512524
	-0.32415692074
	-0.323473329825
	-0.32853825518
	-0.461505904236
	-0.376891669076
	-0.387399615419
	-0.20582178633
	-0.258230872957
	-0.329713543405
	-0.384192419677
	-0.260928181307
	-0.325000833059
	-0.100579689884
	-0.366672413801
	-0.365615731181
	-0.449852928676
	-0.433157212348
	-0.286231482545
	-0.215435279046
	-0.277158227913
	-0.250004686119
	-0.344678971559
	-0.361739067084
	-0.150876621891
	-0.16481739755
	-0.269593618286
	-0.269593618286
	-0.337897192333
	-0.312182775062
	-0.321529796169
	-0.38623444768
	-0.326788447924
	-0.253959636404
	-0.253959636404
	-0.218425068559
	-0.355507777797
	-0.182309364929
	-0.411444359329
	-0.268994210322
	-0.240196394503
	-0.390757695667
	-0.403475219291
	-0.484536097704
	-0.481856574383
	-0.375053287159
	-0.359209742931
	-0.253799715811
	-0.337302907997
	-0.256162086694
	-0.167974195584
	-0.238035987234
	-0.184339893746
	-0.333982015353
	-0.333982015353
	-0.356609002251
	-0.250079570076
	-0.461509999258
	-0.239040063893
	-0.256204620423
	-0.332498267283
	-0.238433839801
	-0.292938740376
	-0.389419335237
	-0.301635035078
	-0.428018360976
	-0.345539078054
	-0.386298756462
	-0.372902412754
	-0.479670174944
	-0.215044442308
	-0.239321517486
	-0.356047349737
	-0.510980479957
	-0.364146024615
	-0.262625830574
	-0.262625830574
	-0.262625830574
	-0.312933290251
	-0.221091154986
	-0.250527344064
	-0.249912824892
	-0.429762333687
	-0.254701175587
	-0.379673411428
	-0.343279533134
	-0.206491188751
	-0.268920435142
	-0.305867162931
	-0.391527177935
	-0.130001221326
	-0.214205330356
	-0.277250401156
	-0.522426661033
	-0.435788217842
	-0.254229535366
	-0.205165218734
	-0.409958380578
	-0.609237109557
	-0.243303632626
	-0.354789907745
	-0.425676449839
	-0.424380202991
	-0.389982651035
	-0.347369931261
	-0.210590187933
	-0.430048915634
	-0.430048915634
	-0.330186230361
	-0.395081945327
	-0.340945544146
	-0.306377545959
	-0.379313412875
	-0.306533113701
	-0.393712635587
	-0.37134016556
	-0.330261603854
	-0.290856436281
	-0.272416000664
	-0.328210705742
	-0.302499927812
	-0.44514287279
	-0.300058922511
	-0.300058922511
	-0.328912099924
	-0.224286562258
	-0.262972962383
	-0.177630061724
	-0.173143607502
	-0.383661708042
	-0.25831101159
	-0.371289926912
	-0.366298914148
	-0.322001272826
	-0.186664958217
	-0.231935425937
	-0.273437849768
	-0.341396624527
	-0.341396624527
	-0.388373945362
	-0.353545584688
	-0.297045992609
	-0.323991586252
	-0.275834868944
	-0.308367558398
	-0.479179858683
	-0.342518185014
	-0.442565103773
	-0.263151977845
	-0.396136293868
	-0.253123129606
	-0.451680794816
	-0.353371575412
	-0.354055810447
	-0.317277284752
	-0.187339099995
	-0.446683196051
	-0.316853945365
	-0.194515466283
	-0.338678006438
	-0.316930568684
	-0.316930568684
	-0.362243462931
	-0.310895155482
	-0.15219531057
	-0.493565062364
	-0.344963534401
	-0.412044936622
	-0.300296936738
	-0.372490846577
	-0.342943072574
	-0.379759386811
	-0.331290888179
	-0.31448931407
	-0.31448931407
	-0.243107840164
	-0.381411401291
	-0.280315840034
	-0.369178215068
	-0.369178215068
	-0.369178215068
	-0.363196960556
	-0.503390145428
	-0.277028402967
	-0.282908082652
	-0.282908082652
	-0.32553621955
	-0.344397605336
	-0.344397605336
	-0.353729390998
	-0.439954079972
	-0.34983773092
	-0.342978285722
	-0.301289775124
	-0.301498988231
	-0.241785275645
	-0.397577315202
	-0.311817433457
	-0.283476219353
	-0.29363131219
	-0.361884894967
	-0.361884894967
	-0.353553393635
	-0.338217778915
	-0.347966794012
	-0.344464311492
	-0.350731349311
	-0.183557371536
	-0.414487617713
	-0.206359742274
	-0.279815428662
	-0.410319989005
	-0.371607493285
	-0.250560788901
	-0.257683018209
	-0.313942308657
	-0.370318102129
	-0.356409377277
	-0.213447730462
	-0.0952809462961
	-0.36518247723
	-0.500238368284
	-0.234052332783
	-0.381526212976
	-0.366318662934
	-0.143316587878
	-0.359875700567
	-0.254895149797
	-0.31574867808
	-0.31574867808
	-0.129032171202
	-0.273225232263
	-0.44974102075
	-0.407446912833
	-0.131318617354
	-0.412637617821
	-0.407385887961
	-0.407385887961
	-0.439081907312
	-0.337276184187
	-0.337276184187
	-0.116661321106
	-0.405105896279
	-0.280936647125
	-0.32658262069
	-0.277961629717
	-0.332816162119
	-0.356042032916
	-0.345608584589
	-0.31290630734
	-0.456047398246
	-0.465163892437
	-0.419086312456
	-0.45324522603
	-0.333628114126
	-0.382943016943
	-0.423750536177
	-0.36380838414
	-0.615419824448
	-0.176189868835
	-0.378093328119
	-0.279687140795
	-0.438024559368
	-0.261795574044
	-0.284396296065
	-0.250845463916
	-0.479605736415
	-0.460972387676
	-0.403558820529
	-0.223545186396
	-0.426791973067
	-0.252323542317
	-0.296368954253
	-0.296368954253
	-0.49864365624
	-0.49864365624
	-0.406337735895
	-0.286475807615
	-0.304950952159
	-0.304950952159
	-0.304249176313
	-0.156865249894
	-0.397806395627
	-0.203309574614
	-0.277561449998
	-0.240303682569
	-0.123760518953
	-0.39705986608
	-0.233448305358
	-0.199687643718
	-0.312572866971
	-0.298437328683
	-0.456542389798
	-0.308695413569
	-0.169785436422
	-0.277310816363
	-0.356421035496
	-0.261651003738
	-0.204608949152
	-0.53492581139
	-0.334973589468
	-0.437614735137
	-0.392494089354
	-0.237096697595
	-0.173774048747
	-0.208570973942
	-0.323184896197
	-0.323184896197
	-0.486450744153
	-0.486450744153
	-0.335045831835
	-0.375247436758
	-0.408281455295
	-0.374452646953
	-0.288423066564
	-0.429312948899
	-0.296454640768
	-0.309290707347
	-0.57438601768
	-0.42862810173
	-0.346227700086
	-0.380539676454
	-0.245203944314
	-0.39338811269
	-0.333190908017
	-0.190256607071
	-0.226484966818
	-0.553205541458
	-0.4600675728
	-0.292542602074
	-0.264331391551
	-0.352737135441
	-0.384028985306
	-0.290210846878
	-0.412394717211
	-0.209977191288
	-0.292317756882
	-0.329260723614
	-0.269165749217
	-0.451551624207
	-0.308213754412
	-0.302188470232
	-0.39338997556
	-0.0816695582215
	-0.312908845981
	-0.324023324063
	-0.325791483342
	-0.326786552965
	-0.324250512361
	-0.193473157167
	-0.343488023814
	-0.332125617023
	-0.486439142709
	-0.347731483668
	-0.356059316978
	-0.523880752433
	-0.359459315997
	-0.191754657548
	-0.241382856144
	-0.291490328793
	-0.368538530699
	-0.277469561428
	-0.463751913327
	-0.301153992784
	-0.265489459628
	-0.325591496577
	-0.33463810119
	-0.455350200817
	-0.457149581035
	-0.355764969724
	-0.399076074855
	-0.399076074855
	-0.222450916376
	-0.277948528476
	-0.343172196589
	-0.279219022953
	-0.368354432687
	-0.269355829432
	-0.548161402945
	-0.284120137197
	-0.207258887313
	-0.183890423778
	-0.388424812515
	-0.250952616261
	-0.250952616261
	-0.256060629786
	-0.256060629786
	-0.385296164428
	-0.217294683494
	-0.385283378132
	-0.195508316846
	-0.301684150272
	-0.420989720407
	-0.427788421032
	-0.310766122627
	-0.319534504453
	-0.250945800556
	-0.337900830631
	-0.315649877594
	-0.413304948972
	-0.421945056316
	-0.373479025039
	-0.509428190685
	-0.249963068427
	-0.0583410636788
	-0.306942143069
	-0.341159718914
	-0.317656563434
	-0.2695391343
	-0.2695391343
	-0.367422486041
	-0.367422486041
	-0.253294776414
	-0.273170296864
	-0.202886104371
	-0.25579265444
	-0.329379550152
	-0.444282991787
	-0.269207306886
	-0.37455122535
	-0.423068661389
	-0.394997890419
	-0.0904642737679
	-0.315243720132
	-0.384487432921
	-0.403144108438
	-0.277526607251
	-0.299465723849
	-0.302558158854
	-0.29078803801
	-0.268903589715
	-0.426967310371
	-0.415383579837
	-0.290769839386
	-0.251742409
	-0.243225690464
	-0.288700793982
	-0.319443504743
	-0.415509139136
	-0.492570325043
	-0.317627740816
	-0.338230984807
	-0.34480222978
	-0.170606928629
	-0.354534746685
	-0.372224133021
	-0.486115509204
	-0.158049586998
	-0.433513271692
	-0.433513271692
	-0.432046933101
	-0.471737829369
	-0.412881574749
	-0.466397915195
	-0.367922136153
	-0.335217785522
	-0.335217785522
	-0.434845324898
	-0.363325286637
	-0.393488984174
	-0.246673431789
	-0.400827433632
	-0.431632690602
	-0.367446406891
	-0.37267097137
	-0.12957429069
	-0.373691245091
	-0.257597948864
	-0.307996836509
	-0.324112918776
	-0.363635511745
	-0.225246395692
	-0.398004810123
	-0.447560379658
	-0.270838013646
	-0.415544632697
	-0.454043674502
	-0.360436371579
	-0.467403941339
	-0.314504137046
	-0.306092375248
	-0.343647900508
	-0.362004873362
	-0.294166368471
	-0.304177076894
	-0.329117554568
	-0.244156195338
	-0.244156195338
	-0.342277793065
	-0.285097316151
	-0.361069538901
	-0.328204151732
	-0.344560250231
	-0.228808249881
	-0.297472894647
	-0.447109784421
	-0.387010476993
	-0.268884216135
	-0.313044764678
	-0.26338704146
	-0.194931847917
	-0.259488388684
	-0.533079287741
	-0.578074925073
	-0.493368527034
	-0.314996301824
	-0.317035593656
	-0.307851023047
	-0.307851023047
	-0.325879240873
	-0.376058667275
	-0.225006299551
	-0.243383507767
	-0.511369077666
	-0.308198099685
	-0.475275133991
	-0.294094882102
	-0.241830858253
	-0.484614074482
	-0.415203480619
	-0.329314689195
	-0.318303526152
	-0.318303526152
	-0.425279005312
	-0.42425936346
	-0.321942617423
	-0.214680031762
	-0.306929182336
	-0.433697070229
	-0.429536675121
	-0.121202287613
	-0.259894798732
	-0.249997685905
	-0.457904953341
	-0.368724975141
	-0.287302323671
	-0.356249582597
	-0.356249582597
	-0.291722376797
	-0.275942445579
	-0.383191581824
	-0.362805486077
	-0.322647240947
	-0.383338481346
	-0.147334031814
	-0.269696416502
	-0.350607898593
	-0.357392797635
	-0.329548721866
	-0.540858946026
	-0.216126089855
	-0.390134863646
	-0.368850093126
	-0.276632335488
	-0.297870333936
	-0.302954730918
	-0.42893474943
	-0.297421964741
	-0.445587938836
	-0.313995640468
	-0.359254998574
	-0.383809764948
	-0.383852892689
	-0.383852892689
	-0.232189241854
	-0.455536027993
	-0.240597299736
	-0.3425653108
	-0.339738854528
	-0.346819916289
	-0.474442662238
	-0.490053981869
	-0.377825876218
	-0.392608014583
	-0.332517645532
	-0.368996040247
	-0.374054134928
	-0.214387152299
	-0.308016132216
	-0.330411089311
	-0.308532022993
	-0.287436355889
	-0.509519844506
	-0.267937722107
	-0.230879253111
	-0.343278912059
	-0.111824755535
	-0.41371018793
	-0.475216549197
	-0.385324554408
	-0.303793794545
	-0.42268503511
	-0.280086005534
	-0.313513429574
	-0.355404597812
	-0.239792373081
	-0.224659763818
	-0.552583003328
	-0.464324854557
	-0.30842160859
	-0.376772503369
	-0.284350184891
	-0.334299366466
	-0.440401283914
	-0.329981476953
	-0.42722732999
	-0.379656592674
	-0.217068823969
	-0.42073057418
	-0.423472957801
	-0.449614904601
	-0.29820486069
	-0.128895220792
	-0.300030818129
	-0.404707869628
	-0.254000910015
	-0.257906454639
	-0.444221501404
	-0.430494079747
	-0.415291819151
	-0.395161251005
	-0.395161251005
	-0.357031565661
	-0.467694665452
	-0.526253972351
	-0.231795624518
	-0.411940278104
	-0.532345159667
	-0.282673526114
	-0.257336051354
	-0.307295420037
	-0.489166419609
	-0.0949357511583
	-0.187903541114
	-0.187917932324
	-0.365043618853
	-0.20144243389
	-0.463298121448
	-0.373538461833
	-0.264353151985
	-0.358608980468
	-0.358608980468
	-0.276193324802
	-0.251416544296
	-0.414153630912
	-0.3095863982
	-0.276270925267
	-0.363839323856
	-0.416660273282
	-0.368960960544
	-0.31516191889
	-0.296581190486
	-0.283559068983
	-0.356389780929
	-0.436155067438
	-0.240176514414
	-0.4547025433
	-0.311059757509
	-0.521827976142
	-0.264991509979
	-0.317237767619
	-0.163696874705
	-0.436715096193
	-0.30204150636
	-0.338977711345
	-0.322789491086
	-0.319050419572
	-0.319050419572
	-0.377111515703
	-0.373964940331
	-0.201583226554
	-0.324596960442
	-0.249674106119
	-0.348288606875
	-0.429434855377
	-0.386604125616
	-0.453164109963
	-0.374584611791
	-0.413105600798
	-0.280741909454
	-0.325961251291
	-0.309982951181
	-0.303447659888
	-0.425440968068
	-0.305339186382
	-0.317520360065
	-0.317520360065
	-0.195755609591
	-0.355632365884
	-0.355632365884
	-0.36167737522
	-0.294809088063
	-0.254911011266
	-0.52419499042
	-0.375522376291
	-0.388051125516
	-0.382014948825
	-0.415683703779
	-0.308189875839
	-0.360920208723
	-0.393529566409
	-0.181382932053
	-0.351044975665
	-0.34680852726
	-0.518024291188
	-0.446846578476
	-0.277476269326
	-0.277476269326
	-0.134084173356
	-0.422481506663
	-0.371601690749
	-0.278674090026
	-0.493482159549
	-0.273802916579
	-0.249093012225
	-0.313784446949
	-0.52794552895
	-0.494041434631
	-0.289069167865
	-0.316363830579
	-0.374887460398
	-0.315837478437
	-0.321207919237
	-0.321207919237
	-0.371747907022
	-0.449673259174
	-0.372105048594
	-0.325141986165
	-0.427816641593
	-0.247452640929
	-0.381459333071
	-0.284786436489
	-0.422983953447
	-0.330889524202
	-0.390166704371
	-0.33568577941
	-0.419788516385
	-0.425983214518
	-0.303968445903
	-0.303968445903
	-0.183322242034
	-0.133789002819
	-0.396499317341
	-0.221341273012
	-0.256009362146
	-0.358738111763
	-0.342879390007
	-0.287293756882
	-0.40392930867
	-0.477633700976
	-0.25913023719
	-0.124838277537
	-0.412162629202
	-0.237608985162
	-0.368379861429
	-0.360574128772
	-0.363544775932
	-0.349114176269
	-0.273299726583
	-0.273299726583
	-0.458986385626
	-0.344876963594
	-0.224157865866
	-0.287279894155
	-0.155602584788
	-0.405714130103
	-0.342320567938
	-0.481452201986
	-0.184193486716
	-0.166928043983
	-0.400843521788
	-0.459312070836
	-0.399122594125
	-0.334537670664
	-0.580888238011
	-0.400613410701
	-0.400613410701
	-0.266547360636
	-0.399566173184
	-0.249087839826
	-0.349974359792
	-0.378453960062
	-0.307626610705
	-0.366335078601
	-0.371273385017
	-0.41576236693
	-0.319540388326
	-0.274616757593
	-0.325937274765
	-0.484707066619
	-0.47067385249
	-0.163647036665
	-0.391587957651
	-0.273039605392
	-0.360482158788
	-0.189818723169
	-0.468082904457
	-0.340015770434
	-0.340015770434
	-0.385243798765
	-0.351686372847
	-0.244646585798
	-0.263848622214
	-0.388153290681
	-0.257675041572
	-0.258328261315
	-0.359920703628
	-0.439693373896
	-0.447647166162
	-0.51660897093
	-0.409507491456
	-0.296933538109
	-0.336633068332
	-0.463964386962
	-0.399808521547
	-0.318500226032
	-0.29676706685
	-0.450256594949
	-0.33994123709
	-0.416580801955
	-0.326922599482
	-0.388050720084
	-0.2727030978
	-0.310811665865
	-0.267609030416
	-0.410839601956
	-0.328242048753
	-0.30325201886
	-0.511764474499
	-0.290016740228
	-0.417270535933
	-0.463047995575
	-0.403890497441
	-0.225520223994
	-0.514535374626
	-0.336214646765
	-0.231995669938
	-0.329002731771
	-0.39404643453
	-0.199395231619
	-0.269191602735
	-0.37790555261
	-0.386030211186
	-0.238995683615
	-0.364918191259
	-0.414308736642
	-0.404413859215
	-0.41891584686
	-0.286781381227
	-0.290340339304
	-0.276939842268
	-0.420361078782
	-0.256356092721
	-0.0904303562026
	-0.380821978766
	-0.409074565577
	-0.430016794385
	-0.360274003705
	-0.408499408895
	-0.420018535251
	-0.393789952266
	-0.353579266054
	-0.353579266054
	-0.266703197838
	-0.25762963247
	-0.314271506815
	-0.458485421125
	-0.309139418373
	-0.309139418373
	-0.38760536327
	-0.418291884592
	-0.398900928775
	-0.127594534808
	-0.353248187642
	-0.0897345290716
	-0.247836573315
	-0.336601711423
	-0.278788755132
	-0.202555151073
	-0.339615551464
	-0.339615551464
	-0.353809117508
	-0.362885588807
	-0.283211128993
	-0.357223966756
	-0.402524806768
	-0.402524806768
	-0.439855905123
	-0.418979380352
	-0.360007410817
	-0.370387795731
	-0.35379971093
	-0.473287349114
	-0.283419716995
	-0.404624376887
	-0.428307714023
	-0.284077298879
	-0.40849227828
	-0.409957775835
	-0.484550751849
	-0.292184508909
	-0.434397093279
	-0.334934405721
	-0.398562297144
	-0.205422365091
	-0.280280451094
	-0.362860795395
	-0.431606447032
	-0.343664988583
	-0.257261004609
	-0.389432478744
	-0.0426123577516
	-0.21547686555
	-0.450547656676
	-0.434635829795
	-0.256582280035
	-0.286283724108
	-0.413829999474
	-0.470614141445
	-0.489187389781
	-0.262759743293
	-0.356687583117
	-0.332239268814
	-0.271308923099
	-0.40298681087
	-0.254938494149
	-0.389592157638
	-0.431712486916
	-0.431712486916
	-0.444041859495
	-0.262796770356
	-0.509075500651
	-0.317689203459
	-0.294924134739
	-0.232727345498
	-0.329012806556
	-0.36942150914
	-0.24426744774
	-0.36374316412
	-0.261103577904
	-0.399593591625
	-0.272056695607
	-0.383777210694
	-0.248726421373
	-0.248726421373
	-0.248726421373
	-0.162397314096
	-0.186009352805
	-0.517273347604
	-0.186399308815
	-0.472933102135
	-0.401244731169
	-0.377809604581
	-0.369119625139
	-0.301843277641
	-0.288033379757
	-0.329030301823
	-0.329030301823
	-0.329030301823
	-0.250002038152
	-0.306214971489
	-0.366257066347
	-0.344347941108
	-0.359876561451
	-0.346697721442
	-0.281009519865
	-0.430734594317
	-0.149245983509
	-0.210413436133
	-0.352401283554
	-0.187348949818
	-0.455886977941
	-0.221648998548
	-0.300812446507
	-0.238171879703
	-0.399613592385
	-0.307204307176
	-0.229231840336
	-0.291678168383
	-0.165092620935
	-0.395487460571
	-0.44594119755
	-0.25898789102
	-0.393092490696
	-0.272839431273
	-0.265922085306
	-0.280022520086
	-0.275085856607
	-0.457914988341
	-0.351513416139
	-0.367385320312
	-0.268286739981
	-0.160505959553
	-0.401764959194
	-0.297415109037
	-0.485045380516
	-0.224602530932
	-0.189904683594
	-0.291130168121
	-0.256178830905
	-0.393954661277
	-0.372307695586
	-0.284724907183
	-0.284724907183
	-0.329063397515
	-0.323837186291
	-0.267851199529
	-0.373712504117
	-0.373712504117
	-0.446579942844
	-0.471063532209
	-0.360335276995
	-0.342253142841
	-0.443891039302
	-0.315086235737
	-0.369888013814
	-0.369888013814
	-0.42357493704
	-0.274927220624
	-0.231586457616
	-0.358316260846
	-0.241848035496
	-0.430190925549
	-0.277583628662
	-0.446767108887
	-0.46004224362
	-0.524350273569
	-0.234326251242
	-0.234326251242
	-0.320834403003
	-0.319604278791
	-0.229823478357
	-0.333180894666
	-0.421739228209
	-0.327883734896
	-0.401555254898
	-0.354903951256
	-0.379592450974
	-0.267625721268
	-0.285359110359
	-0.281896561336
	-0.451028672648
	-0.498250361634
	-0.284173331113
	-0.263385445226
	-0.217653753032
	-0.41694096946
	-0.356842950765
	-0.24852329809
	-0.264222305772
	-0.459486798048
	-0.170751625195
	-0.296347814142
	-0.369441627365
	-0.198984523513
	-0.354548397385
	-0.464625519232
	-0.349401451982
	-0.442435401645
	-0.132880846602
	-0.437831220993
	-0.461614456126
	-0.336947444456
	-0.320643776392
	-0.320643776392
	-0.351302063087
	-0.26408885371
	-0.376139965149
	-0.413162109875
	-0.377331815945
	-0.220493656154
	-0.416228666589
	-0.282487668224
	-0.342733079348
	-0.349475049159
	-0.171082410312
	-0.442379436619
	-0.404585598714
	-0.490334447459
	-0.367645494162
	-0.464095107547
	-0.464095107547
	-0.216740712004
	-0.31725527795
	-0.32403250856
	-0.482646041479
	-0.286987533072
	-0.353973717253
	-0.418060357555
	-0.322901453664
	-0.321937007375
	-0.391600963453
	-0.363826456887
	-0.323814756365
	-0.311547848796
	-0.242926103151
	-0.338881979532
	-0.454458503937
	-0.257988284093
	-0.321145819837
	-0.265349133076
	-0.372870561321
	-0.312762315778
	-0.38247274768
	-0.289592398311
	-0.362837316775
	-0.233437036235
	-0.398392662926
	-0.41571054605
	-0.438342688526
	-0.41613377096
	-0.119364309958
	-0.289032074696
	-0.351700325058
	-0.297339461685
	-0.313747392008
	-0.38118475156
	-0.38118475156
	-0.285109940437
	-0.153500593514
	-0.330269571049
	-0.25209317862
	-0.389244374723
	-0.430657342087
	-0.423682066353
	-0.411154722557
	-0.480660092837
	-0.327983733599
	-0.48033679738
	-0.367278840787
	-0.153268261543
	-0.305583395811
	-0.305583395811
	-0.351539958067
	-0.412624040158
	-0.289372352738
	-0.251450143328
	-0.216374646574
	-0.410546083246
	-0.205525004049
	-0.450177491834
	-0.450177491834
	-0.15243033735
	-0.438978158405
	-0.331701586741
	-0.240439278608
	-0.279526126962
	-0.396116995673
	-0.423968667465
	-0.211076172223
	-0.322243305427
	-0.328397878213
	-0.256207260213
	-0.323885140626
	-0.195459982496
	-0.479368280802
	-0.390665162964
	-0.212070994858
	-0.332835033098
	-0.332835033098
	-0.294165254141
	-0.182000395679
	-0.283439332461
	-0.394111337563
	-0.280059832868
	-0.106307324722
	-0.253630973152
	-0.0906712737383
	-0.427778615929
	-0.328149307709
	-0.190624223043
	-0.185812894659
	-0.358612538676
	-0.284158447169
	-0.352533100976
	-0.352533100976
	-0.344850089869
	-0.391142185737
	-0.337913459145
	-0.313488777675
	-0.244309040849
	-0.272316975299
	-0.236553904946
	-0.236553904946
	-0.274285951466
	-0.344521516991
	-0.344521516991
	-0.119557016208
	-0.40579521573
	-0.19884872245
	-0.146825235784
	-0.199183232674
	-0.295738072441
	-0.319291954343
	-0.391653324011
	-0.381149957621
	-0.180611968098
	-0.186447310443
	-0.400048992862
	-0.371245129055
	-0.518062111321
	-0.411107936738
	-0.503664431542
	-0.347371575224
	-0.386851826872
	-0.228967534982
	-0.31130771255
	-0.381500271942
	-0.169982771399
	-0.269700573035
	-0.348975297224
	-0.333897487942
	-0.392338921293
	-0.429949832982
	-0.43261228772
	-0.395823249816
	-0.382738163858
	-0.229406928743
	-0.265621600682
	-0.213454911258
	-0.411747505799
	-0.399109126071
	-0.423081992058
	-0.3472642502
	-0.391526923572
	-0.391526923572
	-0.471640230034
	-0.43180777973
	-0.37749045563
	-0.399535065651
	-0.382877591171
	-0.532026164984
	-0.485810492347
	-0.408589976465
	-0.27257624312
	-0.167307973626
	-0.178342178647
	-0.448024370692
	-0.41429008651
	-0.426027640096
	-0.251475403446
	-0.434540056586
	-0.364043340202
	-0.402315970175
	-0.27578591086
	-0.301577183763
	-0.497485398102
	-0.32615794258
	-0.406616896929
	-0.461119830512
	-0.30403797864
	-0.294452703598
	-0.403038660517
	-0.343176579612
	-0.356657108682
	-0.471240157997
	-0.360981680101
	-0.29833453605
	-0.330399866971
	-0.326511137806
	-0.323072874175
	-0.312247139242
	-0.279573924169
	-0.280265480131
	-0.226635651009
	-0.331576022353
	-0.299667807661
	-0.321656369875
	-0.38342646693
	-0.347550324377
	-0.22419171597
	-0.490948184725
	-0.379600926723
	-0.419286105288
	-0.294916850437
	-0.328281939712
	-0.255857755052
	-0.311652778039
	-0.367899946652
	-0.356196870643
	-0.468590663236
	-0.462978204163
	-0.456743662795
	-0.274193201962
	-0.231612183583
	-0.330284317628
	-0.148264408144
	-0.41201283661
	-0.288808797872
	-0.468074539994
	-0.434585678215
	-0.141505244811
	-0.200999525185
	-0.270093851667
	-0.215854290622
	-0.454880617082
	-0.472327743403
	-0.285198988196
	-0.443732325986
	-0.368963968886
	-0.304724217458
	-0.200965815848
	-0.334527289368
	-0.306804096613
	-0.4535060012
	-0.354473568115
	-0.377129477172
	-0.361872300238
	-0.361872300238
	-0.33675963209
	-0.169697078954
	-0.35664610014
	-0.377077386855
	-0.261456397577
	-0.158011420797
	-0.325210115838
	-0.31544454328
	-0.387057001987
	-0.378948997198
	-0.352282346894
	-0.338805375781
	-0.322859369748
	-0.274703941888
	-0.284969243072
	-0.399182451351
	-0.368808577053
	-0.409826918447
	-0.495666302261
	-0.0949383321763
	-0.218454283416
	-0.353943965204
	-0.287710691779
	-0.24452236665
	-0.36246729461
	-0.340038483329
	-0.380923657129
	-0.380923657129
	-0.368710419818
	-0.272289249348
	-0.300467444499
	-0.208915603665
	-0.319372695467
	-0.359970711376
	-0.369317562962
	-0.188618689842
	-0.461515133268
	-0.390167448629
	-0.208952675736
	-0.473063141788
	-0.164068064956
	-0.4860692929
	-0.302298905523
	-0.291850977838
	-0.427200646768
	-0.427200646768
	-0.344697687116
	-0.361457899472
	-0.403892718526
	-0.304238029105
	-0.36001724147
	-0.19433307399
	-0.261559328673
	-0.269199621436
	-0.402129749248
	-0.177502180983
	-0.491189184919
	-0.261067735501
	-0.245248125106
	-0.155960997982
	-0.367963167301
	-0.306966318703
	-0.306966318703
	-0.314376630822
	-0.31097958163
	-0.419122448693
	-0.41149095257
	-0.312593714379
	-0.326735794316
	-0.48818011622
	-0.313451546359
	-0.367868172867
	-0.367868172867
	-0.29185641604
	-0.283357458628
	-0.201406619165
	-0.329632030544
	-0.323834384737
	-0.491145339513
	-0.366394530774
	-0.535432398232
	-0.334619369996
	-0.364650795828
	-0.235499170551
	-0.254223890923
	-0.169036045389
	-0.431963831061
	-0.295848354303
	-0.269328788807
	-0.319617557811
	-0.264208252577
	-0.486921409566
	-0.379753828764
	-0.40106489693
	-0.32176294657
	-0.281092562866
	-0.321544737472
	-0.45576336393
	-0.550475929021
	-0.381967125798
	-0.311066750545
	-0.354179131472
	-0.355790427019
	-0.417798782338
	-0.118784279542
	-0.274821762055
	-0.233205327926
	-0.400288781474
	-0.400288781474
	-0.292454241674
	-0.435676524013
	-0.3293961286
	-0.224296003954
	-0.445359192139
	-0.518785135898
	-0.326041356694
	-0.477863518193
	-0.372093550932
	-0.33699203248
	-0.128514676278
	-0.42170256818
	-0.479605273741
	-0.392651237053
	-0.22135492964
	-0.341255278612
	-0.393553895181
	-0.434132836263
	-0.173600122924
	-0.444952362565
	-0.24128583074
	-0.428546141629
	-0.251166122378
	-0.451926469978
	-0.314063943282
	-0.253577719727
	-0.228766792036
	-0.355736267584
	-0.463102906892
	-0.362824792502
	-0.151909093459
	-0.261420383578
	-0.342154306125
	-0.213969239318
	-0.303876071865
	-0.250397269404
	-0.225314322823
	-0.539211789741
	-0.458418884609
	-0.329645323687
	-0.275127471101
	-0.428875614892
	-0.201200049084
	-0.30047666594
	-0.273102039281
	-0.260394788984
	-0.253196186078
	-0.42404256822
	-0.397536212649
	-0.407927764919
	-0.395752934854
	-0.458178353635
	-0.229346169591
	-0.291075292259
	-0.461843870462
	-0.454256539534
	-0.442327872424
	-0.307789429792
	-0.286423510058
	-0.491993329765
	-0.277564138723
	-0.398137572839
	-0.297834857102
	-0.310664758652
	-0.243485622563
	-0.318147339936
	-0.252360616424
	-0.254770355531
	-0.293831573318
	-0.293831573318
	-0.318451458843
	-0.341289335076
	-0.426198622067
	-0.197272152977
	-0.425657124446
	-0.231101446326
	-0.346386487294
	-0.12584787007
	-0.339128181652
	-0.364774457806
	-0.472117798795
	-0.461444316516
	-0.38173773492
	-0.38173773492
	-0.40167573096
	-0.339227129158
	-0.255473654357
	-0.367113797937
	-0.388131919391
	-0.371937449739
	-0.261730503795
	-0.411126499562
	-0.494629765363
	-0.452169823005
	-0.242832673755
	-0.488950382072
	-0.386424592217
	-0.263614786432
	-0.603719511487
	-0.471684254882
	-0.360788527382
	-0.440825281234
	-0.430857919355
	-0.528875858207
	-0.394737250433
	-0.326849294251
	-0.326849294251
	-0.248391013595
	-0.403757392338
	-0.444162403695
	-0.250161459257
	-0.382078982603
	-0.344390476087
	-0.344390476087
	-0.439198547187
	-0.480853530081
	-0.350972152897
	-0.537053882422
	-0.238549492806
	-0.506394391345
	-0.24574542569
	-0.358611957885
	-0.354665408234
	-0.32816350073
	-0.343735127362
	-0.467862507136
	-0.488335834386
	-0.396527055313
	-0.157739972825
	-0.433589774901
	-0.281569413957
	-0.271433813268
	-0.30059630844
	-0.488675381939
	-0.27485037578
	-0.532225298968
	-0.219325899526
	-0.243948065294
	-0.488285190628
	-0.390938858373
	-0.458336675548
	-0.360364935072
	-0.152490727637
	-0.27952407333
	-0.248957862467
	-0.244114789056
	-0.364740690258
	-0.219388704291
	-0.466197432428
	-0.268147966503
	-0.332306770389
	-0.192383067574
	-0.348200938085
	-0.440256956571
	-0.269595585767
	-0.418025963967
	-0.361052078466
	-0.370598246676
	-0.407784082378
	-0.476249622974
	-0.275743834203
	-0.301445434163
	-0.345814230436
	-0.343926748856
	-0.257077512155
	-0.20864658954
	-0.216409889593
	-0.10438237842
	-0.304667861161
	-0.26297360938
	-0.30897592134
	-0.198027111838
	-0.161512068086
	-0.259473858223
	-0.249184382019
	-0.223848891076
	-0.340226488279
	-0.358330552547
	-0.31800286563
	-0.393246952658
	-0.283604972678
	-0.489191213837
	-0.307089148776
	-0.235425750075
	-0.208689997702
	-0.371979507646
	-0.40799447197
	-0.432502123154
	-0.173513576712
	-0.16999936081
	-0.249735024666
	-0.474939828916
	-0.459596202039
	-0.332926535167
	-0.432410800118
	-0.33986936119
	-0.330714579397
	-0.256825891949
	-0.293216112184
	-0.484778863523
	-0.304585817684
	-0.418793266348
	-0.281748629983
	-0.274313182445
	-0.270856722646
	-0.327708392271
	-0.394459988285
	-0.315095407084
	-0.399281674858
	-0.302818981536
	-0.151504582795
	-0.462762599442
	-0.307989448481
	-0.377815658643
	-0.0898892469286
	-0.377851599238
	-0.273924331868
	-0.421232913498
	-0.283398515293
	-0.283398515293
	-0.262329332947
	-0.39493088307
	-0.39493088307
	-0.442096192369
	-0.520581829365
	-0.458396207059
	-0.445646760527
	-0.34813980524
	-0.340542389685
	-0.46802945653
	-0.26999034461
	-0.328792994096
	-0.324332452867
	-0.225689332126
	-0.413903285783
	-0.323134031897
	-0.2988229783
	-0.187265381156
	-0.357318876763
	-0.350541665821
	-0.357470515168
	-0.381304459159
	-0.347792759759
	-0.43370412908
	-0.359046360041
	-0.380679707871
	-0.393925168953
	-0.393925168953
	-0.196453351154
	-0.525999719125
	-0.23404848858
	-0.488003757326
	-0.274259697032
	-0.309438448232
	-0.388493179682
	-0.384158228923
	-0.387687948894
	-0.357124259415
	-0.357124259415
	-0.193516689567
	-0.353155259936
	-0.261487572978
	-0.470696837736
	-0.475471651381
	-0.29606427217
	-0.323705908801
	-0.410404847922
	-0.286045857617
	-0.575795148436
	-0.431791450844
	-0.543895332414
	-0.389573604308
	-0.232648454186
	-0.441235730456
	-0.285273431638
	-0.517134395747
	-0.387149819509
	-0.339386750301
	-0.239716034708
	-0.141486936595
	-0.450519008707
	-0.315256673512
	-0.305039108771
	-0.388200703288
	-0.37550887856
	-0.481197702712
	-0.315656361858
	-0.298162677563
	-0.242852965604
	-0.202931330129
	-0.396218869684
	-0.311069070748
	-0.218236941578
	-0.429927797701
	-0.162065372949
	-0.511051745892
	-0.225374484035
	-0.277378799862
	-0.238045023644
	-0.393263542728
	-0.317452578174
	-0.490215818209
	-0.189305881043
	-0.304748856554
	-0.35213845859
	-0.542025731852
	-0.159515205348
	-0.460216783476
	-0.409509896663
	-0.223918821121
	-0.329614004123
	-0.241503640789
	-0.417174351037
	-0.391342008017
	-0.373429056053
	-0.179062756439
	-0.461179563499
	-0.517834867514
	-0.395985348383
	-0.483034781108
	-0.401983316213
	-0.349132717752
	-0.381240398308
	-0.285721532031
	-0.273890845473
	-0.407247161719
	-0.255502114398
	-0.142066283597
	-0.367107241808
	-0.439058681344
	-0.295706081042
	-0.480781138477
	-0.288269896484
	-0.410258517765
	-0.460328444704
	-0.337770458962
	-0.23347536169
	-0.416723715204
	-0.279939073656
	-0.465027137685
	-0.193589023357
	-0.368886315118
	-0.317036576453
	-0.497120622603
	-0.352650323899
	-0.33755933396
	-0.355505371116
	-0.393479121822
	-0.232259554447
	-0.301249971363
	-0.349874242698
	-0.221539194343
	-0.311730543045
	-0.46595105461
	-0.46595105461
	-0.473005804155
	-0.392460090967
	-0.392460090967
	-0.40981917636
	-0.452987067625
	-0.446063699887
	-0.331865735908
	-0.447408108631
	-0.251766919153
	-0.344100252493
	-0.438907793763
	-0.353082427811
	-0.277913578079
	-0.511589114537
	-0.342422491018
	-0.330476128557
	-0.494572361972
	-0.239683030098
	-0.178580869391
	-0.314583251143
	-0.448505591103
	-0.430188631496
	-0.246881503198
	-0.439176022898
	-0.0934762450151
	-0.253945552249
	-0.324044503683
	-0.188162027911
	-0.219042444871
	-0.304519016589
	-0.293981783484
	-0.245832903062
	-0.382430535075
	-0.382430535075
	-0.375879585631
	-0.262269247981
	-0.324918766431
	-0.476117293016
	-0.387075526095
	-0.306147109468
	-0.31519091124
	-0.233398456772
	-0.358295497888
	-0.35534424196
	-0.424249156661
	-0.325975740845
	-0.234800997282
	-0.132737683255
	-0.225329508613
	-0.0803131055519
	-0.147108906516
	-0.391500970423
	-0.36828522312
	-0.294226888542
	-0.25315559493
	-0.28608105933
	-0.279176797462
	-0.215866214575
	-0.117413832418
	-0.347247729421
	-0.251519279406
	-0.453396184719
	-0.232409537493
	-0.287010548156
	-0.417562703772
	-0.230409235105
	-0.322360540184
	-0.262793887467
	-0.261793173623
	-0.400603896033
	-0.26140991544
	-0.274751553156
	-0.474009147315
	-0.335094820105
	-0.283389582221
	-0.198656480966
	-0.314547863887
	-0.448836174599
	-0.203332582661
	-0.368210085763
	-0.451947655919
	-0.320075056335
	-0.256676857059
	-0.347973997013
	-0.108009830487
	-0.241712587093
	-0.379268499817
	-0.284625405412
	-0.445291772837
	-0.322355071671
	-0.349070251273
	-0.278104246515
	-0.242326660802
	-0.332188836506
	-0.454031240831
	-0.21291305998
	-0.384236250296
	-0.263542197956
	-0.290350010788
	-0.352541060315
	-0.179375656963
	-0.476756477335
	-0.218522383593
	-0.285001031477
	-0.327873099247
	-0.495088718223
	-0.204894885939
	-0.497995058001
	-0.351278911384
	-0.218664555258
	-0.325971325618
	-0.307817474056
	-0.307817474056
	-0.322459594941
	-0.327421169515
	-0.422737006541
	-0.333700848879
	-0.333193259595
	-0.259164171815
	-0.252647876565
	-0.280485992201
	-0.397062678289
	-0.315759141354
	-0.0955448630936
	-0.352991057188
	-0.349322058911
	-0.420591415279
	-0.357218411506
	-0.267810496033
	-0.253242914217
	-0.332225446739
	-0.279987939278
	-0.23999489217
	-0.393194366398
	-0.398209310257
	-0.323229960236
	-0.377637783494
	-0.444380160293
	-0.416462156864
	-0.314523966944
	-0.184335349737
	-0.26978651322
	-0.361526048205
	-0.227043014802
	-0.338678736281
	-0.403779736888
	-0.426007530647
	-0.274599604152
	-0.274599604152
	-0.363646765765
	-0.172184149298
	-0.258358722003
	-0.38652764657
	-0.256304818586
	-0.387619783947
	-0.363169491205
	-0.23601034388
	-0.316670708698
	-0.45868136733
	-0.248213848269
	-0.0982895719512
	-0.255893490459
	-0.313119206433
	-0.571210773984
	-0.452387531623
	-0.18467207336
	-0.362228561998
	-0.205576447081
	-0.236854552637
	-0.301269469144
	-0.373281407592
	-0.282410101787
	-0.348606139414
	-0.348606139414
	-0.364065512944
	-0.356791747247
	-0.374726919993
	-0.336588408387
	-0.423732141337
	-0.303605464629
	-0.39848302124
	-0.196104138655
	-0.272414959398
	-0.347201530194
	-0.347201530194
	-0.197439507833
	-0.131141542931
	-0.253470426755
	-0.515914360684
	-0.402411818694
	-0.271236813511
	-0.476378601177
	-0.269013169776
	-0.326876876255
	-0.374369652782
	-0.374369652782
	-0.437045276081
	-0.432795394741
	-0.356929427019
	-0.356929427019
	-0.324249241542
	-0.332339878627
	-0.386451097847
	-0.445673755452
	-0.351527059881
	-0.308681210192
	-0.47392985567
	-0.284959191999
	-0.212801496701
	-0.28940214245
	-0.369020844217
	-0.466959041221
	-0.480344884518
	-0.375072807574
	-0.435808864892
	-0.414418837642
	-0.281704373907
	-0.311959634671
	-0.272646332765
	-0.357509152391
	-0.272416656734
	-0.47655496436
	-0.357493498613
	-0.306129119362
	-0.438634643439
	-0.531761906665
	-0.348404615528
	-0.212034188659
	-0.242050324759
	-0.400523191487
	-0.47828622516
	-0.369530221507
	-0.341006186527
	-0.0972540829206
	-0.262262264281
	-0.262262264281
	-0.485330136955
	-0.520869683099
	-0.367612605858
	-0.367400743681
	-0.310113008887
	-0.294658335294
	-0.366387188364
	-0.507302752807
	-0.338928414934
	-0.344253316275
	-0.33433484728
	-0.247377677691
	-0.250770831292
	-0.399603714484
	-0.319348767428
	-0.424995804036
	-0.411033680332
	-0.400724888347
	-0.28369463617
	-0.325245075833
	-0.487911614594
	-0.402453002325
	-0.391474629707
	-0.452095346953
	-0.419988106084
	-0.301783617276
	-0.232109796179
	-0.353026906651
	-0.378189213664
	-0.316108552542
	-0.133793213209
	-0.316901738409
	-0.276978050112
	-0.236089239148
	-0.318445340974
	-0.275232607879
	-0.291861966643
	-0.252452179051
	-0.388520191534
	-0.326135869238
	-0.343210787017
	-0.283592192009
	-0.165399408632
	-0.268096963325
	-0.397156265026
	-0.338042679596
	-0.179737814236
	-0.236956337681
	-0.240632047431
	-0.475392800028
	-0.475392800028
	-0.458119036215
	-0.267096299451
	-0.44015973763
	-0.376695591937
	-0.145071773533
	-0.395116461584
	-0.476362892628
	-0.365603570703
	-0.303562379956
	-0.474848024133
	-0.361601372778
	-0.253532695664
	-0.478784902532
	-0.353778382685
	-0.310334994498
	-0.267318925895
	-0.323762277152
	-0.382430351306
	-0.280099535807
	-0.329825688868
	-0.500535703143
	-0.217818314127
	-0.422259777431
	-0.45158166332
	-0.315171364569
	-0.431757108736
	-0.311334013298
	-0.311334013298
	-0.388021262702
	-0.348350812282
	-0.309364468261
	-0.29347613828
	-0.374406703409
	-0.343860093713
	-0.376507250334
	-0.217972999472
	-0.274397557203
	-0.447822767656
	-0.473043195364
	-0.268929502445
	-0.525430062424
	-0.238222762624
	-0.326033388441
	-0.384688466294
	-0.352780221312
	-0.34161369525
	-0.231339696331
	-0.360341806618
	-0.384648970143
	-0.297138081187
	-0.297138081187
	-0.295550824691
	-0.272425479056
	-0.286116963561
	-0.445033967056
	-0.371496136375
	-0.410154012729
	-0.353203614337
	-0.358362831387
	-0.411496945004
	-0.224216670854
	-0.378304435336
	-0.257865655602
	-0.286874425518
	-0.344581373302
	-0.330623279186
	-0.330623279186
	-0.368712997947
	-0.366948440362
	-0.294915738709
	-0.19438748606
	-0.418218214776
	-0.418218214776
	-0.441708007913
	-0.339419733097
	-0.337044309062
	-0.423379702387
	-0.341068178081
	-0.218241313134
	-0.37910127115
	-0.248216636609
	-0.486606024681
	-0.356101414402
	-0.396772951628
	-0.373454935798
	-0.334751927837
	-0.261503236489
	-0.362544262551
	-0.334105089262
	-0.32172097109
	-0.362710112353
	-0.284884219553
	-0.309849585409
	-0.306647697632
	-0.313204080889
	-0.392082678879
	-0.354896702417
	-0.311040060426
	-0.190430195744
	-0.33685066563
	-0.282061130563
	-0.438918355289
	-0.420150069396
	-0.375712308046
	-0.236411951671
	-0.190360108664
	-0.382897076952
	-0.381218362437
	-0.250229691608
	-0.335854400878
	-0.284611878195
	-0.330601607018
	-0.423475124036
	-0.315225306613
	-0.406332188575
	-0.479648504053
	-0.38041356133
	-0.193934997205
