# testdata from http://sumsar.net/blog/2014/03/bayesian-first-aid-pearson-correlation-test/
#
0.9427257753	54.1866031551
0.9336376282	52.1641068556
0.9460053089	51.1510006478
0.9526542961	51.1530907662
0.9177890969	50.1437659814
0.9386282624	50.1604119695
0.9224874706	49.1495755344
0.9312451114	49.1671436674
0.9525121668	49.1825267093
0.9701592978	49.195291361
0.9828262248	48.7079881354
0.9420613003	48.1360062732
0.9371693993	46.1464626386
0.9749364738	46.1809689407
1.0001789428	46.1923386763
0.9312600661	45.14446831
0.933001497	45.1506597116
0.9367790038	45.1593102179
0.9400674469	45.1465334093
0.9453578274	45.1648865349
0.9713089161	45.1750806624
0.9762451207	45.1687875998
0.9832176444	45.1836945707
0.9316153071	44.1415391809
0.9767158153	44.1770621706
0.9150911322	43.1436227882
0.9184282407	43.1443926841
0.9367541075	43.157648284
0.9411659307	43.1679869792
0.92509686	42.156285159
0.9316579728	42.1610309911
0.912560288	41.1742252225
0.9164816567	41.0936149825
0.9390616754	41.1356448808
0.9569711103	41.160106744
0.9008463091	40.1134276177
0.9356757989	40.1317319072
0.9438842924	40.1379824635
0.956533497	40.1537076813
0.9630083237	40.1411690216
0.9751061396	40.1605660781
0.9828395771	40.1595841818
0.9902440421	40.1780914391
0.9202606116	39.107579012
0.9481566943	39.1349902833
0.958767577	39.139048788
1.0301705227	39.1798465787
0.8900688237	38.0883524826
0.9186832816	37.1245212687
0.954140943	37.1501687634
0.9837790733	37.1716068324
0.9359226045	36.1479194738
0.9619304862	36.1595841818
0.9757520154	36.1695816713
1.0138640801	36.2008023365
0.9476626436	35.1201663769
0.9454693214	35.118579887
0.9800784197	35.1541135054
1.0213871785	35.1734933461
0.9492369438	34.1231134295
0.9728696027	33.6403503389
0.9306904981	33.1115065971
1.0293123901	33.1762981146
0.939737445	32.6117213869
0.9523436265	32.1118803872
0.9200568682	31.0857318196
0.9337447979	31.111706613
0.9585391689	31.1201428213
1.0351665622	31.175283607
0.9149904771	30.084636876
0.9485330197	30.1137635948
0.9552889434	30.1166410965
0.9931033378	30.1460025229
0.9757324705	29.0776720876
0.9900952576	29.1110760434
1.0137416757	29.1051651836
0.9488121812	28.0685566391
1.0067778119	28.1104847626
0.976527918	26.0764391382
1.0086599161	26.1046128669
0.9299567631	25.0235190196
0.9423777476	25.0362610013
0.9650659712	25.0587780226
1.0054032545	25.0887379029
1.0591068835	25.1284443081
0.9559844533	23.0827861307
0.9882489072	23.0903993845
0.9261086223	21.0358596707
1.0267877672	21.1086836453
1.0168067171	20.0953815541
0.9809925521	19.0601058142
0.9494213482	14.0301577349
0.9605490437	30.1023626879
0.9603227984	30.1021990386
0.9594174082	30.0292114145
0.9603796666	40.1564897208
0.9594746855	40.1558351232