	-5.312		3.0266
	-4.331		3.6157
	-5.298		3.107
	-4.823		3.08
	-4.567		3.05
	-5.104		2.75
	-5.138		3.1088
	-4.855		3.62
	-4.984		2.957
	-4.78		4.226
	-4.904		3.31
	-5.082		3.02
	-5.061		3.219
	-4.799		3.171
	-5.018		3.3406
	-4.985		3.23
	-5.092		2.991
	-5.03		3.132
	-5.022		3.881
	-4.501		3.3099
	-4.97		2.963
	-5.061		4.0202
	-4.738		3.22
	-4.949		3.298
	-4.549		3.425
	-5.104		2.858
	-5.5		2.99
	-5.263		2.85
	-4.923		4.01
	-5.331		2.56
	-5.43		4.281
	-4.66		3.19
	-5.114		3.01
	-5.054		3.287
	-4.872		3.42
	-4.958		3.211
	-4.988		3.168
	-4.595		4.295
	-5.292		3.3316
	-5.04349		3.27823777969
	-4.612		3.41607744595
	-4.95		3.62292081052
	-4.862		3.796186573
	-5.039		3.10993011696
	-4.99		2.9967952965
	-4.992		2.6583305207
	-4.785		3.16720656157
	-4.984		3.02373663885
	-5.105		3.19685190053
	-5.312		3.67205981338
	-4.62		2.74977511073
	-4.88		2.75321498855
	-4.859		3.82805562116
	-5.242		3.16799970651
	-5.124		2.98869544373
	-4.85		2.77938408074
	-5.12		2.71060710094
	-5.04		2.84419558849
	-5.247		2.77303367302
	-5.394		3.03629334864
	-5.257		2.86988441711
	-4.975		3.14825094883
	-4.96		3.17890101432
	-4.96		3.48449909606
	-4.68		3.16209951258
	-4.47		3.54081611503
	-4.95		3.60701713876
	-4.93		3.35794368294
	-4.93		3.21445494222
	-4.93		2.98991094199
	-4.93		3.59675007418
	-4.93		4.1388950402
	-5.087		3.79112164099
	-5.2554		3.10744156438
	-5.2554		2.95003354826
	-4.83835714286		3.03829890277
	-4.83835714286		3.28981833296
	-4.83835714286		3.27110963681
	-4.863		3.70495385315
	-4.863		4.13205561566
	-4.863		3.55652172522
	-4.863		4.13052100459
	-4.863		4.23481914022
	-5.15		3.14789497176
	-5.15		3.7532887666
	-4.52		3.06060406717
	-4.97509375		3.22860093742
	-4.6		3.29968808261
	-4.95		2.81623766431
	-4.86		2.81871041696
	-5.1		3.31921259581
	-4.9		3.03612775259
	-4.68		3.36844642955
	-4.98		3.19106240047
	-4.865		3.19738882971
	-4.67		3.19238463201
	-4.9		3.02629003866
	-5.135		2.9399606787
	-4.72		3.47110243457
	-4.67		3.43933978931
	-4.4		2.84663307732
	-4.4		3.07078880931
	-4.1		3.5496053317
	-4.54		2.87128880002
	-4.981		3.1287354964
	-5.23		3.3661388217
	-4.495		3.18040341326
	-4.43		3.28742521017
