	0.191512315904
	0.186701727009
	0.220268679284
	0.221530030528
	0.113363025926
	0.13807151755
	0.261496810075
	0.342293921533
	0.238204628668
	0.409439175567
	0.235730175666
	0.299448548916
	0.277018692003
	0.189269872388
	0.115248495868
	0.228097660417
	0.136613346394
	0.28180718651
	0.315469069353
	0.325306739834
	0.218961020769
	0.342081724957
	0.306745759466
	0.298705608896
	0.275861626501
	0.283020636256
	0.299234681527
	0.1247184651
	0.0220555929144
	0.401329075127
	0.0854434729086
	0.429125302196
	0.27497650454
	0.40681988616
	0.420619763089
	0.320803127955
	0.403169745573
	0.115326044813
	0.148294900456
	0.343633513084
	0.317791484363
	0.223588339183
	0.327891157809
	0.163948337181
	0.322757061121
	0.250289926245
	0.20275952812
	0.400465813976
	0.185065075875
	0.269268697507
	0.151377591189
	0.276023778341
	0.233797605924
	0.276829482035
	0.227441116193
	0.329065101632
	0.33200989831
	0.262909803787
	0.176061102908
	-0.0374578677352
	0.142381741475
	0.121383149653
	0.17867950818
	0.300306852653
	0.181196151373
	0.128268655622
	0.320799632686
	0.181912522219
	0.0540338168252
	0.224948234211
	0.233137644335
	0.241995853985
	0.241979289384
	0.296338177101
	0.272310634894
	0.29535327124
	0.384469753207
	0.360153896632
	0.317342112485
	0.234233711482
	0.0468031168663
	0.357061247077
	0.155732841447
	0.278881294844
	-0.0366255556245
	0.35676310117
	0.360158268368
	0.235403719865
	0.330126019797
	0.229185800859
	0.263678796529
	0.323929862936
	0.101606162425
	0.321456086224
	0.427627987634
	0.415046994582
	0.194747599421
	0.310246333209
	0.474541445001
	0.224356720697
	0.25368509802
	0.538535436184
	0.17039123645
	0.156958227127
	0.387327290835
	0.226194040392
	0.324356795244
	0.212307040438
	0.41654137237
	0.373474196549
	0.45982967658
	0.405468712675
	0.220843432848
	0.229511327776
	0.300603381519
	0.275583282361
	0.152980521383
	0.329019194911
	0.0577200949277
	0.149628007094
	0.0398128883702
	0.3721881922
	0.297727011449
	0.286889938163
	0.266211090607
	0.270193526368
	0.370230091239
	0.308549217653
	0.287506630956
	0.287506630956
	0.325054527746
	0.461443878627
	0.466359756767
	0.260893296827
	0.42558338653
	0.37181526292
	0.0764627219539
	0.320900773927
	0.346960359335
	0.0939294236851
	0.292733762261
	0.278976866125
	0.347476737001
	0.438665229613
	0.434044748968
	0.23381642473
	0.199015278089
	0.445770151934
	0.212555853306
	0.433566709954
	0.212464761494
	0.16565822233
	0.276333228318
	0.249354658517
	0.14669832171
	0.442157834149
	0.268565661066
	0.252288659912
	0.266347848663
	0.316486982401
	0.342545869974
	0.248267175206
	0.461690062697
	0.166304618566
	0.406728344894
	0.471297043175
	0.404650935322
	0.18089674873
	0.373761782607
	0.261950064675
	0.310834340298
	0.242800736219
	0.375268580045
	0.197540834392
	0.197540834392
	0.360841762681
	0.3993214237
	0.282658256372
	0.297297044857
	0.313574916562
	0.123871376104
	0.193959484405
	0.219743778279
	0.316104176662
	0.110982146806
	0.437746754028
	0.206100940041
	0.270193011009
	0.301901814842
	0.229590117784
	0.147597341125
	0.404447727312
	0.298516899348
	0.257484848809
	0.230900352051
	0.274536306938
	0.240433839351
	0.273563439873
	0.304625679511
	0.193991711547
	0.435220158609
	0.210188287613
	0.430467691824
	0.191743581763
	0.14326459332
	0.182215645832
	0.144740102759
	0.076482973467
	0.289052088557
	0.329497081151
	0.19042089618
	0.215458781608
	0.242973966353
	0.179431063015
	0.257453001212
	0.218523130457
	0.318953701619
	0.29722161978
	0.301712817703
	0.226696370769
	0.389019313792
	0.0924136037899
	0.415012707546
	0.469185130369
	0.325634279775
	0.308028526107
	0.35856706747
	0.468418398984
	0.237473837887
	0.247567729228
	0.0719172189934
	0.422429847008
	0.201035861371
	0.335177751447
	0.38535215601
	0.330723950645
	0.355973010072
	0.308965938885
	0.343399307825
	0.398447810193
	0.285912975046
	0.217351898521
	0.356541199973
	0.315571282089
	0.298771633729
	0.140979498113
	0.275087636164
	0.315400634162
	0.217052656293
	0.110490486304
	0.154379300916
	0.24726830315
	0.577498097601
	0.395651119373
	0.426141408984
	0.428747000864
	0.340610802169
	0.273637757329
	0.351423561059
	0.417185108225
	0.420268151388
	0.270094767793
	0.128307350252
	0.306874865054
	0.193677769679
	0.194226873021
	0.331821248175
	0.232676170599
	0.268089571203
	0.414181299441
	0.358680525318
	0.405668404334
	0.350020287274
	0.364240011174
	0.35116780404
	0.413922435544
	0.405347883722
	0.298090655747
	0.460006914713
	0.276215617532
	0.403797008143
	0.130189736211
	0.260335478573
	0.452458479847
	0.251841953283
	0.281871264174
	0.281871264174
	0.30604852097
	0.172631487015
	0.172096840615
	0.264990937831
	0.2533159008
	0.102365526235
	0.256266324743
	0.303767540609
	0.341132654316
	0.244272925154
	0.331331082156
	0.179959399509
	0.379434818511
	0.252147402557
	0.306075308047
	0.286073348685
	0.154706713337
	0.174214461725
	0.357368650843
	0.376921162953
	0.0827706580525
	0.368445591945
	0.456735671498
	0.286019450775
	0.23922048336
	0.377868876554
	0.121583386236
	0.402871526487
	0.404707859607
	0.377487611108
	0.335399597594
	0.203407691593
	0.305850076428
	0.298319848167
	0.211413075519
	0.38094548986
	0.162485079372
	0.338068372371
	0.0778257253861
	0.136002384725
	0.255722449274
	0.206477691979
	0.242320097435
	0.257810388254
	0.210164307507
	0.393496889127
	0.191980932238
	0.34357339073
	0.300730044391
	0.088797467874
	0.126015978991
	0.302654342966
	0.362099011513
	0.323409790719
	0.378070996391
	0.297583584186
	0.269387335524
	0.320611719341
	0.229347946231
	0.331961481071
	0.158651490298
	0.107678538165
	0.417847598023
	0.4274626401
	0.226261380974
	0.342275892372
	0.157442358712
	0.202274818339
	0.296646029433
	0.242481813287
	0.326539155361
	0.19973645244
	0.289066967878
	0.33113964902
	0.368323316639
	0.144249025069
	0.208715145603
	0.421149833475
	0.380105766471
	0.241641964969
	0.337168481713
	0.24798763223
	0.24798763223
	0.351859335731
	0.228250499621
	0.393718713836
	0.176064089276
	0.203508674177
	0.440476883397
	0.299172537606
	0.424604665776
	0.488520510055
	0.340593949662
	0.352098488436
	0.230014548219
	0.178738150807
	0.253400193218
	0.307573995949
	0.366096783315
	0.232031021564
	0.341905962601
	0.326652037545
	0.189154758414
	0.309398970572
	0.145615823358
	0.117998442625
	0.300952004877
	0.480161495153
	0.262311737065
	0.399445997748
	0.292001092135
	0.223094150621
	0.301488548873
	0.361286784052
	0.425893956771
	0.0936339791836
	0.388420782923
	0.0461380625468
	0.32643072508
	0.244969443334
	0.216110304681
	0.273376834416
	0.273376834416
	0.239871484096
	0.371296331867
	0.220420752734
	0.212778072307
	0.180737702933
	0.199185412092
	0.20818944702
	0.199018137843
	0.234996086795
	0.243453861442
	0.159998469101
	0.378177396771
	0.11754957478
	0.336270189121
	0.267441626816
	0.361122210962
	0.447371742978
	0.282418614499
	0.384243272114
	0.205357274798
	0.321519063739
	0.333465656826
	0.306106501561
	0.284231277793
	0.102585952551
	0.250330031218
	0.229107283883
	0.300981962716
	0.355370407664
	0.17115577041
	0.267562895064
	0.34058762063
	0.206090398051
	0.303458094996
	0.254506652018
	0.250843404284
	0.00451143251487
	0.339460410885
	0.397979019316
	0.269889237691
	0.308549596528
	0.370662829752
	0.219883187642
	0.214897699117
	0.400207831997
	0.48882109453
	0.4667593743
	0.433865123717
	0.439058725158
	0.31092658006
	0.151435611326
	-0.0255084024188
	0.202990474964
	0.33108390091
	0.430809908118
	0.381025113083
	0.239473071935
	0.357535199562
	0.327179263682
	0.299108726898
	0.307318139047
	0.440302708697
	0.325082222908
	0.302496884882
	0.328415088237
	0.199741981707
	0.415238330821
	0.278318366905
	0.316484038
	0.176335954986
	0.353437513708
	0.287787873333
	0.324234322547
	0.396678618948
	0.33303606202
	0.109364730924
	0.289621238566
	0.286258954708
	0.268704639359
	0.0229750977325
	0.321618444623
	0.244691049858
	0.465366142212
	0.258329242395
	0.438978089538
	0.252144959963
	0.274581498293
	0.0953296558354
	0.271919560895
	0.389478826993
	0.406605575636
	0.270155233438
	0.204242464504
	0.474763057046
	0.411605038902
	0.456520000039
	0.231392858727
	0.501078038868
	0.179720477713
	0.134363822534
	0.418877591959
	0.307408120763
	0.193658656545
	0.375993340254
	0.29503694419
	0.390324654169
	0.256438670235
	0.426506683611
	0.0643116048638
	0.375169076799
	0.146147603579
	0.230403431025
	0.280714219769
	0.234420919177
	0.3429940084
	0.307693315269
	0.394519001601
	0.224872219615
	0.211805963986
	0.223467565371
	0.123315069253
	-0.0325755319451
	0.390959690841
	0.353643483955
	0.341771731018
	0.289499974095
	0.145044135343
	0.347881779495
	0.453735757542
	0.377433924814
	0.397844756585
	0.133137322135
	0.400727644665
	0.14334868651
	0.173871121792
	0.315334330178
	0.214067501794
	0.389360875211
	0.285167154844
	0.285167154844
	0.32577920643
	0.171283919693
	0.249340316895
	0.459203414678
	0.316898570284
	0.313839632099
	0.406592978648
	0.320016937873
	0.327456661864
	0.475627394702
	0.395384745408
	0.355840887816
	0.371366890776
	0.302251796666
	0.376665153929
	0.430285958754
	0.376800964138
	0.0575900634105
	0.206955730368
	0.240621062892
	0.430476489876
	0.384607632059
	0.328747015209
	0.379431167038
	0.45164318893
	0.168122471092
	0.195912822463
	0.330860600908
	0.225569744802
	0.288885516556
	0.219954111331
	0.200319232945
	0.2719773477
	0.429886806666
	0.265185193075
	0.294997780928
	0.202601868897
	0.441728587211
	0.260866567502
	0.112325614494
	0.187269150529
	0.350782974537
	0.350079098625
	0.486790448434
	0.151108038889
	0.294654582786
	0.401526886926
	0.329243067922
	0.207949519386
	0.291527569949
	0.389174924546
	0.305191188157
	0.319135384405
	0.189581565066
	0.177032958682
	0.178198779176
	0.300539162593
	0.336127609217
	0.110551436321
	0.379951967013
	0.199728772743
	0.357907629015
	0.165445995608
	0.427885303954
	0.131169294351
	0.463878795168
	0.237567451231
	0.0518713078411
	0.433471129471
	0.250306255509
	0.249377530671
	0.224405544565
	0.405946077102
	0.130898208815
	0.30729756027
	0.378717362054
	0.362164369115
	0.39108189724
	0.365335754968
	0.123095797647
	0.257979800605
	0.306176150704
	0.25238606398
	0.139568924501
	0.135672419832
	0.165323037381
	0.356820686025
	0.392957092012
	0.297658986662
	0.312049676906
	0.340377131781
	0.27502988798
	0.361184717041
	0.34660828844
	0.347553150881
	0.137779328479
	0.298140918072
	0.272246557279
	0.404644817013
	0.3438447584
	0.460142377708
	0.383063507244
	0.158944090673
	0.379937316103
	0.283110967272
	0.298948596648
	0.328149489488
	0.313223611486
	0.240610615964
	0.182311939279
	0.282195994124
	0.25790022438
	0.247219307356
	0.322292889211
	0.264071551437
	0.154641968868
	0.281471382641
	0.386576908157
	0.44914952617
	0.231333863779
	0.297112566505
	0.380129100623
	0.269280683005
	0.268294400335
	0.340817302608
	0.230781755382
	0.262271764472
	0.378866754777
	0.192437302198
	0.557321703628
	0.177758851226
	0.30084432302
	0.39893378704
	0.457145350478
	0.233713882705
	0.225578865222
	0.352424449456
	0.452912623282
	0.349365939228
	0.266872192051
	0.185351937162
	0.288984040565
	0.248202859023
	0.123744005949
	0.362322871816
	0.452938330852
	0.494108347256
	0.302530247523
	0.292011284738
	0.468664394147
	0.291779822789
	0.45228085277
	0.423988611682
	0.332621212417
	0.448066388749
	0.1758676484
	0.201407656827
	0.201079875829
	0.362881461589
	0.313129648616
	0.315452478192
	0.315452478192
	0.302961828792
	0.477894569177
	0.392788738025
	0.261971741702
	0.247455994164
	0.477401486929
	0.229136550386
	0.401101877965
	0.210482905418
	0.242824176934
	0.322739791118
	0.37391487426
	0.366200331692
	0.246085337634
	0.333828974952
	0.394635938814
	0.193705426144
	0.333457459313
	0.278722462692
	0.290920794374
	0.43851214351
	0.326040446607
	0.390931683156
	0.200081102085
	0.406398404853
	0.367174130431
	0.270568829782
	0.320493031628
	0.38919637199
	0.356898108302
	0.254546778972
	0.419364817951
	0.132972163112
	0.189364008026
	0.46307836939
	0.209283086967
	0.122829212559
	0.288248082505
	0.387369730562
	0.26647161998
	0.173522499493
	0.161199590016
	0.142274751243
	0.0575962362108
	0.199480208062
	0.302555379993
	0.272131063558
	0.277015825464
	0.276102271425
	0.308463752176
	0.191467456299
	0.273196533244
	0.29663384435
	0.191488075988
	0.168715814525
	0.372732573638
	0.214163007094
	0.377016856794
	0.371916240358
	0.388250382653
	0.36586891673
	0.492396003165
	0.388712386635
	0.21300704951
	0.387155976419
	0.382452059913
	0.258100507966
	0.387393952152
	0.0415987780579
	0.431966192144
	0.31837493962
	0.176196544717
	0.201904578587
	0.36327872847
	0.39198018542
	0.231564167115
	0.365605568055
	0.2521173368
	0.163656175983
	0.334774470361
	0.421265214356
	0.107400750237
	0.357180993212
	0.246419758752
	0.397930742621
	0.440427021885
	0.148984506322
	0.359421463345
	0.290498393806
	0.259126247502
	0.217087403501
	0.486140043395
	0.485775838155
	0.336779057405
	0.207076904232
	0.389030509755
	0.18441875965
	0.315610223577
	0.173721058086
	0.258863517051
	0.299857480988
	0.167571493612
	0.392408921064
	0.124015543779
	0.140464105646
	0.315788824507
	0.37638711583
	0.366768692674
	0.3024974354
	0.328541204848
	0.328541204848
	0.285645971873
	0.111199940382
	0.3445404811
	0.196892420717
	0.285688148456
	0.42542365573
	0.288725980848
	0.17738055669
	0.310697697708
	0.426019983628
	0.128142961647
	0.330501163768
	0.294865488857
	0.385991693033
	0.402445418506
	0.216944862083
	0.271500357113
	0.15894345716
	0.119843955339
	0.359693036946
	0.300479615716
	0.180075899969
	0.169164149196
	0.332889681531
	0.206492026895
	0.355193202323
	0.312508679022
	0.144081358911
	0.363326920827
	0.27927093338
	0.315338799485
	0.448362516966
	0.276624579339
	0.243923138843
	0.29487662046
	0.391309580097
	0.238291625946
	0.424899200381
	0.267998784224
	0.317205809322
	0.332982491339
	0.198375493771
	0.329075236037
	0.301635935259
	0.247404510084
	0.30553048448
	0.171072611061
	-0.0262240428458
	0.199859972555
	0.136892174448
	0.455345178942
	0.346078131862
	0.208482844118
	0.282071927025
	0.324326549488
	0.386277377646
	0.443767375659
	0.493865854025
	0.307965224107
	0.258919779691
	0.470174242366
	0.430492388976
	0.205925149436
	0.439244352884
	0.219708994676
	-0.0175849713747
	0.264562584709
	0.267437612587
	0.355994278801
	0.269787192588
	0.383083002197
	0.167361126567
	0.260137781841
	0.184078483266
	0.278410788008
	0.429192153167
	0.366761497184
	0.323704506849
	0.318655828526
	0.357891634236
	0.318232618996
	0.149496364479
	0.220727886112
	0.298041730019
	0.360617944613
	0.346476188362
	0.28447034823
	0.339519410654
	0.247220889735
	0.105184926101
	0.30232842861
	0.15848159345
	0.218788012781
	0.0950384395025
	0.410493279538
	0.256302797875
	0.267693176816
	0.247340717817
	0.121723281389
	0.292483307474
	0.372605776071
	0.187781040617
	0.364266629384
	0.182444680322
	0.400125097696
	0.295122415682
	0.331810390545
	0.239907087896
	0.183139868955
	0.210808137282
	0.4779499788
	0.258854223917
	0.199132964742
	0.151565121628
	0.173164052525
	0.20029078198
	0.311110843148
	0.31229832839
	0.232979857895
	0.238006090678
	0.272802021296
	0.43140579473
	0.226060035916
	0.395536606191
	0.244825620049
	0.296951700699
	0.263263108418
	0.297464923103
	0.268421903519
	0.423616313824
	0.343148643682
	0.256055256879
	0.256055256879
	0.247101280879
	0.206544063278
	0.35083572365
	0.348974163161
	0.157413861879
	0.192226035327
	0.430067628916
	0.387404511922
	0.186495453894
	0.39289986927
	0.17401915461
	0.335255548378
	0.432655567298
	0.35446086337
	0.193367804087
	0.194617208789
	0.25391309435
	0.378095455261
	0.275563709951
	0.212831398649
	0.212831398649
	0.363560712071
	0.257853690618
	0.12806635624
	-0.0291611903748
	0.238500182674
	0.359923428952
	0.416721965002
	0.48366935295
	0.174971036732
	0.303964689115
	0.25980659893
	0.354479604193
	0.37772860783
	0.282094098817
	0.27472056956
	0.451437976626
	0.234594618608
	0.232984003749
	0.243051570665
	0.279364409442
	0.339034309787
	0.278574730464
	0.45532736243
	0.418013556143
	0.194451651264
	0.278031710555
	0.454464746146
	0.0917357368901
	0.268935927029
	0.235741102602
	0.218177256732
	0.494077781897
	0.27099608481
	0.230891946989
	0.247927772151
	0.430063237758
	0.153598756426
	0.407935368208
	0.0917661482185
	0.229250212411
	0.306431146263
	0.196462868464
	0.314913148098
	0.123354322316
	0.287671305069
	0.319256226345
	0.187101668747
	0.299562194013
	0.200047738017
	0.308012476832
	0.146379378888
	0.249251020782
	0.279048097692
	0.305366031877
	0.163961334465
	0.143958517927
	0.223246227353
	0.206522548806
	0.469629014509
	0.203110312067
	0.271619291535
	0.217845053078
	0.148301967
	0.241111299619
	0.320780035538
	0.274393745816
	0.311453411819
	0.45356685504
	0.374574537807
	0.152615293323
	0.400453180706
	0.341597578527
	0.461243598995
	0.494774479819
	0.19261204481
	0.312090419138
	0.271545935623
	0.269705834933
	0.26733286383
	0.320132238012
	0.256952752011
	0.2416340417
	0.152574528988
	0.277617327906
	0.349238861061
	0.258777574187
	0.410978738446
	0.26915019622
	0.295682168132
	0.237591454399
	0.446686302667
	0.407149920144
	0.392221138224
	0.290768860253
	0.381687446442
	0.379146052344
	0.139081188976
	0.364293039007
	0.263046276145
	0.368310703124
	0.244342258295
	0.294149233527
	0.294660362129
	0.320759336783
	0.278522657185
	0.286472113514
	0.438197417432
	0.410390203944
	0.2087115465
	0.303261108474
	0.307242836114
	0.207417596499
	0.361351766306
	0.137115188671
	0.272282227706
	0.265437331135
	0.45620448495
	0.26654681995
	0.221655760317
	0.313918264089
	0.305783790525
	0.320355426034
	0.187473840574
	0.127858686616
	0.323688030673
	0.197661298848
	0.386944202233
	0.235351984851
	0.215620195889
	0.284433060512
	0.284433060512
	0.515879284156
	0.18448488407
	0.337198705054
	0.330916974492
	0.238871034203
	0.400665840979
	0.370019525781
	0.240283510336
	0.170424000533
	0.286722315409
	0.268805988876
	0.282431055899
	0.164896119474
	0.221177507013
	0.351851016865
	0.249724166659
	0.389988968496
	0.158478255157
	0.446189815123
	0.32859993154
	0.335198146037
	0.442027021419
	0.417251024265
	0.111246496085
	0.42360833139
	0.271252605054
	0.291757699185
	0.289680640545
	0.222105492341
	0.105918486171
	0.267993801391
	0.201777320773
	0.369178407674
	0.334332743906
	0.0922264321525
	0.540029410562
	0.185593672443
	0.247501674113
	0.110357282594
	0.236761005637
	0.154025715972
	0.167412123215
	0.489170244956
	0.141793009533
	0.319172502513
	0.279496183079
	0.410986920407
	0.15960830119
	0.329817584054
	0.273552677155
	0.412410175595
	0.284044601834
	0.321839441788
	0.235229767338
	0.41370539423
	0.167383235233
	0.456954196101
	0.0974648394161
	0.166916061583
	0.329492726209
	0.270123729538
	0.396078319261
	0.0324425851304
	0.216767995008
	0.298675418087
	0.417737694168
	0.326602572781
	0.230191251178
	0.243681793148
	0.164718173104
	0.355502025425
	0.220525373582
	0.351776124262
	0.287681120397
	0.220990003107
	0.308773696616
	0.286101682828
	0.215692851328
	0.400644164976
	0.361145098989
	0.223718289135
	0.300042300252
	0.150619110689
	0.292427590918
	0.310100951284
	0.253206380166
	0.222652479433
	0.338663590006
	0.22825871058
	0.494058685631
	0.299494352555
	0.504626919059
	0.302777298693
	0.313555572594
	0.284481726299
	0.202543781435
	0.367914189314
	0.202255988636
	0.171080525848
	0.194128025628
	0.323334442585
	0.20291186961
	0.210544234425
	0.273906346506
	0.351923171847
	0.267677815678
	0.175489665961
	0.392588474312
	0.443098661349
	0.347236361308
	0.257505233724
	0.166493003648
	0.25352107516
	0.396140264656
	0.196020379787
	0.329952823303
	0.170187591236
	0.248547517262
	0.398501737297
	0.102733955723
	0.244742429848
	0.244742429848
	0.292894217373
	0.134576938883
	0.292955281476
	0.258843101092
	0.26084107569
	0.417876411117
	0.189603710534
	0.285313706817
	0.299691484738
	0.430889114753
	0.341575905241
	0.463450396992
	0.35407851979
	0.199787689591
	0.364905529069
	0.112651974659
	0.125711247446
	0.249437294478
	0.317925402551
	0.218716751532
	0.213226297979
	0.356478328375
	0.233806095402
	0.463142378061
	0.436154160104
	0.0805909081604
	0.0913622490035
	0.388435686595
	0.278994630031
	0.227195632797
	0.170231987555
	0.327504990964
	0.222385677707
	0.357631759275
	0.0373392865554
	0.263268856578
	0.255369951763
	0.277863276562
	0.352597897797
	0.126564520031
	0.36929112913
	0.257933663974
	0.402433137267
	0.318868293707
	0.39602918955
	0.245786516462
	0.318565771938
	0.236588944294
	0.357668062277
	0.179319922019
	0.288139722534
	0.118228643552
	0.26460551639
	0.301508285508
	0.401847101338
	0.242990932745
	0.395055475918
	-0.0736933051951
	0.227447834203
	0.257137918094
	0.114561622824
	0.109694348768
	0.248740130142
	0.21322909795
	0.368961221072
	0.175539148053
	0.375487083872
	0.28413461306
	0.214653464231
	0.131034016776
	0.171575450312
	0.300113720944
	0.189493802568
	0.335482349981
	0.478584356524
	0.22339619546
	0.344992601341
	0.199821456194
	0.169332542528
	0.323930544746
	0.39866493293
	0.322633328302
	0.395368532865
	0.18401924343
	0.105781599293
	0.325003963196
	0.351651216616
	0.344119822365
	0.233523937187
	0.246625734623
	0.260138767761
	0.224991464929
	0.346139803071
	0.286136671314
	0.277004078151
	0.383425716535
	0.284912248565
	0.367375158792
	0.0317580205667
	0.274871826812
	0.288594228089
	0.440156405455
	0.230679726633
	0.369796283222
	0.308861811077
	0.366064502686
	0.223193766452
	0.23706832955
	0.263170453194
	0.214904481743
	0.385069329013
	0.344848633285
	0.317976454444
	0.169515441259
	0.250708172576
	0.278675579367
	0.275976476135
	0.235583925021
	0.284294403287
	0.308427312623
	0.355828695392
	0.323815845311
	0.0998326843651
	0.246019470602
	0.113219330453
	0.340725700713
	0.155504516068
	0.167535094373
	0.307654397813
	0.366390768848
	0.260032122212
	0.318910457899
	0.155914956935
	0.426531503764
	0.207516188759
	0.280857633142
	0.236303803991
	0.25275838149
	0.314543153759
	0.29253262928
	0.281176279417
	0.361577779867
	0.265939620748
	0.322012731297
	0.243721233702
	0.134509559436
	0.267759080735
	0.232513275119
	0.368945357218
	0.163855129022
	0.225262265294
	0.250507243683
	0.381363859489
	0.358949008851
	0.187704617209
	0.26422664592
	0.297031831014
	0.161497141427
	0.0884605885184
	0.0968383169044
	0.298677689562
	0.297050980954
	0.0602344131907
	0.451411759098
	0.316446950712
	0.266690964478
	0.414856563146
	0.287867073658
	0.242810232045
	0.246057829032
	0.296800953946
	0.227500787981
	0.103604682427
	0.201771648441
	0.134970412289
	0.390573267352
	0.239885398541
	0.377420700491
	0.420147881668
	0.39255617668
	0.364315892099
	0.394562786429
	0.247419450781
	0.304907447722
	0.313029099486
	0.0455413582654
	0.368966108063
	0.190846617632
	0.450991332239
	0.419476573386
	0.2417147904
	0.401193053573
	0.447726336399
	0.344285204591
	0.164170182199
	0.284097358722
	0.44059592465
	0.287722187463
	0.18922670546
	0.275217251084
	0.344474240337
	0.478422710122
	0.324938459623
	0.123704600834
	0.307318423108
	0.421135139552
	0.315661949466
	0.327891766745
	0.171508559093
	0.414498522722
	0.265728438832
	0.373705586259
	0.351964538949
	0.184762014365
	0.294609392352
	0.441127978942
	0.19374827581
	0.269457169958
	0.285102234082
	0.171068928582
	0.461234588794
	0.38917731546
	0.213524919247
	0.104463197527
	0.2441824281
	0.422130368041
	0.328854856745
	0.27889163387
	0.234526922285
	0.191338587091
	0.131694435056
	0.278430215149
	0.0892654672343
	0.227060372915
	0.191648974209
	0.234070616063
	0.3704455992
	0.181404332286
	0.419600220521
	0.177030751798
	0.314517057845
	0.163641712762
	0.416174158925
	0.1153262079
	0.405239194389
	0.23172655636
	0.074977798411
	-0.00555751078635
	0.242930134949
	0.193308615514
	0.33762422693
	0.265328994114
	0.361025611494
	0.229219041326
	0.273210943215
	0.294573489325
	0.221394517261
	0.361268523437
	0.184783745899
	0.0959118050334
	0.326314257654
	0.203470527026
	0.30723980282
	0.287709096987
	0.501900340731
	0.248293332359
	0.21680286513
	0.424693135852
	0.166724484431
	0.282756518241
	0.353789376685
	0.203715695125
	0.188298171041
	0.396592952109
	0.190694304511
	0.287169426033
	0.217658596713
	0.224853153954
	0.294638483276
	0.459635305917
	0.387130013536
	0.361504363434
	0.242633777105
	0.272096812723
	0.291103588594
	0.366735970239
	0.212963924119
	0.415374528834
	0.42405285179
	0.265690973778
	0.277086494154
	0.29837391938
	0.217761380624
	0.317776312649
	0.350161607777
	0.284034468659
	0.277788229354
	0.202946352479
	0.262682890733
	0.373069069837
	0.172420762675
	0.562247421383
	0.200649242616
	0.20448894032
	0.036260100557
	0.363659603982
	0.217508066165
	0.136625994604
	0.224404827058
	0.203335871735
	0.0996414359903
	0.180980084272
	0.237863226804
	0.193326348341
	0.20398522773
	0.26786624733
	0.191923147559
	0.36150238489
	0.352758184881
	0.181864381496
	0.206406961354
	0.197086034055
	0.33224186448
	0.130780817525
	0.44168765049
	0.211441571488
	0.344361614076
	0.272903476382
	0.382032426619
	0.401580912921
	0.368469480592
	0.429166425436
	0.326409820648
	0.425304637318
	0.138997999471
	0.463682981599
	0.431607217524
	0.375119774173
	0.316915515862
	0.30730916001
	0.485511483706
	0.267900288029
	0.284356297668
	0.271725898161
	0.352747720421
	0.340422303288
	0.381681011676
	0.162279639061
	0.252336335576
	0.188608249961
	0.303310760317
	0.345868966636
	0.127076526237
	0.320685104433
	0.238508545815
	0.311613101716
	0.188978645223
	0.171435407337
	0.320082299262
	0.434880329261
	0.315011300681
	0.467376365656
	0.219216383291
	0.219216383291
	0.377201376044
	0.30989591444
	0.361098442903
	0.160048946853
	0.222676150901
	0.316528041526
	0.35375515706
	0.467687966443
	0.290365063264
	0.290365063264
	0.256839137462
	0.365570067517
	0.343428547178
	0.026657182641
	0.358729131922
	0.309413855622
	0.18005587126
	0.239133688833
	0.192829373362
	0.193010653271
	0.240543204207
	0.19415343978
	0.215527561917
	0.361493986367
	0.304740208461
	0.236483936196
	0.273295796583
	0.314566371313
	0.25384585737
	0.107516947257
	0.355375446131
	0.443299978306
	0.334708199358
	0.228471341228
	0.194625653578
	0.338219096095
	0.397082379339
	0.31376609881
	0.455234536035
	0.330657496531
	0.289159033467
	0.200595879748
	0.211614611775
	0.449434831102
	0.190169353244
	0.262250499467
	0.213606596586
	0.0384602202639
	0.263120923611
	0.198711033052
	0.439454447051
	0.391845668115
	0.2683533286
	0.178951920056
	0.438669052512
	0.453059364995
	0.349884688981
	0.315894857823
	0.308866139437
	0.288880349831
	0.202083903481
	0.252662736584
	0.431140522387
	0.101088584889
	0.409906740301
	0.345955309344
	0.300180238314
	0.327644077197
	0.446634746818
	0.307858913856
	0.228280364278
	0.233717931288
	0.371508510795
	0.31114680065
	0.1328866205
	0.351794474013
	0.325494758539
	0.494331195453
	0.192499277717
	0.323988472059
	0.578009987429
	0.370739832334
	0.306995973988
	0.405288042215
	0.24378224374
	0.239191973116
	0.441872458309
	0.271615438839
	0.236245334007
	0.377979635128
	0.160634048397
	0.206113560861
	0.48912983877
	0.101459868168
	0.246392053631
	0.279747807946
	0.246676764291
	0.411669736931
	0.356416157256
	0.371220134743
	0.157792486416
	0.260408590572
	0.278534338382
	0.316265110383
	0.303330531382
	0.303330531382
	0.14535706384
	0.182644950332
	0.405841758408
	0.173036041956
	0.222951260825
	0.279384883256
	0.260674387828
	0.335228012344
	0.31422424133
	0.315462599047
	0.317448039244
	0.181781399472
	0.191988861693
	0.283442397581
	0.222638119378
	0.304148789525
	0.427182999557
	0.302169919253
	0.314265801436
	0.314265801436
	0.291223383805
	0.469936469459
	0.398161562347
	0.300652716619
	0.300652716619
	0.261505397403
	0.333198851955
	0.325323824836
	0.47812423191
	0.270772154962
	0.319302459383
	0.346670679116
	0.403514298478
	0.0832533611784
	0.251464156745
	0.06930801095
	0.161043824376
	0.276654190158
	0.113953713685
	0.236821043762
	0.136104852734
	0.264724064824
	0.244663732243
	0.214926620629
	0.376323712939
	0.304737852906
	0.277841087081
	0.2180941937
	0.306331539447
	0.174731895934
	0.216311626147
	0.105147141324
	0.259077778485
	0.420665880345
	0.188101487414
	0.34784567047
	0.270731979289
	0.311999419843
	0.250103898246
	0.367413626115
	0.249064879756
	0.142114122304
	0.298483193657
	0.298483193657
	0.249424957575
	0.314512383621
	0.421716145584
	0.146694523853
	0.392980972003
	0.388888070657
	0.280797282247
	0.280797282247
	0.324804415084
	0.33931501153
	0.339332520318
	0.460114336948
	0.135667225726
	0.304936676093
	0.170586933447
	0.242896698946
	0.242677587211
	0.431301651006
	0.457726500217
	0.296096362491
	0.258404808596
	0.184765315132
	0.0908077443461
	0.297719017616
	0.430912006538
	0.108596016611
	0.330674554458
	0.266867163189
	0.285337377586
	0.322007710877
	0.299215890399
	0.44149189183
	0.48204250123
	0.362971863749
	0.221138314101
	0.362619754074
	0.276488766142
	0.29539906967
	0.258312076865
	0.294291138921
	0.403475404449
	0.283616681286
	0.527526672006
	0.422180455915
	0.148756947819
	0.13320320193
	0.380912191258
	0.284330453681
	0.296504957912
	0.0894779532905
	0.425491427012
	0.436355723943
	0.310715917218
	0.500480418614
	0.38311111944
	0.130383071512
	0.279682427888
	0.401613209635
	0.234611324618
	0.202227601503
	0.468728632531
	0.290253710791
	0.245785839224
	0.192694510208
	0.2898577025
	0.264800503849
	0.319555965477
	0.359501729214
	0.418111849705
	0.473976737517
	0.294610982944
	0.410250120709
	0.347912089769
	0.254566089982
	0.364490551817
	0.21901997152
	0.244604589262
	0.374697632492
	0.435348414217
	0.219237844012
	0.329082651086
	0.303401184607
	0.122357885667
	0.219177940732
	0.394811774448
	0.331721739709
	0.367261719057
	0.417809750499
	0.256571776529
	0.395301987409
	0.373074187431
	0.251838939879
	0.354870123671
	0.363750535496
	0.375609152341
	0.461705359257
	0.357936235446
	0.354167279384
	0.277304611092
	0.404785508662
	0.351876401935
	0.296447015551
	0.412137793339
	0.258229839106
	0.253057659127
	0.364787269811
	0.273229666647
	0.133505116208
	0.317708319246
	0.321876297555
	0.403882221681
	0.163865430661
	0.285841020761
	0.300669826416
	0.105292826072
	0.20378045711
	0.432758063719
	0.265725543774
	0.44379532976
	0.258816284455
	0.4649150497
	0.318009516515
	0.21177127473
	0.319560400939
	0.386668872559
	0.332647997948
	0.297837737473
	0.14086051879
	0.107377854115
	0.345399261532
	0.371881943844
	0.364059236807
	0.440262027986
	0.337749940993
	0.347434306515
	0.241642695744
	0.337218923751
	0.234026997418
	0.134054969823
	0.322310386566
	0.176703883134
	0.275521065609
	0.150183623656
	0.269616766259
	0.251940544198
	0.311927791794
	0.450101606765
	0.37026669229
	0.299357085174
	0.154042190316
	0.352349716825
	0.231681959526
	0.0913365607562
	0.357676221487
	0.157851089775
	0.234946835831
	0.368420205957
	0.255037215508
	0.273071839781
	0.462757955668
	0.464860280553
	0.292446185159
	0.236712540436
	0.379294849189
	0.208497210752
	0.370955847561
	0.16262612339
	0.239424433595
	0.268657632621
	0.230494503719
	0.345495264286
	0.254982171944
	0.199493536606
	0.243536902639
	0.290034262623
	0.169287540644
	0.229386982771
	0.354066427312
	0.190932602342
	0.286820740456
	0.30957723828
	0.217692775171
	0.0697938706422
	0.398139678101
	0.22090873277
	0.326966532482
	0.361582819079
	0.257069294038
	0.322486179525
	0.239203946463
	0.188411065827
	0.278211301669
	0.323470408003
	0.284291074525
	0.36305204118
	0.228680628748
	0.267267023285
	0.300980257617
	0.161299161327
	0.302053262794
	0.410528951014
	0.246223798539
	0.260203165868
	0.38491701235
	0.0932221229329
	0.39055280363
	0.288024732527
	0.446005439001
	0.387711889947
	0.356438193855
	0.391651382774
	0.260920053941
	0.234252494061
	0.242703342398
	0.256867673917
	0.36471502691
	0.153882725788
	0.4475320537
	0.195319250864
	0.273871765653
	0.366709864407
	0.0689599310106
	0.173764239837
	0.293880362581
	0.425983305586
	0.194536674964
	0.317779557982
	0.226347618479
	0.267885278088
	0.211831872671
	0.153787510768
	0.381284551211
	0.282521747926
	0.263634475868
	0.279739677282
	0.255823481795
	0.287250794595
	0.14230455645
	0.263920991619
	0.34773480829
	0.247765334027
	0.189490300957
	0.235583552127
	0.173643572118
	0.38458938847
	0.369177052622
	0.470635212891
	0.315661880581
	0.039284059471
	0.375659138148
	0.267709988535
	0.232308306417
	0.221133151516
	0.3693425677
	0.422893095319
	0.23636023492
	0.431687325187
	0.342294525961
	0.223404162811
	0.204732495484
	0.253332214311
	0.414114815137
	0.248986327905
	0.294826054197
	0.367914018471
	0.150632763308
	0.343909366056
	0.185535830585
	0.207816271982
	-0.024190726294
	0.290430035101
	0.290430035101
	0.083136317371
	0.180432277394
	0.385318710957
	0.215484903087
	0.271921428023
	0.548121517068
	0.339000781737
	0.155258440584
	0.450264915716
	0.21261513561
	0.282992308116
	0.276985930362
	0.154456987702
	0.242702345479
	0.203435337186
	0.310219753576
	0.130369847148
	0.307336289703
	0.265629957305
	0.240201260061
	0.091317251922
	0.133568799177
	0.179635446573
	0.289921939823
	0.161682348775
	0.259402493359
	0.224908283899
	0.318739940038
	0.100031586827
	0.448575062377
	0.359785187857
	0.287372008599
	0.346545723434
	0.313008076599
	0.405220043299
	0.383719580022
	0.254515082913
	0.199166829893
	0.281425557963
	0.0539903735347
	0.246410776911
	0.32980003261
	0.401882957869
	0.352375372666
	0.118526273677
	0.192434771688
	0.34960866145
	0.268716866828
	0.260304218837
	0.199073301884
	0.139851825868
	0.30544778375
	0.34566564551
	0.163271082245
	0.481076200648
	0.309486808262
	0.386209093404
	0.173129108594
	0.290878909915
	0.329432108677
	0.391683294868
	0.290449150214
	0.147147048493
	0.235620588766
	0.268805584379
	0.282866391033
	0.172960130259
	0.22282705959
	0.286592140797
	0.254415822306
	0.255220836168
	0.311349435074
	0.159637464012
	0.289557480508
	0.151723726778
	0.183385676351
	0.256554969627
	0.232051073987
	0.282162024363
	0.475186592184
	0.437366438526
	0.320321085246
	0.400437072725
	0.356864779011
	0.19348155077
	0.236655491456
	0.252782622001
	0.444568871
	0.301237654125
	0.369280564029
	0.276884382817
	0.207239183948
	0.22912368526
	0.282190814254
	0.19714682556
	0.46545698196
	0.448397133099
	0.246015860326
	0.249003415235
	0.331601745867
	0.331601745867
	0.221810137441
	0.416184519489
	0.283248977514
	0.349356592296
	0.351212543252
	0.424400500673
	0.263648313517
	0.281919449227
	0.305454632628
	0.290008076071
	0.442548885075
	0.208405661898
	0.37939732166
	0.259433561081
	0.214710928917
	0.429282106307
	0.260459884046
	0.299481812054
	0.2306032477
	0.379421614115
	0.306573846526
	0.151577327814
	0.228089820703
	0.271990744334
	0.220765947192
	0.380471724701
	0.438954556345
	0.206369566413
	0.196097761867
	0.445012744317
	0.346843876851
	0.246483754185
	0.315497675958
	0.328771898085
	0.254008572226
	0.30474370488
	0.34189252862
	0.237095874199
	0.233385062856
	0.180227106882
	0.258134772128
	0.420378489455
	0.39598003638
	0.319885236236
	0.38772902469
	0.41825052549
	0.270265194585
	0.373929636197
	0.195103983351
	0.108777045042
	0.199661692817
	0.141992108802
	0.107665779007
	0.391511733806
	0.348932535679
	0.213033972558
	0.261811174236
	0.401372529874
	0.418013595115
	0.168774948501
	0.218063895361
	0.162201195366
	0.259212785505
	0.176795003999
	0.376155844657
	0.210272023357
	0.0686033120216
	0.158610737244
	0.300872868002
	0.429774009028
	0.383707989574
	0.449341664402
	0.168704944172
	0.251991752225
	0.445618393847
	0.342470994018
	0.364056535344
	0.25139005099
	0.204152472862
	0.431601966206
	0.411862985676
	0.193367873833
	0.345076488297
	0.326382070269
	0.170236779923
	0.428173860639
	0.339997447188
	0.338577186257
	0.133950079088
	0.131713628215
	0.223157369155
	0.00448983597319
	0.405365562664
	0.375331854869
	0.349047442361
	0.507904697833
	0.32290997922
	0.196920556238
	0.40285289058
	0.384666884745
	0.194161267229
	0.318437966371
	0.254273091374
	0.287553686785
	0.39313733293
	0.22552356627
	0.274507182913
	0.326796813171
	0.329036287988
	0.403633735444
	0.409800396497
	0.0953511436769
	0.338717195323
	0.36687175581
	0.363903517099
	0.223678029637
	0.378530333139
	0.371240647271
	0.126923051882
	0.482722781004
	0.426706422591
	0.304329358139
	0.474075317341
	0.22444541646
	0.281751599449
	0.325613515249
	0.269595056977
	0.294952461104
	0.228586539813
	0.293070891334
	0.357674279822
	0.246815457987
	0.345197806069
	0.415890107727
	0.356784006292
	0.372421713598
	0.378372247623
	0.414667228657
	0.281689391505
	0.177726044724
	0.295874454076
	0.295874454076
	0.252664945105
	0.091404252174
	0.392728965669
	0.406344556703
	0.239687833025
	0.342862543126
	0.246053563277
	0.299995291763
	0.311968440373
	0.0385232324952
	0.408773803316
	0.427741740304
	0.38726004521
	0.35460969776
	0.303284571409
	0.1765606203
	0.247888125193
	0.186676393274
	0.329798139881
	0.439956404525
	0.359827093949
	0.404781194267
	0.2605968658
	0.205363705929
	0.373968675539
	0.164755386791
	0.272391673196
	0.274360640255
	0.209235130294
	0.267520697896
	0.186447625928
	0.426651352754
	0.364441367596
	0.332317331786
	0.167281184701
	0.47182248979
	0.284552509161
	0.149686053446
	0.222388027374
	0.0555846897596
	0.245389955996
	0.26696890326
	0.20812108336
	0.20812108336
	0.279549997899
	0.123563209955
	0.139395900779
	0.313236142316
	0.422838385511
	0.277917277241
	0.122155325108
	0.169302124984
	0.289387079149
	0.329502196516
	0.210348945537
	0.34304689102
	0.206609217305
	0.160356835016
	0.210114840523
	0.352412857581
	0.45005208133
	0.22804830797
	0.318209168275
	0.139473600759
	0.377053929256
	0.303726960313
	0.368020257147
	0.462543517399
	0.386882829022
	0.320617072614
	0.280299355021
	0.148292968331
	0.230922624161
	0.207437155893
	0.290716861982
	0.333977925645
	0.404341501354
	0.381416156534
	0.437385580819
	0.187008767083
	0.156667334786
	0.153296737962
	0.227525284767
	0.393152098406
	0.199586652165
	0.141391262368
	0.270745982592
	0.218038687095
	0.194760447326
	0.398643934464
	0.332834730331
	0.47939624846
	0.259459317082
	0.0842753689266
	0.209778686562
	0.316516479249
	0.36744883533
	0.269156182432
	0.274649717626
	0.312948824842
	0.187152922417
	0.167658724834
	0.196792674179
	0.297422398104
	0.418272019977
	0.271680401766
	0.347960638271
	0.167511963639
	0.137225614632
	0.415904831142
	0.292749744845
	0.378242643132
	0.387011236846
	0.244489796685
	0.244489796685
	0.397423185079
	0.356094223832
	0.27037285479
	0.0775768709567
	0.295889608224
	0.202087818547
	0.345429524912
	0.174266972115
	0.219402978005
	0.208018921993
	0.286166512026
	0.210932909569
	0.166694208254
	0.289491564965
	0.28379282729
	0.305872038447
	0.202959608317
	0.34228470662
	0.168613885699
	0.309258612918
	0.238425397646
	0.29718244502
	0.244322586811
	0.52932659938
	0.277782286292
	0.313157052161
	0.366376747484
	0.144409349595
	0.457072228599
	0.251798516981
	0.258626525349
	0.27299577322
	0.31430495278
	0.418716480608
	0.0249714164162
	0.39351224237
	0.37414625546
	0.408462500757
	0.302503526022
	0.302503526022
	0.469351020259
	0.308935334766
	0.267137783973
	0.282977291232
	0.252567712163
	0.234498075431
	0.243971120921
	0.355925294815
	0.151192360548
	0.166300118145
	0.25560429983
	0.406959705879
	0.336263840321
	0.296478031981
	0.299636275364
	0.300368463177
	0.404417639484
	0.192632276317
	0.279882788303
	0.127491981452
	0.316350535134
	0.340259834641
	0.20622761871
	0.265945598528
	0.287791365056
	0.266663522701
	0.341269262564
	0.293390467429
	0.317028625739
	0.40460794039
	0.236669596457
	0.00547398975214
	0.343820169597
	0.449735139177
	0.202019065912
	0.198498096882
	0.266851366906
	0.369682107765
	0.308419102734
	0.375915046811
	0.49057144779
	0.121646295215
	0.268706693632
	0.299022287205
	0.295631392497
	0.333953997692
	0.347486498844
	0.170553405705
	0.172534869485
	0.285153297901
	0.37856425366
	0.23082251742
	0.208883584339
	0.221145463034
	0.421401331954
	0.258182199108
	0.463980843253
	0.2039478213
	0.317717493975
	0.208345971759
	0.223619068036
	0.348551457915
	0.327528082824
	0.327528082824
	0.261183594233
	0.173296197237
	0.312302678275
	0.397038453288
	0.171068868686
	0.151829034865
	0.201309320381
	0.181064303496
	0.285535146495
	0.27767341954
	0.362881368943
	0.190783985495
	0.27809667489
	0.147296876935
	0.39406838671
	0.129413085262
	0.275722295377
	0.414359451565
	0.231088248439
	0.318068592879
	0.35967933585
	0.18387249869
	0.354848875624
	0.09733612283
	0.295967092589
	0.18826155664
	0.494973253169
	0.17140831465
	0.3721151122
	0.459186602736
	0.219151759176
	0.235311093995
	0.287090824141
	0.359721797782
	0.400813920098
	0.290308194297
	0.361635829949
	0.456522558546
	0.24629014952
	0.159028138507
	0.334983677405
	0.297383701949
	0.243476032627
	0.328451864994
	0.210630526622
	0.214523887531
	0.156306659089
	0.384931588698
	0.370391307306
	0.352047527583
	0.341629380424
	0.401799669611
	0.358438229854
	0.195021416523
	0.286490323248
	0.320651879167
	0.382594560224
	0.132087750728
	0.236644500041
	0.286718900516
	0.266641046256
	0.202898589662
	0.188674763351
	0.329634846668
	0.222288644639
	0.342084280891
	0.110798571493
	0.381563448665
	0.334964940327
	0.295222411228
	-0.0195488441538
	0.280996345829
	0.246921356692
	0.138571505085
	0.141479100918
	0.374177246685
	0.270169366469
	0.360457830815
	0.279708125343
	0.199817128052
	0.309298600642
	0.261215970362
	0.208647400873
	0.304357077042
	0.395102433088
	0.260857543427
	0.39733501529
	0.297195366654
	0.324896090596
	0.303354045
	0.254110568499
	0.254851662796
	0.225869597213
	0.38899983702
	0.304906592434
	0.383338633411
	0.180557547252
	0.252304039545
	0.376923796021
	0.166905295538
	0.256737169578
	0.157142857953
	0.339075208996
	0.384487942407
	0.171988713268
	0.271147922094
	0.173783087154
	0.246340388807
	0.27564168962
	0.336999913829
	0.202013511727
	0.330906865364
	0.302886182202
	0.232735669212
	0.312686631258
	0.357637882167
	0.314123720517
	0.383620884801
	0.154387986525
	0.352038930208
	0.472254010428
	0.205313292225
	0.293024718852
	0.33776780543
	0.380095091829
	0.361638894076
	0.380069797668
	0.388543790903
	0.263742307419
	0.1841621369
	0.291796355583
	0.438488715421
	0.405482106685
	0.233845366874
	0.147222769874
	0.0408321160969
	0.351092449449
	0.404237052079
	0.451740274481
	0.270172052872
	0.44109941696
	0.44891335834
	0.354885709745
	0.346704426927
	0.30622153905
	0.17002334619
	0.408689953285
	0.257933571313
	0.445909539505
	0.370953666093
	0.337434283442
	0.212707755223
	0.134618213543
	0.373672122794
	0.242038948598
	0.378404709317
	0.403274470779
	0.354911658239
	0.297578597395
	0.339157921475
	0.231745466965
	0.280939492244
	0.243760261548
	0.376622899347
	0.173779761438
	0.30799308063
	0.323290170412
	0.259708886325
	0.379119981782
	0.165247572747
	0.186818012538
	0.412964025278
	0.185803576289
	0.247279518185
	0.127225574098
	0.309049356383
	0.225904630455
	0.188936963687
	0.292716981006
	0.295400487041
	0.319683145366
	0.279741150664
	0.411806128205
	0.258312941054
	0.384053026561
	0.159253424559
	0.406644252047
	0.359645650211
	0.223336424096
	0.297631938918
	0.305712426587
	0.350767032339
	0.240217391593
	0.253786824666
	0.315130553946
	0.106708479533
	0.27710461192
	0.413372392708
	0.321885663876
	0.257072668091
	0.216944248932
	0.273623113447
	0.416568874735
	0.40357864991
	0.192106584192
	0.366935259043
	0.0738231383726
	0.155958683397
	0.150403084073
	0.178464500152
	0.257250506048
	0.361423503247
	0.130060662786
	0.244481991062
	0.164347244236
	0.216557676657
	0.307102819469
	0.137988170025
	0.375667864327
	0.228813276407
	0.2873848263
	0.291587734572
	0.291587734572
	0.268126666018
	0.208316491912
	0.26983258318
	0.268395713884
	0.334145096045
	0.264421297293
	0.196186307899
	0.42140689488
	0.317189220602
	0.354593626102
	0.181153433733
	0.169533472467
	0.323967856209
	0.293569151047
	0.276964102664
	0.362424380026
	0.422721004945
	0.344489609692
	0.373010457167
	0.334612264781
	0.280615058325
	0.307237761286
	0.243489243971
	0.266412010303
	0.411835084051
	0.401207273864
	0.361453711143
	0.175020038549
	0.462087987684
	0.352341578826
	0.278344947094
	0.262587055144
	0.240874271013
	0.434140592034
	0.161905527727
	0.345562821712
	0.205829436064
	0.275365377883
	0.390391749137
	0.281179211043
	0.397197953718
	0.204476774025
	0.4494649936
	0.215807688519
	0.39154750172
	0.316377132861
	0.345639022268
	0.252109418172
	0.255285664421
	0.259317021415
	0.445926952478
	0.293300475578
	0.173502360397
	0.184094807101
	0.392233935676
	0.318476002615
	0.481541907166
	0.266164265949
	0.321574921197
	0.242832518594
	0.435448227812
	0.440426937013
	0.367452781275
	0.373750124955
	0.184045591717
	0.314512444304
	0.416211815587
	0.441057600976
	0.338309800074
	0.410639191272
	0.185232868069
	0.376988200799
	0.179319887582
	0.140848250135
	0.334654154475
	0.330360787691
	0.203880648555
	0.35224232319
	0.223773249332
	0.328860694903
	0.215341209662
	0.246797923592
	0.219563527587
	0.220253894034
	0.311797444185
	0.203492189893
	0.295292220355
	0.155065197273
	0.193119070154
	0.352943907682
	0.278122251169
	0.24862109353
	0.239519229789
	0.346014103846
	0.327274385605
	0.441830884953
	0.233520954848
	0.366362561265
	0.35738848602
	0.295778103334
	0.255632951011
	0.369222087158
	0.288601371141
	0.236594129422
	0.233253987233
	0.157527625838
	0.353544411593
	0.222008894067
	0.137895385793
	0.19431802863
	0.348777904985
	0.174277896046
	0.34757436296
	0.286716913859
	0.221484239402
	0.252019459317
	0.308938378332
	0.423549225715
	0.383927799549
	0.278555514215
	0.268295284631
	0.25681259135
	0.25681259135
	0.141132204243
	0.129774653233
	0.0982080121755
	0.397300634377
	0.216767549092
	0.313310593733
	0.287835169687
	0.258546861966
	0.0707708694666
	0.247833620908
	0.272685159318
	0.372840817206
	0.356473287122
	0.363151256077
	0.328883960379
	0.352910689507
	0.104994736831
	0.28219794607
	0.198569571145
	0.388490872134
	0.253922531742
	0.203603624423
	0.367283593746
	0.176986897184
	0.288135992274
	0.165065152127
	0.0790755274665
	0.335598671635
	0.304094066746
	0.275078400018
	0.305748601355
	0.224280071327
	0.221930469495
	0.300700867654
	0.317472332736
	0.319206814889
	0.489129355809
	0.194180115522
	0.182716981087
	0.107014012086
	0.316751753455
	0.181358080461
	0.236608772048
	0.263497743238
	0.263488845644
	0.228601333221
	0.42503659814
	0.168721901538
	0.348426979176
	0.265002278865
	0.147540653356
	0.283938877303
	0.241284612732
	0.41162672582
	0.23632105171
	0.303767356525
	0.198955312473
	0.198955312473
	0.435929137289
	0.22834054873
	0.194156757117
	0.177605018292
	0.385218377156
	0.17215173261
	0.299477712031
	0.288664059112
	0.12713387417
	0.350309260306
	0.375807377102
	0.189178084076
	0.373964743946
	0.385616562083
	0.114388760281
	0.265892920818
	0.234301104497
	0.188384568883
	0.209052686608
	0.194381882895
	0.297818437221
	0.343920983329
	0.274638673989
	0.449313854953
	0.354281142889
	0.191256088233
	0.356520759775
	0.331079921157
	0.232031231022
	0.424555779675
	0.374075931031
	0.380321959072
	0.209935409428
	0.236429173048
	0.248793012421
	0.325996392385
	0.323842659836
	0.199249925567
	0.191541546406
	0.212669256312
	0.412101902405
	0.274732215339
	0.297052565538
	0.27910374314
	0.24174591877
	0.204970970185
	0.3344550269
	0.171610436903
	0.28947473916
	0.25947322052
	0.374681626418
	0.327142686765
	0.236420983216
	0.346510572048
	0.342207258924
	0.187466127524
	0.256601112107
	0.211592039935
	0.280971926886
	0.351417629903
	0.135227562348
	0.240754755498
	0.247574889245
	0.194710013672
	0.251336898424
	0.359091124041
	0.174156149385
	0.316135090339
	0.267774589282
	0.381205380961
	0.35227796904
	0.426615056872
	0.45179663425
	0.285281604439
	0.434023135954
	0.385883599308
	0.304037894074
	0.367066680046
	0.36151419855
	0.26018305646
	0.130254937157
	0.309420106165
	0.416206729112
	0.347205943338
	0.4257149103
	0.275905954703
	0.225560085153
	0.404419404012
	0.225270396515
	0.211178105332
	0.30000451167
	0.413578159567
	0.308007331591
	0.275093213773
	0.306182448402
	0.259462863457
	0.270650219745
	0.270194931099
	0.463612163916
	0.290731557734
	0.0931248408531
	0.208181993504
	0.319281079947
	0.208957896963
	0.313923558247
	0.373886152301
	0.408347552622
	0.332558342502
	0.27019534836
	0.182760775
	0.350869702235
	0.186929817489
	0.092757441542
	0.227368321119
	0.228925998485
	0.19921343817
	0.504977954412
	0.2228139269
	0.348438167123
	0.413664587377
	0.162134555265
	0.32547590692
	-0.082396394798
	0.204061937053
	0.366309746072
	0.235368816598
	0.242964384901
	0.435111273914
	0.256969994985
	0.209925183111
	0.391696024122
	0.196535450178
	0.412901448355
	0.32906950927
	0.34332040835
	0.452382359116
	0.449886613389
	0.276487199641
	0.25166204128
	0.284257724325
	0.30076407674
	0.0725689703626
	0.32871401997
	0.206184330266
	0.179258495882
	0.292628151238
	0.404519934434
	0.217773000011
	0.18650571939
	0.15846652091
	0.29991505708
	0.347612438435
	0.219554549649
	0.331823702463
	0.320238831735
	0.128792241179
	0.359995857743
	0.485435701203
	0.295837172632
	0.305391820608
	0.381362828092
	0.264065871916
	0.315949394497
	0.33483612735
	0.45954628214
	0.185031469722
	0.322541730803
	0.258153212915
	0.357284293415
	0.234420829345
	0.305256917996
	0.279886328185
	0.324160525525
	0.0813097515929
	0.180564480338
	0.161524757322
	0.504784943046
	0.474554315907
	0.313988578928
	0.311144753218
	0.233495795418
	0.303112303451
	0.332496473082
	0.332099570755
	0.244708261946
	0.35258323536
	0.581644357466
	0.210374881452
	0.375896149528
	0.24554447099
	0.202725388621
	0.337271642393
	0.114442729316
	0.301660448739
	0.249183206071
	0.256861642347
	0.358744954207
	0.337952680061
	0.379761643473
	0.288251098497
	0.365459829702
	0.237721705641
	0.377911055861
	0.28629214905
	0.172704548742
	0.238101718508
	0.273626604068
	0.211349733726
	0.325066874084
	0.421302980155
	0.508288528644
	0.309873887411
	0.187755067772
	0.324414444615
	0.302075939992
	0.214534551658
	0.205419107382
	0.233757249308
	0.306099110995
	0.0897178893306
	0.168056795095
	0.320367577132
	0.296912824641
	0.180888490878
	0.176588880341
	0.421546671059
	0.349863918014
	0.182585033043
	0.270800196302
	0.333074906982
	0.279711698967
	0.312854500823
	0.228649838069
	0.0415530024702
	0.312713859399
	0.214108411207
	0.314400323482
	0.0855197383987
	0.424145002101
	0.16155803088
	0.415302767489
	0.332356151795
	0.318202847692
	0.367761720596
	0.237106564393
	0.216700451229
	0.286556619441
	0.251576585609
	0.198351414633
	0.256382644066
	0.344634123663
	0.221177498252
	0.221177498252
	0.293028465446
	0.331036594722
	0.37696589922
	0.258333313242
	0.373681327322
	0.348375811867
	0.267902930198
	0.103231554076
	0.126701052513
	0.281447457826
	0.295021518092
	0.311916190737
	0.362333877305
	0.113486395044
	0.110387025258
	0.198182377349
	0.174744083647
	0.285339643544
	0.408547101385
	0.38123422734
	0.313247981583
	0.231502337238
	0.485692857174
	0.139375644458
	0.369213109496
	0.475792599432
	0.230655211339
	0.318332881684
	0.282200676431
	0.307909003562
	0.347794726297
	0.0818101522557
	0.347266922063
	0.450670046859
	0.289636043117
	0.341613986316
	0.421801123085
	0.158734987867
	0.273801417514
	0.258815530117
	0.436779493321
	0.257205011802
	0.212165007762
	0.152906109375
	0.320596524425
	0.090532601051
	0.313435465765
	0.34525117452
	0.40579122982
	0.342828225915
	0.363861065634
	0.31592914854
	0.242379745665
	0.294187956993
	0.338456907893
	0.237382487041
	0.320445692742
	0.141710034723
	0.285432574112
	0.285432574112
	0.295884438776
	0.295884438776
	0.191414180757
	0.192246241505
	0.196220777666
	0.278764095129
	0.266481229945
	0.296661409209
	0.169018291391
	0.209350800968
	0.199059584727
	0.387725689368
	0.34910773316
	0.279159924363
	0.206003397253
	0.30675538287
	0.271507364597
	0.25094014402
	0.490540977036
	0.188062354634
	0.152664057837
	0.154612567315
	0.14077230631
	0.380978854532
	0.318561545642
	0.128170299478
	0.323697276647
	0.321892550281
	0.309193377181
	0.309193377181
	0.240656698629
	0.0615613249767
	0.318781842361
	0.267600562756
	0.148009608213
	0.201551255116
	0.238430322879
	0.254334125682
	0.34494249355
	0.379743873909
	0.149537327009
	0.302963046728
	0.260640676451
	0.238354490308
	0.341382564478
	0.160995503706
	0.059109450678
	0.292792283037
	0.250338222973
	0.094724615369
	0.387890722338
	0.228685093899
	0.16959572278
	0.353711094435
	0.329139448124
	0.235130679749
	0.318325923308
	0.317824071158
	0.377681539492
	0.0658659453248
	0.39397627883
	0.396728682833
	0.218830123735
	0.243420432439
	0.248587722079
	0.248587722079
	0.268004952901
	0.440115694064
	0.279633831886
	0.319325347217
	0.317949454078
	0.109956624188
	0.195223076905
	0.306751044707
	0.342779298415
	0.342779298415
	0.158669675594
	0.391243537772
	0.595165731392
	0.350304331653
	0.248677304532
	0.304624187538
	0.270283754462
	0.0785800444252
	0.361885866418
	0.304854517507
	0.326375400561
	0.153642703311
	0.178012256668
	0.394171389774
	0.269306337993
	0.407588216559
	0.382190132771
	0.258774854859
	0.266462748875
	0.213574892628
	0.316560652632
	0.28093913464
	0.371627439892
	0.265151584203
	0.418602679762
	0.401614700562
	0.376036901623
	0.259257516724
	0.374793231544
	0.163972951919
	0.329262297238
	0.18200498877
	0.28319609615
	0.307306399561
	0.316460795602
	0.353819362865
	0.386399750687
	0.274793548592
	0.0979179912328
	0.191399021285
	0.32170779856
	0.399547372148
	0.499289239366
	0.303316984725
	0.119854716379
	0.0926883947703
	0.300143208109
	0.335232185822
	0.383992353604
	0.202132202537
	0.347084849725
	0.292296605544
	0.252115722848
	0.196849039829
	0.287156083459
	0.233819246991
	0.281097453916
	0.339698246935
	0.0485230824005
	0.277405648018
	0.206505613711
	0.138400691249
	0.327363671989
	0.34103932281
	0.445890069587
	0.312926823813
	0.306873064554
	0.416747037735
	0.176359452595
	0.234646117118
	0.321071108445
	0.326895360881
	0.31948561226
	0.417957772069
	0.206844706182
	0.264147031984
	0.116784713916
	-0.00564500720159
	0.218342263166
	0.500634968768
	0.310418836254
	0.318544706541
	0.15255786555
	0.266613663984
	0.134701302942
	0.313199168075
	0.324192006625
	0.171089683668
	0.378945448831
	0.333019882573
	0.422200675956
	0.162231661162
	0.4557258789
	0.161199463682
	0.239336695633
	0.409026974808
	0.141209061563
	0.337118129269
	0.259291345009
	0.498456181274
	0.0319540185406
	0.35772227243
	0.275430205253
	0.143841061781
	0.161009946593
	0.33457685157
	0.352764967269
	0.204766591521
	0.489467581459
	0.274609910403
	0.160692302327
	0.307481227526
	0.34994479934
	0.304621898951
	0.227925874335
	0.371533266628
	0.0504789463829
	-0.016685515332
	0.0769518281124
	0.264220404951
	0.270644161598
	0.381484465668
	0.194925481569
	0.098640891054
	0.282124715733
	0.266481481975
	0.275361937303
	0.284401458747
	0.379305747579
	0.419369385332
	0.161754242942
	0.192756983123
	0.197188349296
	0.192700687614
	0.371803978256
	0.18283261326
	0.323514215049
	0.159378452653
	0.272968533386
	0.271583373778
	0.24484609447
	0.332527772756
	0.270808135004
	0.117834243107
	0.372801754105
	0.281231787483
	0.177562329416
	0.170364135738
	0.342221054614
	0.314213552891
	0.330736206345
	0.209602142948
	0.323713900441
	0.269073420259
	0.332283875985
	0.239552348642
	0.228813265845
	0.424872676385
	0.180801717257
	0.375092363638
	0.473287801661
	0.322609116829
	0.39008401111
	0.2967473136
	0.234323651338
	0.316119374121
	0.207174497448
	0.309760291197
	0.19302537975
	0.407330459531
	0.323879439854
	0.221197669045
	0.0765861913328
	0.341267067796
	0.566738771203
	0.266002475906
	0.133074274066
	0.186667223834
	0.493236619628
	0.220887090226
	0.22813276578
	0.146010898453
	0.259981049518
	0.347881557993
	0.387054583327
	0.230556092396
	0.219837750049
	0.240510000431
	0.37210116146
	0.189872372702
	0.408979921169
	0.304547498308
	0.354603811487
	0.229114714019
	0.257389634611
	0.111485072727
	0.426000477014
	0.436871395996
	0.263186228203
	0.240877946436
	0.150848612142
	0.0803621875777
	0.256199727776
	0.190103055422
	0.453863375054
	0.241023744387
	0.340144160622
	0.542356294687
	0.10559404314
	0.190964724182
	0.252822051392
	0.410497187277
	0.411610103851
	0.10324955705
	0.376023558773
	0.46960364963
	0.159697891273
	0.227672756289
	0.166448402886
	0.476039580936
	0.195339097281
	0.422322913327
	0.348279393603
	0.22395750338
	0.17216252125
	0.236147791038
	0.379493199357
	0.120605668715
	0.24629484155
	0.484566208634
	0.399568838173
	0.432535801593
	0.267484826932
	0.253890472718
	0.234300262148
	0.278887243822
	0.386869199177
	0.271170627797
	0.304922699134
	0.242630137892
	0.299302526752
	0.242404041646
	0.397666500393
	0.368465448983
	0.402546397895
	0.404577870174
	0.293490281394
	0.163643677704
	0.148940426151
	0.31252773401
	0.316719004021
	0.352466853609
	0.241634691405
	0.150218693538
	0.280827647986
	0.21786542911
	0.250390596385
	0.186486192418
	0.328885916768
	0.385169075538
	0.289295240497
	0.222053577837
	0.250383694734
	0.186153383097
	0.464606192681
	0.164068856245
	0.466538838591
	0.496896802661
	0.39302615559
	0.182634976456
	0.187118966959
	0.0944573003788
	0.24693411824
	0.284213144805
	0.284213144805
	0.172981333531
	0.207562568767
	0.159879407024
	0.253024465964
	0.159740949038
	0.159884033916
	0.334552249157
	0.140677843167
	0.276571439456
	0.342801750827
	0.301152260468
	0.237166148444
	0.283646308417
	0.199979923542
	0.3011535963
	0.212591504447
	0.421090439576
	0.434997930263
	0.268155659548
	0.195385697879
	0.328741730208
	0.0267691433546
	0.225755382107
	0.207890786577
	0.367528359269
	0.155081228776
	0.249103221488
	0.267947472253
	0.0690052098388
	0.309490959992
	0.371998014787
	0.291233830923
	0.245086373119
	0.265514587241
	0.342373402495
	0.388811487588
	0.25598240776
	0.290079512749
	0.42352153333
	0.407969476691
	0.338308894448
	0.294595050198
	0.269507224327
	0.255589109722
	0.180626827454
	0.231134843347
	0.379486504181
	0.321377862037
	0.370623086044
	0.0860328964866
	0.271471950806
	0.360899788058
	0.306192709969
	0.431963182383
	0.311978198283
	0.112269645151
	0.296223923214
	0.282607196461
	0.406713352757
	0.143283556544
	0.375766039669
	0.427630913142
	0.120401073227
	0.147041347992
	0.322561920487
	0.174551493981
	0.503446134046
	0.291709626417
	0.344369763846
	0.283939164192
	0.281969566255
	0.388373933472
	0.198395971945
	0.215530922565
	0.330017520692
	0.229994879568
	0.274817287516
	0.262589116104
	0.497497165247
	0.346592806321
	0.137420616776
	0.133420714829
	0.307343587552
	0.326219928375
	0.288326837195
	0.378549611759
	0.205964177728
	0.373401276428
	0.297712797629
	0.297712797629
	0.161427071739
	0.17459754111
	0.243462812197
	0.212424703343
	0.312074389249
	0.251517124209
	0.212960164968
	0.408321938487
	0.146088146027
	0.357921927197
	0.293891974508
	0.33336835644
	0.405075430541
	0.277173407106
	0.353119311
	0.378941034376
	0.347813557952
	0.131139089435
	0.345821438135
	0.379584913867
	0.301938100927
	0.450122964666
	0.419761875142
	0.223705893813
	0.375503931541
	0.204640904973
	0.202785452904
	0.148064844035
	0.137524435343
	0.210658298388
	0.390156672807
	0.165835462663
	0.294739289433
	0.328550859788
	0.321956016074
	0.394727686925
	0.338212142696
	0.259306628045
	0.276693166927
	0.290106619438
	0.2246043751
	0.392250256511
	0.390285222622
	0.418900511936
	0.212116742417
	0.389884240589
	0.371966145672
	0.323907102952
	0.424269178675
	0.416109582429
	0.230999171093
	0.35928639148
	0.292601370824
	0.373065263417
	0.137068014521
	0.338759816855
	0.503281792802
	0.41530952592
	0.21735798644
	0.21735798644
	0.414561800298
	0.27570086558
	0.227999253767
	0.350791801485
	0.40465156554
	0.303894365105
	0.260485888179
	0.387678955962
	0.360591517893
	0.378743183131
	0.291128947158
	0.167645269994
	0.205245161509
	0.304864438962
	0.394393470634
	0.313353069021
	0.145818261339
	0.35131283775
	0.158377495199
	0.176347260064
	0.245113699825
	0.427042697512
	0.351749074511
	0.353965952921
	0.243526633084
	0.32940947665
	0.0374600292478
	0.313737220279
	0.197402233839
	0.0794030007499
	0.230629623981
	0.291310455315
	0.177023834093
	0.373045595077
	0.258791767587
	0.356112953198
	0.416401312955
	0.457618691628
	0.434713345056
	0.195481190693
	0.359149575767
	0.138356066637
	0.28543799127
	0.388519182939
	0.369786762529
	0.492647252364
	0.276781603176
	0.239922174116
	0.351758851319
	0.457151998387
	0.310825650507
	0.203957819692
	0.263844474303
	0.239879343434
	0.251318629907
	0.156290118245
	0.302918946603
	0.0423976454694
	0.387947006075
	0.23467523171
	0.165716173418
	0.352031036257
	0.163552726916
	0.227604806226
	0.370479917881
	0.171107547256
	0.355127940384
	0.416593788121
	0.34729722443
	0.316105616093
	0.138718365659
	0.308030934281
	0.367683609962
	0.190786195158
	0.435323668667
	0.352150190531
	0.289167655851
	0.255439840222
	0.331778642138
	0.525287336195
	0.300425137454
	0.259314354856
	0.0838524016889
	0.315666236019
	0.173068300095
	0.252232341955
	0.282003738725
	0.236933389989
	0.2894929566
	0.25560256799
	0.201832571764
	0.0841709249449
	0.299085819775
	0.39899122959
	0.258025895513
	0.385045346026
	0.30540418032
	0.399223302626
	0.145689172782
	0.313917091354
	0.275280983165
	0.381950277094
	0.261100815546
	0.340809933778
	0.229372890242
	0.401113575491
	0.377927358453
	0.245874760181
	0.245874760181
	0.295968770953
	0.261942919498
	0.3605175948
	0.363774907638
	0.096878803482
	-0.00223841927461
	0.372057266065
	0.301442892538
	0.30114604956
	0.32010378247
	0.394896821671
	0.37356332932
	0.275237574711
	0.357958269326
	0.345238931534
	0.234421220022
	0.309749887378
	0.229641071541
	0.361921759408
	0.202846845458
	0.180161242374
	0.224809864981
	0.322908589614
	0.13892644238
	0.340843361039
	0.511785767979
	0.233482597981
	0.248389961824
	0.17445770504
	0.289097530066
	0.327792007236
	0.299357921407
	0.312213512968
	0.440058500627
	0.181814787971
	0.294179526213
	0.237960857509
	0.312006809129
	0.0773393261424
	0.202683617945
	0.426572759565
	0.282751999277
	0.153193594529
	0.347957541754
	0.393043259938
	0.261697219104
	0.40566285257
	0.462633784152
	0.349227735866
	0.0931426074057
	0.334213610661
	0.25600341276
	0.397335804299
	0.23105158342
	0.373070200426
	0.188223749039
	0.265978107992
	0.265978107992
	0.0790612102736
	0.196448412786
	0.0843640426833
	0.165529676182
	0.261947671127
	0.303577629941
	0.207150538107
	0.227786630498
	0.522617584077
	0.260548166202
	0.207639510635
	0.156627713578
	0.408131623679
	0.382284873932
	0.378335399851
	0.259442174547
	0.224612030899
	0.280171268718
	0.22045639262
	0.334425176988
	0.266766658513
	0.284930213446
	0.384432969481
	0.414108513546
	0.449166523159
	0.3284519644
	0.360805965568
	0.340675697667
	0.277031866357
	0.0644632971727
	0.219091551802
	0.184707622484
	0.171575439716
	0.337759122787
	0.174730595012
	0.197811916677
	0.314261958093
	0.389633827622
	0.319555578373
	0.369517119184
	0.302793426394
	0.263612409206
	0.225320848771
	0.185884097272
	0.158582254441
	0.214893158978
	0.345667138564
	0.345667138564
	-0.0232994259208
	0.117307160856
	0.33413360774
	0.307859630253
	0.365445283369
	0.337578559833
	0.176665644407
	0.229682697632
	0.311973482098
	0.266202288674
	0.249812693716
	0.288299856379
	0.196127453984
	0.196127453984
	0.130518444629
	0.313929727249
	0.0643770127044
	0.103154962871
	0.348908851727
	0.204285644447
	0.315545135474
	0.414885482214
	0.280484435409
	0.451694897026
	0.138510891765
	0.217081536341
	0.285001102264
	0.190323872723
	0.25049972993
	0.326356638107
	0.0992575194521
	0.345075099195
	0.304791105441
	0.202408378925
	0.260083400121
	0.323725781781
	0.242811739453
	0.279040653908
	0.400241555489
	0.194370003928
	0.262294197175
	0.301740020954
	0.197553551575
	0.395535411825
	0.350838929769
	0.145438238597
	0.19605941033
	0.333285958201
	0.311820512158
	0.180520022074
	0.348637610481
	0.178445906905
	0.354653171492
	0.204877415294
	0.255202377224
	0.267286250444
	0.379448791786
	0.34017287814
	0.28979687973
	0.336089684
	0.267444506595
	0.307258715589
	0.225913725427
	0.397883744385
	0.392940224896
	0.318260558847
	0.415166352353
	0.396838130613
	0.444965560577
	0.357523893567
	0.315929399644
	0.380913741911
	0.433347810342
	0.260812762618
	-0.0158840514509
	0.300614158063
	0.332286921425
	0.250118011026
	0.382117130738
	0.254240160014
	0.337345134844
	0.371328323045
	0.414870295163
	0.424139403469
	0.424139403469
	0.0695589812974
	0.134043740083
	0.32016806821
	0.134930443303
	0.152735716669
	0.105041841006
	0.373590424505
	0.306255263425
	0.269382197577
	0.307104923248
	0.217292316069
	0.217292316069
	0.453222349333
	0.375843054643
	0.326815765961
	0.314095680266
	0.21261183656
	0.300466962024
	0.286189527956
	0.243952165199
	0.388219508991
	0.365739703559
	0.32096262735
	0.287734367448
	0.180614402556
	0.245273873561
	0.27679479977
	0.254196982157
	0.292139364385
	0.344053988435
	0.38528866678
	0.478251760422
	0.265497826275
	0.300893383634
	0.3941358165
	0.504637803201
	0.335207466003
	0.352522097473
	0.0199545702271
	0.152108278562
	0.162088056228
	0.296650826776
	0.375934422348
	0.346353045762
	0.280097959115
	0.429781795891
	0.308642566351
	0.195161749825
	0.431353483693
	0.250454614709
	0.365891867865
	0.246736372341
	0.116983766538
	0.327228050957
	0.246857873679
	0.183881305694
	0.139739959853
	0.133351221018
	0.158162174648
	0.231876572244
	0.321401088716
	0.270991659357
	0.312951076301
	0.2895506003
	0.131232103078
	0.42950837435
	0.249957236711
	0.323905411308
	0.323905411308
	0.323905411308
	0.302868330615
	0.161995142252
	0.168239176775
	0.337502404262
	0.307033570842
	0.278322653383
	0.2743895536
	0.450037411681
	0.414662442214
	0.399229435186
	0.308344077254
	0.346205535596
	0.313592911769
	0.302086128578
	0.333973696225
	0.370276487316
	0.370276487316
	0.303041819911
	0.414850195906
	0.355294079058
	0.402910069139
	0.447463179244
	0.290546034451
	0.237544535745
	0.284948629825
	0.383872396196
	0.400475809347
	0.266959367803
	0.269787506859
	0.262754412809
	0.348830042164
	0.426782399374
	0.246567873088
	0.291506665552
	0.312249464181
	0.321034857957
	0.213751062657
	0.135436357707
	0.217776983042
	0.284592704922
	0.380410900284
	0.164697143928
	0.234728168657
	0.243868897666
	0.238303258609
	0.301353734548
	0.32727130947
	0.176146137609
	0.231055399198
	0.200189179129
	0.373170635689
	0.235378204326
	0.279310106376
	0.155473076329
	0.200348349242
	0.371172620294
	0.161322147721
	0.47774044076
	0.263832082866
	0.343736063352
	0.138089319952
	0.301698159971
	0.510778650984
	0.302109529675
	0.274527119411
	0.279888141743
	0.335273833308
	0.137630639741
	0.223977943536
	0.223977943536
	0.289694148475
	0.298864297247
	0.270713962304
	0.308988287721
	0.185608658353
	0.315055433633
	0.404010191767
	0.147693912532
	0.392103965451
	0.326620254109
	0.245073663969
	0.269210511632
	0.389006888332
	0.272582975201
	0.26983630891
	0.428161220356
	0.249054340016
	0.323341645441
	0.353936572253
	0.409523548527
	0.341888620712
	0.33928977317
	0.360649336499
	0.197014600445
	0.369982732341
	0.226081777161
	0.295370224788
	0.143421951875
	0.409738574165
	0.273664182884
	0.290764519864
	0.293781933774
	0.227347606093
	0.216785970213
	0.284147160856
	0.39981282663
	0.311708828599
	0.109341793989
	0.218259314979
	0.253851824152
	0.401277680034
	0.370330954961
	0.300172889988
	0.381668082631
	0.270250606988
	0.196226054309
	0.318704762802
	0.233834203044
	0.484263382429
	0.11297044419
	0.331038728288
	0.353286385841
	0.397887296612
	0.297319555979
	0.513597496964
	0.409150105536
	0.15751084903
	0.249672120257
	0.302145905642
	0.278733875476
	0.27812814054
	0.433563221226
	0.387207027091
	0.377915081775
	0.0827587525774
	0.341150630689
	0.194955422133
	0.288708994219
	0.401678008982
	0.40390956193
	0.477343327201
	0.246812373799
	0.415860408377
	0.464615095655
	0.328600047126
	0.298688110924
	0.308137477711
	0.284998577518
	0.273383140807
	0.264384036757
	0.394492634166
	0.354035657281
	0.22829055756
	0.293452839679
	0.283046609754
	0.252111849551
	0.288566927
	0.199199650106
	0.338046935866
	0.379464340414
	0.387455430873
	0.200319142748
	0.33352473711
	0.452217085399
	0.26303668886
	0.20633938728
	0.379543472346
	0.38006214902
	0.247965947199
	0.281861915221
	0.273808838551
	0.234760881237
	0.225485264581
	0.416412446459
	0.23204767778
	0.281503876459
	0.364923667305
	0.244356906525
	0.214065769729
	0.241705271845
	0.27504470353
	0.339466218075
	0.118255467554
	0.118255467554
	0.262564366262
	0.407004619488
	0.277209450286
	0.357337074646
	0.0965688907896
	0.242853394507
	0.323293441048
	0.444593812946
	0.162574083667
	0.443034421414
	0.319077126348
	0.336231404381
	0.414863393454
	0.314870278808
	0.403467862624
	0.192887520948
	0.22145151952
	0.160322845538
	0.283398889099
	0.369540794088
	0.354322173783
	0.472503167898
	0.311949754474
	0.235493048518
	0.192136634921
	0.455166415601
	0.224084639056
	0.214762488768
	0.324041620458
	0.22461183218
	0.264481242774
	0.230302783996
	0.0265187046728
	0.255107050442
	0.365909150252
	0.281255122818
	0.35407965512
	0.425243076171
	0.38361269793
	0.314702740492
	0.213794181715
	0.415948365844
	0.221623151538
	0.321283455471
	0.281378265497
	0.360075171744
	0.238526295227
	0.298319115736
	0.374415577105
	0.259256099778
	0.374633377585
	0.430976768746
	0.213926267047
	0.205835479719
	0.303785892101
	0.309677130718
	0.38537377317
	0.325115673276
	0.39245941061
	0.380344244213
	0.250812051775
	0.241229226564
	0.32218201703
	0.17026001433
	0.298454958621
	0.351179788972
	0.367746364615
	0.23934841046
	0.372085208425
	0.342612237066
	0.159670234554
	0.159670234554
	0.20499811904
	0.262412925485
	0.241508505165
	0.420244540803
	0.301261529019
	0.309037570467
	0.302514064416
	0.245564848322
	0.288914326613
	0.277556117616
	0.285623916912
	0.312712614132
	0.222091340794
	0.279203392832
	0.440916192406
	0.246062089466
	0.334148104497
	0.388698048622
	0.185758440767
	0.40298183043
	0.191425655485
	0.258946288239
	0.205296514671
	0.322822069036
	0.323923029308
	0.384605555163
	0.154247049765
	0.383826251437
	0.326753917909
	0.387412929603
	0.28324518488
	0.244635482598
	0.460180574312
	0.2186489106
	0.316578777606
	0.294855047623
	0.13567654065
	0.369089586616
	0.164176415731
	0.297563788469
	0.323865916252
	0.343971482167
	0.164255374278
	0.192518765222
	0.311068405614
	0.317333625771
	0.236542222017
	0.269190709281
	0.460946625073
	0.252159435579
	0.181339235892
	0.347024743068
	0.345302503747
	0.445891077308
	0.22139717633
	0.141349349019
	0.25027905665
	0.459573002095
	0.279344130538
	0.246283434203
	0.351905160698
	0.151311539872
	0.155291090856
	0.200105111674
	0.153823486768
	0.347345742544
	0.137876759848
	0.246181582409
	0.307547418306
	0.350556242423
	0.229469962483
	0.0642214693147
	0.212291655189
	0.259967611835
	0.296091642573
	0.0953980456647
	0.296067514954
	0.293694971289
	0.36546532775
	0.261259193356
	0.31917978857
	0.197774662857
	0.379384522211
	0.303032990372
	0.307101342527
	0.342117914449
	0.240331032188
	0.392315413783
	0.300446256173
	0.352863078059
	0.291827400635
	0.211274028389
	0.287270276399
	0.284584415277
	0.370205010062
	0.331801832993
	0.359207714917
	0.400659969956
	0.144037999768
	0.201287811469
	0.368947404926
	0.41079222194
	0.294619316623
	0.376081140303
	0.323375182999
	0.323375182999
	0.311160804406
	0.311656921678
	0.238611261433
	0.222809166431
	0.272432854344
	0.344801388729
	0.448709584807
	0.0526347235406
	0.357485409786
	0.231642848192
	0.280196875925
	0.335452292879
	0.307668516014
	0.389777272251
	0.153859301867
	0.436132697696
	0.29626240621
	0.218134442887
	0.14478555615
	0.497033801862
	0.356057007074
	0.377102611918
	0.274815277174
	0.465293095109
	0.299362588294
	0.32269821543
	0.193081080093
	0.457280420219
	0.295800942339
	0.327121543463
	0.271629126912
	0.156794133839
	0.36001599535
	0.303278318028
	0.422842845034
	0.25276097083
	0.25276097083
	0.27433710385
	0.280550365154
	0.206294160238
	0.340705539708
	0.569586722724
	0.211751061124
	0.286285005841
	0.272650601426
	0.272650601426
	0.474287387619
	0.381588774614
	0.235398864146
	0.074049851727
	0.0553493473585
	0.473539529198
	0.20375441307
	0.455186937006
	0.411609603256
	0.345842200778
	0.302156566988
	0.28249310641
	0.43306493765
	0.37633276123
	0.378141469339
	0.404309071078
	0.179988583149
	0.236960834985
	0.373820163702
	0.315878199163
	0.333745551383
	0.326887646731
	0.375684447025
	0.364397828591
	0.364397828591
	0.314793238379
	0.34460778473
	0.173626420874
	0.212596947917
	0.203119781965
	0.195647788396
	0.356347505954
	0.16300406969
	0.353607148746
	0.476387550071
	0.21100954283
	0.195800086089
	0.295122846235
	0.126089994565
	0.389097342479
	0.269334307102
	0.401699417931
	0.337379936236
	0.231372521572
	0.315288472193
	0.268030352263
	0.266094429158
	0.354160456601
	0.395457753895
	0.386850576666
	0.402240219874
	0.340981882521
	0.189996540661
	0.333073980886
	0.402729369691
	0.366698388748
	0.37485747805
	0.429060377736
	0.223568270592
	0.413516488594
	0.211022307598
	0.223853678996
	0.315717269476
	0.202591378662
	0.293219661449
	0.192376008014
	0.396715744841
	0.0916638130237
	0.326466234407
	0.248904077886
	0.539775891449
	0.360187403603
	0.214970576923
	0.359355667977
	0.214153694681
	0.113805411077
	0.254399639602
	0.229691236142
	0.388500209827
	0.01630592625
	0.154099609317
	0.391668470079
	0.400064065654
	0.164587840085
	0.342918321476
	0.368232660886
	0.295684587841
	0.372686089969
	0.338888933191
	0.255098853019
	0.423090657227
	0.410115405491
	0.317325007696
	0.190996436553
	0.29010809742
	0.22732590835
	0.260720653643
	0.260256674953
	0.199566262004
	0.184968870784
	0.325621176116
	0.382310421891
	0.212530815864
	0.230128339786
	0.406429365282
	0.231053324244
	0.291047205077
	0.351975172786
	0.311038389836
	0.258810063235
	0.389983571602
	0.225723048113
	0.143173969083
	0.0252406729534
	0.28190533778
	0.397861529501
	0.214031194328
	0.343687880225
	0.352346512786
	0.309486708466
	0.309486708466
	0.35777737089
	0.364158750154
	0.348981702324
	0.348981702324
	0.411183645955
	0.529105232728
	0.282269614966
	0.394968802047
	0.267345743173
	0.417868862443
	0.441452004935
	0.347568655985
	0.291325155742
	0.267454829567
	0.415478346095
	0.375468108451
	0.368617209755
	0.288626447881
	0.243522513461
	0.218449886758
	0.169845831246
	0.326899603372
	0.247689154276
	0.266287468854
	0.266287468854
	0.141736658741
	0.276994621994
	0.193461674079
	0.231030855997
	0.203270672622
	0.390516265806
	0.359880065087
	0.273003750975
	0.365235138378
	0.343187550205
	0.128583314747
	0.358064539208
	0.296403957682
	0.214279044508
	0.240510214067
	0.377412138089
	0.352725485195
	0.352725485195
	0.424594788585
	0.297554209214
	0.250793732623
	0.126829698635
	0.282423826779
	0.34023435986
	0.202685565121
	0.259209138074
	0.282327706999
	0.282982664295
	0.29442483774
	0.0792210344019
	0.29398267008
	0.300896104714
	0.199627542637
	0.32908712068
	0.187392845838
	0.210315999667
	0.223411236734
	0.260611230764
	0.334689327059
	0.267170940365
	0.300418791231
	0.406825095716
	0.422009561335
	0.378582608821
	0.378582608821
	0.126203740997
	0.223511788994
	0.359862439576
	0.263537693692
	0.313135605903
	0.320974241448
	0.353529418737
	0.217280423033
	0.309069493281
	0.542509503996
	0.176323190829
	0.268737120196
	0.131800171862
	0.184950437311
	0.250328387133
	0.243190027634
	0.356404305114
	0.461037653533
	0.33034019883
	0.360255976737
	0.27089404025
	0.290152895244
	0.339699076558
	0.482071262539
	0.294685202026
	0.170780170624
	0.088545338331
	0.376956805188
	0.10374685573
	0.314985568271
	0.396417078527
	0.387963422788
	0.412685321618
	0.386072399062
	0.218824696332
	0.241795272609
	0.236300208316
	0.23618297979
	0.304700361266
	0.304700361266
	0.198113341752
	0.0945321524742
	0.370281115464
	0.395108068278
	0.231919265492
	0.317580307324
	0.258825177392
	0.421895112873
	0.381011872101
	0.268639902186
	0.0914164206333
	0.458744112818
	0.275081529057
	0.37825176952
	0.406408371441
	0.125519759472
	0.316669944243
	0.389792724876
	0.322174072249
	0.274003193616
	0.288472274243
	0.315865706156
	0.344236979923
	0.244174257749
	0.425472935246
	0.283870449888
	0.150102760805
	0.240935515575
	0.359696117815
	0.205871550273
	0.209457601474
	0.250058211343
	0.236795306573
	0.396616374598
	0.238408046257
	0.396521499768
	0.295854925935
	0.0886241818538
	0.21347473017
	0.322203073743
	0.253810216342
	0.263451241501
	0.260212971111
	0.112395121869
	0.221714526374
	0.264662207612
	0.306573932038
	0.115896259518
	0.243460335751
	0.268226237007
	0.326708433756
	0.389172336553
	0.230298728417
	0.262921290562
	0.350255617125
	0.350255617125
	0.114313478232
	0.286109048929
	0.319420194014
	0.147651155601
	0.247045437754
	0.28754831559
	0.27127874333
	0.383487918804
	0.315127056747
	0.283747158031
	0.121028634862
	0.168076519732
	0.376233531331
	0.375170320516
	0.468402517545
	0.123337789827
	0.13332700784
	0.196591733104
	0.370276343059
	0.510583661541
	0.36699597293
	0.254972307298
	0.183374274075
	0.149842857938
	0.319326807187
	0.302551453472
	0.48145040367
	0.432345301617
	0.21739746483
	0.27971405856
	0.166224380432
	0.268498528705
	0.277035906825
	0.406288987553
	0.290289732293
	0.144124635163
	0.144741475178
	0.310452058965
	0.0938615862581
	0.277870961191
	0.250488864309
	0.350454813768
	0.234957148038
	0.361637799473
	0.273516250693
	0.113902456742
	0.22478946326
	0.111095882692
	0.224792797342
	0.224792797342
	0.277466657199
	0.552616491318
	0.428273488854
	0.257795375508
	0.230203114374
	0.20011160543
	0.208908205662
	0.259327709152
	0.0752073188026
	0.386752151413
	0.213993206677
	0.297977726345
	0.315650316554
	0.309075353643
	0.510066539205
	0.360218501792
	0.34007987005
	0.312729960397
	0.264409354022
	0.436415374686
	0.298521373704
	0.358047582291
	0.219278790684
	0.275743743631
	0.221219212262
	0.493743418072
	0.367238152783
	0.454889064479
	0.361742256296
	0.156954272103
	0.230505117101
	0.495195060101
	0.336204057768
	0.37917399914
	0.363260398324
	0.37399723958
	0.384620839499
	0.275406808001
	0.302491362011
	0.197239479376
	0.394710403291
	0.309647516901
	0.337356368245
	0.0737958754037
	0.279581855961
	0.244426431739
	0.460921765053
	0.278014308684
	0.236578489366
	0.236578489366
	0.204256361158
	0.316458592733
	0.335133759967
	0.251252902224
	0.33644447753
	0.384321147363
	0.27483869133
	0.378083521024
	0.331512107607
	0.317103192496
	0.355692067538
	0.260937719383
	0.395964940177
	0.313445275736
	0.281556993426
	0.327011936175
	0.276993915326
	0.313535590981
	0.363564846064
	0.209945337261
	0.174817723131
	0.221547446666
	0.366909171101
	0.260462048976
	0.286918993907
	0.273400424381
	0.236235561568
	0.307063829981
	0.447617575936
	0.29326038272
	0.202016736566
	0.271412472193
	0.182126085619
	0.343622033565
	0.0864126905045
	0.285731581197
	0.282756229157
	0.362558095277
	0.362558095277
	0.304168882377
	0.117190924089
	0.217661324459
	0.270691063261
	0.12425302684
	0.196293699888
	0.299095084896
	0.314049951941
	0.397460428672
	0.36983665238
	0.186808997857
	0.362070911443
	0.447430802601
	0.374703854526
	0.0996733318453
	0.297662787243
	0.253984743158
	0.211889878006
	0.102230338844
	0.172096761155
	0.235590572746
	0.22747307836
	0.205907638155
	0.0910169836664
	0.150523725272
	0.220816901341
	0.310407741386
	0.416460379811
	0.141898300622
	0.290550125383
	0.601430697833
	0.438072894174
	0.193431669715
	0.186651369897
	0.351672805468
	0.274684620248
	0.193405135778
	0.269535519674
	0.356551852826
	0.336691133986
	0.179481476066
	0.33684026088
	0.0464479949643
	0.36151397366
	0.244699975872
	0.326304236444
	0.368787602026
	0.149251603826
	0.15132268261
	0.377915446304
	0.391857800498
	0.203508288197
	0.428249065582
	0.246076785116
	0.356386819842
	0.334143231496
	0.164451240834
	0.336336717945
	0.201639477319
	0.244704808674
	0.314466309511
	0.324436689229
	0.242088411675
	0.259254441951
	0.40341117158
	0.299376027284
	0.45037113805
	0.244932731229
	0.264132543173
	0.363798559573
	0.493600837359
	0.208654761824
	0.34260675293
	0.302465881514
	0.148005518718
	0.240377631348
	0.181798703115
	0.450104931386
	0.24624027613
	0.355853232751
