	0.21369316186
	0.141175475748
	0.319700325998
	0.514283846686
	0.486449926903
	0.342164650667
	0.562330759432
	0.229427258803
	0.57386542814
	0.628603863409
	0.575205612498
	0.234565174526
	0.511959420667
	0.55032792778
	0.525193192695
	0.435627933646
	0.264662410243
	0.307209726992
	0.292845785402
	0.423343162883
	0.121094032275
	0.47456837801
	0.383691475262
	0.35033416268
	0.305987454037
	0.473895837824
	0.638944948925
	0.265096678475
	0.326545027042
	0.387715890483
	0.294598686364
	0.225078193495
	0.535936964964
	0.418886115714
	0.336880938691
	0.378513345119
	0.508260289651
	0.639737033874
	0.437973529377
	0.477621513248
	0.330278397728
	0.544567532156
	0.550109290117
	0.327983058328
	0.322038430793
	0.561177580205
	0.674544746777
	0.493935245747
	0.26245564963
	0.478687533946
	0.477339409876
	0.381791944408
	0.557818086864
	0.381489940716
	0.390505634085
	0.383837329509
	0.265194578774
	0.399782156393
	0.549519476957
	0.549519476957
	0.442222060994
	0.530880305881
	0.529270190275
	0.361213807193
	0.488146556602
	0.448819792928
	0.546164952389
	0.44589654231
	0.345495014458
	0.265616319121
	0.536349627707
	0.593901804628
	0.205255473042
	0.385164925737
	0.594922365882
	0.410650531092
	0.264372916664
	0.421602932142
	0.597802285764
	0.693304002452
	0.471432636035
	0.567439937455
	0.41446159482
	0.526476867667
	0.429882263928
	0.287270749473
	0.376035543807
	0.417536216776
	0.610539950102
	0.576639477572
	0.458688087028
	0.211900424762
	0.385695835058
	0.337832103607
	0.313073814559
	0.185936727515
	0.358253028723
	0.358253028723
	0.358253028723
	0.151085360938
	0.409719552339
	0.436645239742
	0.330804099078
	0.336835278931
	0.398913430305
	0.188993623767
	0.493006477191
	0.419757984069
	0.419757984069
	0.334779907229
	0.488369964789
	0.536817141531
	0.482489332798
	0.39208594905
	0.298851956267
	0.298851956267
	0.475290613365
	0.475290613365
	0.56468333859
	0.403300306664
	0.179987835383
	0.523677841214
	0.302412254123
	0.405491550725
	0.309023611845
	0.278894040332
	0.397518579891
	0.566171282266
	0.192996928694
	0.345779708429
	0.420280072951
	0.230162980802
	0.36763641842
	0.305924922607
	0.292127663468
	0.292127663468
	0.322888168813
	0.322415170422
	0.322415170422
	0.43364363532
	0.363389732042
	0.363389732042
	0.363389732042
	0.19972887909
	0.361172550285
	0.319389038342
	0.516121552708
	0.610714995191
	0.29993664531
	0.329068340629
	0.389390520474
	0.576635971927
	0.558904178315
	0.290044860618
	0.451307828458
	0.572485318644
	0.234751196763
	0.425257261443
	0.431089116491
	0.434122030563
	0.489748754398
	0.354530626567
	0.395939542152
	0.571264510558
	0.344282137471
	0.466466460723
	0.633708262023
	0.507666123497
	0.453017552057
	0.128891258758
	0.342738899932
	0.431482250202
	0.459417710298
	0.361912133632
	0.46940806689
	0.286049171155
	0.564665718867
	0.346646373435
	0.464297250723
	0.299566538048
	0.331342140707
	0.566513131202
	0.195613084469
	0.58161540584
	0.596699588109
	0.389241709242
	0.416088099461
	0.437619865682
	0.402707674609
	0.462572733749
	0.431189389745
	0.498366620547
	0.471953095688
	0.536675923299
	0.64419515807
	0.356876766055
	0.462660732835
	0.390653434487
	0.596269305435
	0.67619918332
	0.423163764036
	0.416155881464
	0.416921087818
	-0.00993915815238
	0.111324264405
	0.47945184694
	0.322771237339
	0.325317313171
	0.48525763576
	0.457327028923
	0.550546547209
	0.357864958037
	0.420843706929
	0.225541226991
	0.323645790682
	0.532316069836
	0.402329546229
	0.430870843743
	0.279810409163
	0.509099943841
	0.386624046764
	0.525600710883
	0.413809191978
	0.277393089374
	0.167521537631
	0.450228345137
	0.516891354457
	0.381558333625
	0.534909805559
	0.506359728778
	0.484049307804
	0.444579593206
	0.402320600081
	0.338412044693
	0.338393049051
	0.590669183553
	0.509855558388
	0.606247641061
	0.372206496084
	0.321855397693
	0.205379071645
	0.305337197482
	0.509125663633
	0.417927902116
	0.394966553531
	0.346834579484
	0.540214501504
	0.326795399571
	0.420080446497
	0.420080446497
	0.452211626198
	0.581291493841
	0.383333681213
	0.402418750306
	0.361847903007
	0.470213234496
	0.141739832406
	0.0800186044915
	0.385585743775
	0.541766014231
	0.314423280746
	0.37168343819
	0.365551360936
	0.368071124332
	0.420584001384
	0.447457677059
	0.515528241756
	0.144910766044
	0.425317727873
	0.425317727873
	0.448185125148
	0.284594188071
	0.391748546785
	0.29598438504
	0.326368354282
	0.412453410809
	0.412453410809
	0.236116853252
	0.478318922266
	0.188454087353
	0.423260286361
	0.424112063054
	0.00054877424752
	0.234348918423
	0.299673265486
	0.560954812878
	0.484264076767
	0.575371172393
	0.468079837157
	0.127273019828
	0.610311149227
	0.359218459375
	0.238342619049
	0.324812556764
	0.37047754538
	0.533248545353
	0.533248545353
	0.444881169216
	0.598536818339
	0.600117782018
	0.49905638719
	0.390958633914
	0.306920125783
	0.323907528901
	0.455223467196
	0.401967550913
	0.306611339026
	0.398954946848
	0.40617212011
	0.330117543681
	0.330117543681
	0.386598790084
	0.50970629427
	0.568829009966
	0.273001878464
	0.355803636091
	0.509129111132
	0.241518127117
	0.352715100605
	0.500117210987
	0.4300596304
	0.313535627639
	0.483392966544
	0.26766632534
	0.574691447551
	0.48517080956
	0.49973754285
	0.296538367922
	0.468528987168
	0.51963192238
	0.373607321662
	0.442802969314
	0.397654992678
	0.493169448349
	0.215710577581
	0.269683534528
	0.49036429712
	0.480886159314
	0.400847064006
	0.494883736858
	0.247415259556
	0.430673040441
	0.441563020901
	0.303925625707
	0.518486138433
	0.519909775456
	0.664783641598
	0.477566968555
	0.67830139952
	0.364439239299
	0.31780250868
	0.50779500516
	0.250501810927
	0.441639467597
	0.417372617642
	0.446325787891
	0.447855953299
	0.427774461257
	0.523725576258
	0.605686893958
	0.565293293733
	0.570441454585
	0.377967806133
	0.592500557584
	0.595503224641
	0.401339600014
	0.211043021556
	0.343365711254
	0.482013702838
	0.3742506982
	0.555714143766
	0.464811939562
	0.545092858845
	0.374367422383
	0.525622685051
	0.525622685051
	0.454807644517
	0.367082192791
	0.211501255893
	0.444560811436
	0.377118057041
	0.291966187097
	0.230477914497
	0.535290365013
	0.518920113903
	0.475805709559
	0.268335288374
	0.517796501806
	0.284953828191
	0.481819759126
	0.328034943549
	0.552293130729
	0.483872469782
	0.243035568735
	0.243035568735
	0.597160975633
	0.545563385372
	0.545563385372
	0.649479384355
	0.529806224546
	0.43835985921
	0.520408465397
	0.551765836254
	0.369441118848
	0.369441118848
	0.331834536572
	0.396949848659
	0.213895523031
	0.682437679409
	0.459448073967
	0.253038035812
	0.548286920904
	0.418381814903
	0.622195632655
	0.481732766247
	0.139159114217
	0.295206009839
	0.451941423253
	0.427993981748
	0.372984977737
	0.354618744226
	0.139849227037
	0.509168790351
	0.326583764905
	0.339348634998
	0.44216907891
	0.389377400573
	0.455260701391
	0.489995310135
	0.452527108904
	0.386520041499
	0.420750297445
	0.480866354831
	0.564272031439
	0.605017341293
	0.502195889415
	0.624258446439
	0.442686133392
	0.284665711919
	0.386093129594
	0.296755317111
	0.326198474718
	0.342172730493
	0.389366206975
	0.409728939278
	0.488274627206
	0.426157027332
	0.639466008581
	0.408457795635
	0.490844955248
	0.296162255225
	0.48232008986
	0.527940249412
	0.453793902283
	0.447844538484
	0.357534555565
	0.357534555565
	0.552215476747
	0.41661317837
	0.710302349125
	0.23383599328
	0.599638636872
	0.512867804809
	0.488008847051
	0.341312378475
	0.407036861251
	0.407036861251
	0.370038063324
	0.427124315326
	0.366800475226
	0.36833684883
	0.315550585078
	0.333731796469
	0.492985281302
	0.275552313526
	0.432582119088
	0.550345815199
	0.440244545168
	0.586994475934
	0.172902605987
	0.436966052596
	0.436520280659
	0.400837495214
	0.349642033244
	0.544463470846
	0.363868538139
	0.363868538139
	0.363868538139
	0.35577713056
	0.531752933565
	0.654824741249
	0.532519499768
	0.519917503968
	0.44867783544
	0.514889251409
	0.28606629643
	0.6045668167
	0.368842433485
	0.587547612859
	0.60241863433
	0.482894147144
	0.414097671935
	0.3898317187
	0.482776832585
	0.556021714729
	0.387045292234
	0.445060382283
	0.461943679096
	0.34631611168
	0.339491104993
	0.395499103182
	0.247820064655
	0.464746305023
	0.495515295924
	0.540336135371
	0.491992453724
	0.216826502567
	0.495352000949
	0.265780297966
	0.517413312774
	0.243949110166
	0.271717739282
	0.27985538648
	0.439770799491
	0.452408186495
	0.514982830681
	0.349468008406
	0.558467496927
	0.442974886253
	0.314663491444
	0.381519248599
	0.335898695597
	0.612227496595
	0.471810672019
	0.558809738792
	0.368923189577
	0.289397436373
	0.164232346663
	0.228348500073
	0.432885145056
	0.336523971282
	0.452345115559
	0.469526817653
	0.515409643771
	0.218860057803
	0.377678186956
	0.357964002912
	0.419438631289
	0.263200202937
	0.418520300844
	0.487423260035
	0.262170876424
	0.369759118219
	0.390442897531
	0.503713058573
	0.432959734564
	0.455896334944
	0.361514374244
	0.361514374244
	0.571061730872
	0.428808526489
	0.249739728257
	0.454325303918
	0.353505282955
	0.396759918692
	0.565839455244
	0.612430865734
	0.142681970329
	0.538650567235
	0.432551444382
	0.43549009981
	0.768504178624
	0.604882147018
	0.405532919693
	0.551713863996
	0.55379882039
	0.461137222399
	0.352930598631
	0.12473229968
	0.258177721995
	0.327484357733
	0.432209070982
	0.359565400122
	0.529972432166
	0.1659829133
	0.105400580822
	0.319114937211
	0.30531239635
	0.55397119902
	0.275119164194
	0.510756093512
	0.389831741549
	0.341590383308
	0.297849815811
	0.458767016206
	0.487598474656
	0.470246789465
	0.65326144045
	0.484992776166
	0.614047838168
	0.533665429078
	0.405839753623
	0.321057403267
	0.340271421368
	0.224128650294
	0.277141706935
	0.596173074559
	0.257157421857
	0.327738106696
	0.521380910833
	0.511830242471
	0.2293165784
	0.511942208173
	0.352346712408
	0.456272564232
	0.379973090186
	0.325368932437
	0.271942998904
	0.31527248647
	0.444062757834
	0.488695026468
	0.278638841058
	0.517857683553
	0.600365885445
	0.261100385331
	0.4031314897
	0.727986811395
	0.596941861128
	0.358817370772
	0.231671458236
	0.619992485571
	0.531015807605
	0.368701561684
	0.395374056398
	0.341585536017
	0.351171160795
	0.448668673037
	0.602797816326
	0.255681326527
	0.506564574519
	0.58212248797
	0.499853607572
	0.544255490915
	0.392587201202
	0.402308438988
	0.226696214406
	0.349004641487
	0.49404841436
	0.206613141084
	0.168500129049
	0.40820894864
	0.412333624227
	0.453399358218
	0.491281833476
	0.238684789622
	0.375581602708
	0.397673297808
	0.434008290189
	0.543684863985
	0.393429975333
	0.345248524412
	0.425240170895
	0.50266733226
	0.495336589833
	0.407947636531
	0.210463578295
	0.32457276754
	0.283634821592
	0.529615394849
	0.303874381751
	0.456016061788
	0.456016061788
	0.301862592971
	0.424306834723
	0.502864545218
	0.426527106927
	0.423272001173
	0.550177679238
	0.248837249353
	0.312815066821
	0.398522901153
	0.144357238405
	0.226229268479
	0.652488289713
	0.513335391861
	0.452446991528
	0.605717515294
	0.632233151672
	0.427650327786
	0.513920004716
	0.515836785821
	0.459456706384
	0.372707512415
	0.586094258037
	0.586311988117
	0.328949744296
	0.357203178132
	0.357409812484
	0.49101902566
	0.49101902566
	0.525571878642
	0.583002122019
	0.229492953471
	0.344172105407
	0.401878994858
	0.389510927469
	0.280281056947
	0.611779947209
	0.408262198774
	0.282144574793
	0.53651788652
	0.53651788652
	0.345914261827
	0.339660828374
	0.4196762817
	0.462697636168
	0.517960414981
	0.678738206796
	0.557592601239
	0.426581062586
	0.239853700299
	0.559804919029
	0.519200010093
	0.401572272828
	0.370491704761
	0.445580240004
	0.382607039203
	-0.143815808615
	0.586508496048
	0.715806991507
	0.388931540191
	0.423516927889
	0.451928390288
	0.361097537738
	0.267567185789
	0.393919356075
	0.295852639157
	0.517649139343
	0.417744486184
	0.627372371821
	0.527913342365
	-0.00603212173761
	0.344843756244
	0.317819731866
	0.410823516121
	0.328028401082
	0.417676809991
	0.466821596281
	0.466821596281
	0.304964570916
	0.431161761858
	0.283532385083
	0.558210127588
	0.48291051783
	0.662669041668
	0.349494183646
	0.510921525612
	0.510921525612
	0.467884000724
	0.386597504472
	0.221439186053
	0.221439186053
	0.200370040707
	0.343653629117
	0.36756856185
	0.142835612574
	0.54730265413
	0.229643402684
	0.523605433083
	0.490593372424
	0.311816166618
	0.382321934201
	0.40924070719
	0.441702701424
	0.319617103334
	0.441847181389
	0.242811819561
	0.409306978862
	0.492697816332
	0.215650553286
	0.355005816434
	0.250979933875
	0.480875899959
	0.374583109356
	0.22771452308
	0.331375286238
	0.438764172756
	0.275601628859
	0.275601628859
	0.518365578467
	0.518365578467
	0.338894012652
	0.384144749696
	0.462287505206
	0.428907956201
	0.29626395679
	0.101901306944
	0.229853184782
	0.463196658799
	0.437977759595
	0.38897968108
	0.596765176964
	0.399645440424
	0.471236531932
	0.433554090365
	0.0582289725363
	0.507206894707
	0.419355714672
	0.157340316396
	0.510707515344
	0.450903100495
	0.156194256855
	0.533328069312
	0.555370683069
	0.450861712705
	0.425113217642
	0.201090478161
	0.444983901073
	0.551705484415
	0.401268249539
	0.400242707518
	0.629763820582
	0.506963594916
	0.601394871179
	0.424527986986
	0.307076772535
	0.38433102704
	0.210276352487
	0.399183872909
	0.398642462936
	0.595443941387
	0.511400668766
	0.387101097349
	0.411488968409
	0.396656125811
	0.510722729345
	0.336415631576
	0.340496975758
	0.124140545055
	0.327953609773
	0.49122540197
	0.49122540197
	0.330083857433
	0.166430666545
	0.500865936595
	0.260992671815
	0.260992671815
	0.428268222384
	0.331514042653
	0.203862129317
	0.58397233924
	0.397910383936
	0.49560317729
	0.630762030162
	0.401751512778
	-0.0641126999223
	0.487774051621
	0.33137920325
	0.514060914129
	0.615450307468
	0.437122760657
	0.37560711761
	0.348282605643
	0.46208406854
	0.526841616876
	0.517510845241
	0.322756473213
	0.308442036997
	0.324398623848
	0.358264934832
	0.358264934832
	0.336246793784
	0.69266002819
	0.69266002819
	0.188586176417
	0.420910657861
	0.28237955165
	0.459533887093
	0.365724839477
	0.348480589998
	0.348480589998
	0.292782054383
	0.345588677441
	0.447554863269
	0.447554863269
	0.373852204688
	0.241726645814
	0.571096354497
	0.487313771533
	0.564806738837
	0.360626325352
	0.457549283365
	0.367666617211
	0.315573427797
	0.464514427906
	0.658858153039
	0.338207239824
	0.289135731709
	0.538851487132
	0.613301006354
	0.294363535197
	0.419086826804
	0.384919371873
	0.400499705231
	0.456623945733
	0.463317749773
	0.360435808468
	0.514501693768
	0.253961283165
	0.491212580117
	0.54858746898
	0.364138126915
	0.337595423689
	0.509984497071
	0.509984497071
	0.457885702716
	0.521311651876
	0.517210095504
	0.448786202618
	0.341949839575
	0.608329343205
	0.506654234302
	0.442089218925
	0.439272697599
	0.373560121605
	0.398076907793
	0.27341431973
	0.482939342428
	0.423627914752
	0.227587655993
	0.405249044237
	0.392670633071
	0.520620294792
	0.375539733287
	0.477980665981
	0.471941763083
	0.311765313674
	0.256807370144
	0.370509158204
	0.469268084329
	0.515272691936
	0.308332664638
	0.369227543819
	0.211124397573
	0.429274236251
	0.324865771818
	0.341590038431
	0.544275959708
	0.599598959809
	0.461316893149
	0.274091113872
	0.261437059911
	0.563624894192
	0.321326157091
	0.273910285354
	0.302872982859
	0.474785090491
	0.20398601064
	0.619662457594
	0.442070375741
	0.275686718742
	0.401834546528
	0.319585532023
	0.528061833761
	0.558476122965
	0.504212259464
	0.497233669329
	0.16868900247
	0.302777989277
	0.423184999574
	0.396350814466
	0.511329782631
	0.356141193697
	0.208279721842
	0.505575385709
	0.525434669193
	0.360798836153
	0.522609578247
	0.494012292483
	0.381233960682
	0.524328466167
	0.515601124872
	0.515101778452
	0.333378213378
	0.618850793633
	0.365236356115
	0.365236356115
	0.390099043725
	0.212011731853
	0.1915390184
	0.296817832348
	0.622656020132
	0.386230127128
	0.323558358942
	0.196115873243
	0.454399212171
	0.162098095313
	0.575182129236
	0.242712848672
	0.123741054885
	0.508827824543
	0.42089608973
	0.341815349219
	0.386190454406
	0.397253481519
	0.517895291125
	0.40510597239
	0.429258906929
	0.479262520818
	0.479262520818
	0.1726030335
	0.530502733628
	0.347772750909
	0.59642457835
	0.371720556332
	0.412203557145
	0.544691742566
	0.227782370316
	0.516150141614
	0.414797565732
	0.349584448372
	0.45028593493
	0.521709813131
	0.415146481898
	0.412841842797
	0.468191622384
	0.25030136784
	0.435481709947
	0.433580932362
	0.390483491364
	0.485873213898
	0.356798208723
	0.564938012313
	0.590387502417
	0.448872659058
	0.585495269485
	0.284868699028
	0.367861579682
	0.476185967592
	0.252657792296
	0.41552084055
	0.290810605264
	0.707662613725
	0.304670333637
	0.450520310458
	0.326429820792
	0.424443711548
	0.289965441721
	0.374940690703
	0.385108423242
	0.408709313821
	0.321903339494
	0.459906156699
	0.384391272789
	0.481528881062
	0.604857437637
	0.358271229696
	0.490980783025
	0.362089341736
	0.263221441251
	0.332113468302
	0.551299355396
	0.364582018593
	0.0310521098411
	0.38872823576
	0.116149820046
	0.202832614016
	0.260508918875
	0.480051983599
	0.23734148775
	0.34701818703
	0.488715209583
	0.508706205415
	0.504623884161
	0.491502942467
	0.453801813691
	0.502711938733
	0.322013406731
	0.411560085474
	0.459614048729
	0.413044450992
	0.432510654391
	0.573969808058
	0.596106791179
	0.295308455827
	0.45209181643
	0.342447665329
	0.42491560853
	0.397959117436
	0.6529914687
	0.486111453205
	0.602301045566
	0.177583474137
	0.234354486039
	0.474305091987
	0.476859086473
	0.387618493195
	0.144787026621
	0.352840575761
	0.380328297038
	0.438694498591
	0.529669528578
	0.583407052605
	0.550774598717
	0.550774598717
	0.574295702218
	0.565075779114
	0.465807819989
	0.619501470306
	0.361654525869
	0.518158554728
	0.534268903843
	0.524055181885
	0.367669576719
	0.245806908822
	0.477673826003
	0.334211866513
	0.42185219233
	0.295235454751
	0.563428887805
	0.353499240902
	0.462732965729
	0.260985217414
	0.216479952813
	0.454849839054
	0.481028012993
	0.263216002605
	0.437533961869
	0.282515794674
	0.531518858031
	0.47134741921
	0.458307673135
	0.550359270144
	0.638571452986
	0.579822340379
	0.486740800344
	0.544427094438
	0.306650298588
	0.295731183444
	0.185294641843
	0.36819891146
	0.511889249922
	0.48321115202
	0.53875636749
	0.602641761661
	0.228504442579
	0.436277666654
	0.302604836131
	0.482240474539
	0.357361536258
	0.410058583435
	0.260035633355
	0.421153343299
	0.353707447357
	0.171850680152
	0.489888526131
	0.489431708276
	0.634803216536
	0.564753315193
	0.439732526548
	0.301907551784
	0.302448827234
	0.293207737755
	0.38361832606
	0.585837179277
	0.511820585946
	0.326547051952
	0.55104905154
	0.388410299108
	0.388410299108
	0.276677960085
	0.353796348606
	0.441463652907
	0.27278105142
	0.65291086263
	0.30818889611
	0.330604230865
	0.330604230865
	0.543400335987
	0.507334687769
	0.373675373524
	0.38769972448
	0.415316663016
	0.491409268048
	0.402993338706
	0.331855863828
	0.319346201723
	0.216584082173
	0.515693140984
	0.284542371119
	0.220673689683
	0.297438596925
	0.335801549845
	0.33046067684
	0.553251858242
	0.360249198053
	0.43267256108
	0.215409458467
	0.340219079792
	0.327284527473
	0.261916001833
	0.598350335385
	0.529742439922
	0.515832130592
	0.252754539751
	0.464041398966
	0.33658506813
	0.52401442318
	0.442504969518
	0.258999047254
	0.500208085464
	0.445189715656
	0.445400973545
	0.307717164373
	0.192141740494
	0.209532584814
	0.330121683937
	0.734607081787
	0.439328824666
	0.205699067048
	0.449920297891
	0.496377398006
	0.56943008496
	0.397920406154
	0.607375356076
	0.576482006728
	0.320419463187
	0.554904099235
	0.486958088726
	0.486611336446
	0.030928105703
	0.513818612608
	0.412702218165
	0.420469603853
	0.495975347145
	0.254721458143
	0.491501256436
	0.4643928191
	0.280072370249
	0.380192289789
	0.26580050798
	0.458419961785
	0.364563933453
	0.461120094192
	0.626923817523
	0.399657873539
	0.354151126207
	0.440121804306
	0.276728677663
	0.332795221009
	0.359239535253
	0.389546930121
	0.606212572741
	0.410965741064
	0.482155492504
	0.482155492504
	0.309270082247
	0.33522212869
	0.663249158197
	0.535240427377
	0.33459662328
	0.523852918982
	0.666831112591
	0.508141825496
	0.190028185664
	0.380610500238
	-0.0836501776643
	0.525671686621
	0.523980352296
	0.398987712049
	0.561916062266
	0.333829780642
	0.445262514174
	0.400276257096
	0.474902592893
	0.401811109489
	0.484030707183
	0.284508430208
	0.169035163648
	0.529622533037
	0.33733395553
	0.489736632679
	0.14199352072
	0.443114133608
	0.381235798829
	0.501887535976
	0.277673236395
	0.155305905337
	0.277985746387
	0.439891821867
	0.390579012156
	0.394879685618
	0.284940917065
	0.453571516768
	0.49058448432
	0.265897383542
	0.460369173132
	0.283063073046
	0.531601273607
	0.307817486329
	0.36630642468
	0.344198087786
	0.237255515173
	0.495784981547
	0.215681523059
	0.215681523059
	0.377131227915
	0.599710642077
	0.562587476813
	0.358219785284
	0.45647792244
	0.387419325886
	0.703528647695
	0.428529526772
	0.405673950241
	0.392025979766
	0.258669683882
	0.461820781243
	0.437944412624
	0.48100194963
	0.140832970666
	0.202028469397
	0.475148743627
	0.437637637401
	0.493883680654
	0.416030903465
	0.447221451458
	0.389623397597
	0.385799299807
	0.229780059528
	0.308665438517
	0.595112372689
	0.514203096748
	0.370386401876
	-0.0689333342717
	0.565909607595
	0.358631395411
	0.464921538558
	0.397864084413
	0.458584724853
	0.314691082967
	0.568195198459
	0.472988113903
	0.390207012932
	0.34853152173
	0.406008967743
	0.443822786587
	0.261429535553
	0.43546398917
	0.256642477644
	-0.0998483538788
	0.321757097512
	0.420498542348
	0.114985984628
	0.325678120969
	0.390251980717
	0.380885839286
	0.303977480876
	-0.0273241608514
	0.264465008659
	0.164798719489
	0.490700736642
	0.465760330843
	0.251013063256
	0.403988498007
	0.360010760109
	0.384729762711
	0.423005666375
	0.440378430354
	0.642532053604
	0.358000785064
	0.58741164492
	0.540422596078
	0.597697193616
	0.545548441015
	0.570940894408
	0.285402030333
	0.442195581905
	0.390106993207
	0.482065103122
	0.508756626672
	0.294898800487
	0.544068563705
	0.127098627497
	0.390657249557
	0.378889614454
	0.288320065609
	0.298595664885
	0.253725168931
	0.483537392315
	0.378971959281
	0.291916170648
	0.233631018509
	0.465063144334
	0.508255199383
	0.392145310858
	0.0509334657537
	0.523551473354
	0.428450810585
	0.296577549263
	0.308606179506
	0.363370472271
	0.337270679576
	0.51175310061
	0.605649842621
	0.42839822036
	0.291692493781
	0.516230779418
	0.465741688269
	0.37333981239
	0.265076096593
	0.525323555036
	0.39795227985
	0.579671837508
	0.260526561804
	0.161231188732
	0.505550782719
	0.621439273777
	0.364581363903
	0.345210492938
	0.345210492938
	0.317404838849
	0.506407935307
	0.54408848791
	0.117049737699
	0.374914491918
	0.392733410562
	0.554934031757
	0.472768465343
	0.385143919803
	0.207208454122
	0.527339006468
	0.517252457528
	0.374392919366
	0.602887872735
	0.0398136213457
	0.309662607325
	0.340245326105
	0.287457891424
	0.212134332346
	0.398624114199
	0.4430857741
	0.141322619046
	0.419786206432
	0.458505794892
	0.488014409112
	0.443923851271
	0.344811291618
	0.527204393871
	0.502155377536
	0.506127852652
	0.247232803194
	0.647145972143
	0.367158631261
	0.0948919387577
	0.390923983863
	0.210277730181
	0.515807077262
	0.45079495695
	0.472189819573
	0.4260344223
	0.258698995335
	0.195883291998
	0.398850994403
	0.542259586654
	0.363063377735
	0.485575146912
	0.305881765722
	0.354345276826
	0.520037535485
	0.148588896681
	0.243894385452
	0.396219874511
	0.544964557903
	0.511083075722
	0.494396148425
	0.428300334017
	0.428708256619
	0.532948777297
	0.456237297481
	0.457118372299
	0.457118372299
	0.503919003523
	0.307299958834
	0.378585409701
	0.453783267333
	0.277672227692
	0.26656029789
	0.363540660281
	0.280942280459
	0.291618631938
	0.235194778336
	0.358703047526
	0.242000629046
	0.2527878391
	0.491122243639
	0.461760115947
	0.443884294001
	0.458886245231
	0.561463255367
	0.408744464989
	0.487091573928
	0.606024938785
	0.467914805295
	0.356339721265
	0.312292808849
	0.330521461089
	0.428391404248
	0.246461705923
	0.373174592759
	0.31190661708
	0.33625278873
	0.493742576892
	0.390250960479
	0.485518157504
	0.223397542944
	0.558347665826
	0.458371493222
	0.308354825583
	0.557787835868
	0.195001632212
	0.522334900301
	0.362615021879
	0.422459913213
	0.439334567132
	0.409573059117
	0.113450941509
	0.0970522310831
	0.178403441597
	0.34693571202
	0.459810498655
	0.344801786759
	0.387850300302
	0.442191348457
	0.463853122128
	0.56884395785
	0.0685682470919
	0.583992798861
	0.197652528385
	0.395024445945
	0.276263721456
	0.345327471143
	0.542267046021
	0.413198678016
	0.308343991923
	0.244382274466
	0.197399807143
	0.454548991359
	0.506620039494
	0.292194932068
	0.32167164446
	0.35526001796
	0.579778123137
	0.57663715228
	0.580342141818
	0.38127495812
	0.446824388485
	0.22279733701
	0.386958275664
	0.467409863619
	0.459406388397
	0.523527529429
	0.263556604867
	0.128559716706
	0.241167048123
	0.466281855511
	0.474209674309
	0.300778714919
	0.264684742996
	0.403671184945
	0.522319527027
	0.575045636657
	0.658176651018
	0.42365186543
	0.341662643571
	0.466079708398
	0.414762578141
	0.166803371324
	0.46532405605
	0.256574939937
	0.121843471633
	0.743212832893
	0.443503078975
	0.512163563616
	0.45483356109
	0.270435460261
	0.617714246648
	0.138639458023
	0.387180470918
	0.344358291743
	0.471636032548
	0.322001062314
	0.30095897244
	0.527151213551
	0.296099755652
	0.407712026282
	0.366629237086
	0.385463346771
	0.261977339263
	0.491239798987
	0.414846945811
	0.386732912292
	0.528259575234
	0.555649149118
	0.537564242692
	0.537564242692
	0.398339393424
	0.680843405581
	0.601295131621
	0.31055272504
	0.44055986916
	0.338894273775
	0.483362529902
	0.3151486027
	0.370586631386
	0.350486400425
	0.448882400163
	0.44355127416
	0.421613826715
	0.488548221952
	0.471684195127
	0.464542868978
	0.312474409694
	0.533585568099
	0.347743556682
	0.454369639983
	0.475506079391
	0.334698227405
	0.172920273868
	0.459238023524
	0.399184448649
	0.374619716891
	0.565380112567
	0.659636269907
	0.0177071846522
	0.471521764508
	0.603848075187
	0.527803422072
	0.4396622372
	0.309462411967
	0.500076772442
	0.553017370317
	0.498844091835
	0.457017742439
	0.34250509968
	0.569784142593
	0.364764880917
	0.427527230288
	0.341833966218
	0.42983000082
	0.533690169478
	0.312619938525
	0.701857280193
	0.611490475334
	0.551245893707
	0.546216141683
	0.506119820579
	0.496819238362
	0.353304164422
	0.452696689922
	0.376689975164
	0.269628174731
	0.35308210227
	0.462824750473
	0.376941503004
	0.544680558978
	0.354956194714
	0.528285038207
	0.427184162098
	0.473556128821
	0.378051196704
	0.379165402752
	0.58415266722
	0.6002454197
	0.390743541837
	0.298993660099
	0.334356471251
	0.398480510066
	0.437724662722
	0.508223588254
	0.514868604849
	0.481921542387
	0.395294342148
	0.435907884523
	0.390958070806
	0.33722137846
	0.307519992454
	0.341850630099
	0.444082418012
	0.22267143449
	0.550115238092
	0.559576343919
	0.561937228575
	0.279975785497
	0.218058598533
	0.512534850171
	0.286593897576
	0.462525610058
	0.165840556212
	0.542393148299
	0.459648366902
	0.585326612038
	0.532182853203
	0.551144766497
	0.340660715676
	0.387011616944
	0.465420318404
	0.500320297773
	0.225620987564
	0.483782995175
	0.45991217436
	0.272999530342
	0.566369189312
	0.402446556924
	0.455409622923
	0.241287461828
	0.423803866028
	0.375350123311
	0.423549321521
	0.414790978042
	0.563551409255
	0.196895981381
	0.307627553125
	0.551296306766
	0.375600471873
	0.46754692811
	0.232759253851
	0.433159350968
	0.43657782084
	0.392997640019
	0.368123333596
	0.398652652943
	0.283196485697
	0.22902597071
	0.14097177997
	0.301297218147
	0.335183911059
	0.324968124252
	0.276088897499
	0.32256288126
	0.33681990508
	0.299366393699
	0.305628887614
	0.189092283623
	0.156969752869
	0.536753367995
	0.565711461074
	0.619787396164
	0.178291953296
	-0.0256050626736
	0.510851713228
	0.361912516949
	0.491053050276
	0.639769026523
	0.304769145775
	0.35710704035
	0.360782029768
	0.598984988458
	0.430382683159
	0.39476386857
	0.38101234672
	0.642480852901
	0.265559647609
	0.274343160512
	0.421341071031
	0.614079114939
	0.349293834618
	0.452627123526
	0.334752974864
	0.210391149354
	0.23626125017
	0.565673333447
	0.557155334932
	0.493770153783
	0.166431835093
	0.447114438201
	0.515210020192
	0.53595692685
	0.447762045498
	0.52374553436
	0.383718975608
	0.446831137803
	0.518159675406
	0.463965686692
	0.463965686692
	0.680893849608
	0.477188382327
	0.152975580081
	0.225787087479
	0.430568733873
	0.518459472591
	0.508049327495
	0.463944134221
	0.200335352742
	0.202976766542
	0.508771092081
	0.47801086147
	0.252316576182
	0.227022339793
	0.387126000475
	0.0847058757013
	0.378927602675
	0.378927602675
	0.360462253209
	0.418825369645
	0.316525084852
	0.447457056434
	0.332742655181
	0.643880692519
	0.423137254502
	0.444396833708
	0.381319356452
	0.388099998148
	0.547291937312
	0.402296552993
	0.312682517874
	0.313150754357
	0.656329312918
	0.451190953762
	0.354867491227
	0.30834330468
	0.331867698472
	0.53703875264
	0.280218699144
	0.346043460758
	0.138395165269
	0.342910319081
	0.333899267268
	0.2738111352
	0.537032780093
	0.480993754492
	0.451165783403
	0.531273709455
	0.470013230458
	0.277396928888
	0.309826311752
	0.510518385871
	0.403760368635
	0.530532629042
	0.343440986057
	0.452353756416
	0.258332725108
	0.344959580951
	0.522083572443
	0.245566737826
	0.506323741203
	0.241516327668
	0.412484735173
	0.343905692669
	0.227628049208
	0.279871244182
	0.415614743111
	0.373237096486
	0.461694538528
	0.513691557427
	0.113215258906
	0.587178821986
	0.450004831408
	0.202487912263
	0.541522836788
	0.460830285246
	0.268208396813
	0.43447816059
	0.381315277097
	0.604090988849
	0.385235841907
	0.558508188746
	0.639522970915
	0.160353757872
	0.448900555019
	0.390619450625
	0.398907934119
	0.440666742694
	0.334056917867
	0.500807622284
	0.31076335456
	0.295367789259
	0.471923136704
	0.463849110191
	0.479344733368
	0.602749503423
	0.469090006141
	0.50214337756
	0.369552218823
	0.189616334008
	0.588306934566
	0.486176227359
	0.659952791342
	0.378400704302
	0.378400704302
	0.463858439598
	0.503877963417
	0.552579435487
	0.510103924903
	0.537603127899
	0.488134105779
	0.337846942133
	0.389547147336
	0.503761487085
	0.526872508218
	0.409731469817
	0.40883575409
	0.455261462387
	0.435715392576
	0.364969987996
	0.482339315149
	0.246395434559
	0.242210718346
	0.308661121604
	0.254098191247
	0.427779013785
	0.351881018612
	0.563166400398
	0.497610803613
	0.500660845004
	0.592549936979
	0.431905418586
	0.544229408677
	0.308855236628
	0.591860951987
	0.189660562157
	0.134424205854
	0.476757086823
	0.425434859567
	0.128178192217
	0.372033319006
	0.423738072812
	0.389738968793
	0.122750521029
	0.384028744122
	0.378389661302
	0.423657475733
	0.600781690829
	0.318365456534
	0.397513027223
	0.527725444291
	0.519739972319
	0.578656752809
	0.257541967856
	0.540242341279
	0.427459293337
	0.457973406849
	0.271975831421
	0.178662239574
	0.481719812888
	0.481719812888
	0.163525261287
	0.372053486879
	0.361109500909
	0.347757257093
	0.439060866664
	0.411112154897
	0.464795302601
	0.597552556689
	0.584874931951
	0.401824465625
	0.256708607793
	0.296580948193
	0.425232897415
	0.412106075073
	0.246478667548
	0.308220268302
	0.309367479225
	0.512490399244
	0.536734727424
	0.340000462973
	0.529298038121
	0.0969875967896
	0.355442400647
	0.4843165038
	0.442136476456
	0.25817274859
	0.397812819729
	0.5773532962
	0.392029735881
	0.386469175805
	0.505177377279
	0.540058946405
	0.355934679321
	0.329007674091
	0.441314462484
	0.441314462484
	0.441314462484
	0.458003132389
	0.419779657031
	0.510862908716
	0.0966768213776
	0.432879121521
	0.358195235818
	0.301432231817
	0.465727823394
	0.527721596867
	0.323975137937
	0.309858550894
	0.22763700659
	0.307139925876
	0.533440591637
	0.483205759032
	0.238607144056
	0.37119256775
	0.322966834375
	0.556260541064
	0.591050477466
	0.39831552708
	0.23245733557
	0.502090297749
	0.595805849389
	0.53964752083
	0.289460415716
	0.386858283692
	0.592839367716
	0.378945132429
	0.317836296762
	0.500903413824
	0.413481874297
	0.457067594172
	0.457714676441
	0.324709736902
	0.221512842754
	0.433394829328
	0.548519631214
	0.484998942288
	0.151386875817
	0.249466493881
	0.191810709079
	0.47749252439
	0.216106544205
	0.400381984571
	0.400381984571
	0.474179316144
	0.436982491681
	0.293087575742
	0.121093369585
	0.332049807525
	0.228050256172
	0.525692094632
	0.361379483082
	0.454101220853
	0.334114811657
	0.367969472443
	0.506023602687
	0.29324262598
	0.237821573676
	0.409562937032
	0.390499790423
	0.40816945028
	0.35779476477
	0.35779476477
	0.609958049028
	0.485103899543
	0.535116141769
	0.448019062288
	0.372799968866
	0.563711111794
	0.418604707761
	0.325996135311
	0.285675364071
	0.526787638712
	0.338890076936
	0.413789107585
	0.331580296181
	0.374459771186
	0.568004997292
	0.446850926046
	0.479996072039
	0.303930439345
	0.361152200459
	0.306724196976
	0.173131513475
	0.361936841678
	0.622328534553
	0.509464499279
	0.386839275445
	0.453961158471
	0.589261066881
	0.472649931779
	0.536241411097
	0.342651790226
	0.631689819575
	0.375855566064
	0.371979169644
	0.464264776687
	0.579606207598
	0.379008958184
	0.341516526404
	0.570104106282
	0.540448988229
	0.344730155578
	0.491315489128
	0.416030557564
	0.112708868764
	0.297947013746
	0.41024860101
	0.385759931824
	0.0814576765842
	0.342293616732
	0.473130527134
	0.332940502464
	0.209124446004
	0.34978899743
	0.371834862601
	0.449154074144
	0.558310836913
	0.418404075277
	0.501181905325
	0.224408607041
	0.226044847012
	0.322774778368
	0.255135165193
	0.498239588798
	0.500425002214
	0.362908835055
	0.427260612097
	0.420584406803
	0.324154756957
	0.566468665349
	0.54204316553
	0.400196422568
	0.517911461403
	0.505084677418
	0.575776073393
	0.402932196802
	0.250516777514
	0.454011707176
	0.437443515101
	0.583626825398
	0.335106321
	0.315403498729
	0.402351138963
	0.47260069868
	0.421195860318
	0.258416802953
	0.502797825171
	0.189617405553
	0.357275753633
	0.587310003862
	0.339094102894
	0.530111683562
	0.53319337523
	0.529873890479
	0.241890496331
	0.515724177613
	0.493355565692
	0.388970349827
	0.251379187497
	0.474427919095
	0.49740864447
	0.582772327166
	0.435613129152
	0.343641640882
	0.358354192101
	0.298706840138
	0.39246932217
	0.0552935192299
	0.419034762077
	0.161497533354
	0.602790808652
	0.335267340576
	0.285368828071
	0.458396447984
	0.485180683135
	0.485180683135
	0.424891748382
	0.226512147768
	0.311188833294
	0.422527381192
	0.512030892965
	0.40234972036
	0.515757505396
	0.294355224671
	0.609367583516
	0.369526265173
	0.349949130023
	0.554905628532
	0.262660998627
	0.248995184075
	0.446400798285
	0.3497850606
	0.475066890249
	0.45956212984
	0.479120843419
	0.355382728461
	0.264400143082
	0.15119398218
	0.573030573556
	0.362740109894
	0.431137609854
	0.414369141024
	0.514820350861
	0.612055785643
	0.59961290876
	0.193531906203
	0.127052697839
	0.0416350747832
	0.337315161197
	0.0805325393455
	0.413492374667
	0.192173217606
	0.252095467359
	0.300493202446
	0.588650877606
	0.304554446214
	0.401500148903
	0.431340100478
	0.281605979804
	0.311247849607
	0.372746096509
	0.335601191615
	0.335601191615
	0.399636670476
	0.678550836782
	0.471277397889
	0.504988651954
	0.436145175244
	0.356472607705
	0.365186238835
	0.426148447456
	0.15824164891
	0.427316163283
	0.180413240227
	0.295901592678
	0.486918601126
	0.336674272617
	0.522536032721
	0.353880269515
	0.353880269515
	0.246111328026
	0.591597541857
	0.534207044293
	0.514299478555
	0.360800769672
	0.556731944319
	0.0387381173717
	0.468397459622
	0.48967124121
	0.502808881403
	0.21445472097
	0.186578710546
	0.597694819859
	0.251781518849
	0.437162382631
	0.539079013502
	0.408047792984
	0.648177033209
	0.321623654987
	0.398200416763
	0.365175412485
	0.369415615432
	0.369415615432
	0.492366224443
	0.46965856678
	0.56970503245
	0.573214767088
	0.442996807435
	0.386247701407
	0.316792936185
	0.531201695085
	0.468291432348
	0.501164485364
	0.52846123385
	0.297555047027
	0.302953225389
	0.316609140702
	0.539082755897
	0.361873780158
	0.361873780158
	0.314438480605
	0.423398443943
	0.365896866119
	0.515344278229
	0.464137118601
	0.143849092785
	0.531793650778
	0.523843465091
	0.406809784136
	0.408927061391
	0.325080616157
	0.547835715428
	0.547835715428
	0.556684443383
	0.397365905851
	0.2900354901
	0.415703693646
	0.155513028031
	0.288389990201
	0.200972583008
	0.378216412593
	0.280723321858
	0.585547117075
	0.369653341538
	0.549069355673
	0.422143737672
	0.435270301343
	0.511256869807
	0.439692602028
	0.274930322213
	0.153758948182
	0.188087741859
	0.451762434667
	0.306598493454
	0.49152601414
	0.315239376762
	0.50325913241
	0.400517855719
	0.290350234057
	0.525276759596
	0.382876535605
	0.389471408153
	0.00133591246512
	0.407323369982
	0.272695047469
	0.471177285264
	0.342984820762
	0.392360827877
	0.368013446856
	0.475001836505
	0.475863176892
	0.404502103937
	0.4081523271
	0.378490230028
	0.57458652125
	0.397581382801
	0.356704978117
	0.501996822784
	0.454679735056
	0.114604214308
	0.557758068209
	0.444574352686
	0.455459410983
	0.527950452023
	0.504157988865
	0.370505708136
	0.616403894349
	0.47209293194
	0.49768481626
	0.417004701535
	0.269420306938
	0.490774472542
	0.521539645517
	0.444440883767
	0.705289239591
	0.432862495256
	0.483886594344
	0.524022391573
	0.367508789254
	0.548095714188
	0.432791135104
	0.465792048039
	0.413005318599
	0.230013756107
	0.325639359
	0.520828511301
	0.309856367576
	0.350377067012
	0.580160677974
	0.381286165343
	0.46981523108
	0.511313454594
	0.582545080706
	0.570382167038
	0.134305075968
	0.44827779513
	0.283996165314
	0.46951798945
	0.101153541006
	0.506131840549
	0.404012591463
	0.279113762278
	0.73385149809
	0.52624914751
	0.349140092267
	0.372319430912
	0.311669300791
	0.518829815814
	0.14558668567
	0.446431208671
	0.458540906771
	0.487270444542
	0.352440744405
	0.493764042057
	0.227940142179
	0.326330835899
	0.462140086619
	0.431100737953
	0.431100737953
	0.431100737953
	0.52516436907
	0.515171243304
	0.304685584601
	0.579998958083
	0.402964041142
	0.378283052556
	0.2245574378
	0.566164576214
	0.53920782132
	0.402788500332
	0.707172708181
	0.417929491997
	0.118547440786
	0.474674670304
	0.423990463438
	0.459584917659
	0.44005711073
	0.438777420067
	0.296952841913
	0.292076981675
	0.376457602962
	0.527060007456
	0.368193494225
	0.388167239691
	0.577084930364
	0.66701160104
	0.302314524217
	0.33961467342
	0.533811585938
	0.350075143239
	0.361377886848
	0.281951582505
	0.365665716452
	0.523972060323
	0.185941364856
	0.697953985911
	0.386688587568
	0.539445954334
	0.419103581561
	0.506903693583
	0.595187612726
	0.351936856246
	0.35623203005
	0.457000487514
	0.157426398725
	0.385026265609
	0.32811261644
	0.530119844253
	0.418496508962
	0.491888124326
	0.469892279461
	0.594433718654
	0.57269729314
	0.386913540532
	0.332766048248
	0.16913056249
	0.365428221081
	0.451307573154
	0.470605959075
	0.312662401214
	0.525352269032
	0.495704565878
	0.475296901008
	0.25823325271
	0.503894417983
	0.424092117945
	0.482006075351
	0.539072736446
	0.189442891472
	0.367737860218
	0.406501532064
	0.675181427088
	0.598556919687
	0.465758835428
	0.644503479036
	0.30935094227
	0.442860153083
	0.481343890394
	0.426939773876
	0.30546937872
	0.190523204663
	0.377163431528
	0.43289966497
	0.470144372974
	0.443033907114
	0.46812267119
	0.373833573985
	0.269459846698
	0.434063118778
	0.279039707298
	0.245684306786
	0.474353221852
	0.601349845357
	0.372815378123
	0.369096215436
	0.55689380487
	0.449084377458
	0.461441068364
	0.336105582859
	0.200686622422
	0.383021964256
	0.478143032997
	0.459312098487
	0.453919180695
	0.453919180695
	0.391756340586
	0.169461650714
	0.483298753607
	0.483298753607
	0.382269604616
	0.310268092406
	0.443208361283
	0.410713320723
	0.537296561023
	0.537296561023
	0.274094078624
	0.356531162271
	0.305121276247
	0.278949697715
	0.48564422476
	0.644335643491
	0.463864907327
	0.452852083428
	0.31208482144
	0.36720059745
	0.483598442805
	0.299718563705
	0.308446196911
	0.373650604044
	0.49464155679
	0.389834882055
	0.389834882055
	0.540741084194
	0.548946538814
	0.312934405783
	0.578770935008
	0.387145170062
	0.320998279765
	0.455024914187
	0.103106300602
	0.368357785206
	0.391507066524
	0.29058156924
	0.319433678319
	0.281905622855
	0.616157354745
	0.624640022751
	0.399304688221
	0.399304688221
	0.306300413917
	0.367696863831
	0.319493050377
	0.254636373389
	0.35146188492
	0.489858371066
	0.410781560516
	0.536460008116
	0.419681995598
	0.334846974418
	0.473276066906
	0.396636852596
	0.390241770222
	0.390241770222
	0.418324961922
	0.609588066803
	0.388731213109
	0.69200499557
	0.48477271839
	0.421479441507
	0.260978519795
	0.421566987821
	0.336359290625
	0.342588297796
	0.444106924962
	0.444106924962
	0.552133564746
	0.545907740875
	0.407650215218
	0.46930498986
	0.582224609926
	0.226232569663
	0.4425924159
	0.376693434691
	0.274174917271
	0.265688762776
	0.506143894149
	0.264289125095
	0.43918535715
	0.347261062506
	0.398878787872
	0.543409265177
	0.391793575828
	0.465500294157
	0.376479197156
	0.491603209944
	0.400326970976
	0.400326970976
	0.124471058438
	0.295219143905
	0.458337842133
	0.558273439545
	0.347873376264
	0.447910762304
	0.323084505797
	0.41646241356
	0.447861357415
	0.447861357415
	0.445294877017
	0.402839376499
	0.494949440937
	0.387795814136
	0.530930014078
	0.443148809806
	0.475921142113
	0.46018888736
	0.46018888736
	0.604148681243
	0.340428390619
	0.261556087678
	0.653952868139
	0.653952868139
	0.156773422755
	0.365319384777
	0.392847697148
	0.489315490321
	0.500302009425
	0.637426374411
	0.526752575259
	0.322642666666
	0.485197339137
	0.253413902075
	0.533070429344
	0.306638322283
	0.499126402001
	0.560833364175
	0.366470948124
	0.197022558001
	0.527339453315
	0.37447468704
	0.326342323157
	0.242655544545
	0.441777330354
	0.441777330354
	0.418525732438
	0.496477672114
	0.260456410304
	0.435729190713
	0.254766977832
	0.423724751941
	0.449873336981
	0.333613948855
	0.416345681333
	0.516213908946
	0.38593852642
	0.319156208373
	0.53451971896
	0.388429199344
	0.483530605914
	0.484690111408
	0.3203580273
	0.379379748629
	0.574704934841
	0.671970121387
	0.281853387499
	0.224549892683
	0.128975829606
	0.421717987979
	0.327438902359
	0.580135550997
	0.580135550997
	0.383352431738
	0.215239547908
	0.448212844383
	0.52616422673
	0.523646427419
	0.413147105897
	0.173872857033
	0.378781509431
	0.140307177246
	0.24639852113
	0.426993514557
	0.381391339312
	0.589375455934
	0.420308055181
	0.420308055181
	0.303241356015
	0.529856380656
	0.430747840886
	0.483883846301
	0.485817765456
	0.410861170141
	0.410861170141
	0.43317801081
	0.220845335122
	0.406924348122
	0.472145940115
	0.51585403273
	0.325161501682
	0.321480474809
	0.273477070537
	0.309638761797
	0.266013683355
	0.338981181705
	0.437328769639
	0.483837893269
	0.498244674511
	0.527721679179
	0.246791580372
	0.551285255653
	0.259137439193
	0.448225797622
	0.480010782822
	0.382485554953
	0.321192245608
	0.395024030567
	0.424914282304
	0.117762687672
	0.549037228958
	0.417661324749
	0.52268857937
	0.52268857937
	0.602663079528
	0.34844301841
	0.413506466231
	0.538496932667
	0.555590510828
	0.469161041459
	0.352134224327
	0.257336086043
	-0.00297099691697
	0.371411614819
	0.286034910665
	0.551069191644
	0.261017259614
	0.423550445546
	0.543849220428
	0.0537651955353
	0.357996634433
	0.229277313742
	0.294824812782
	0.269794350914
	0.247432199579
	0.286550832201
	0.618617237208
	0.523750976645
	0.410710314696
	0.426256474723
	0.41685303279
	0.222241014274
	0.332528093104
	0.233646817496
	0.247422436649
	0.249177121858
	0.486821511212
	0.426992159664
	0.447901634751
	0.525603319261
	0.329235547178
	0.583155193673
	0.306494667259
	0.425585904932
	0.575664391562
	-0.0815876601758
	0.198073920272
	0.17367052295
	0.541684073471
	0.264642087125
	0.297170931198
	0.342417718509
	0.407467679013
	0.428602390433
	0.575832909357
	0.549824656211
	0.319733232519
	0.555454561865
	0.482727699779
	0.212669180823
	0.4371755753
	0.310229475846
	0.364843445716
	0.419045613651
	0.568680734263
	0.453047134155
	0.401045609995
	0.463960741352
	0.501059652554
	0.550640235734
	0.365316912637
	0.490018754396
	0.18865144826
	0.457911041341
	0.404117292863
	0.368937970883
	0.43040539608
	0.358451641953
	0.573986466211
	0.493407649958
	0.435336292082
	0.348061044265
	0.327968893415
	0.480569168769
	0.341049016542
	0.587751157309
	0.525136168885
	0.420111495642
	0.397243789961
	0.33144247594
	0.499626675197
	0.195230742402
	0.483170380758
	0.416976109935
	0.177166128949
	0.485702849826
	0.603527947916
	0.494155065508
	0.41613282926
	0.425433532475
	0.484236208135
	0.419211052972
	0.230436856021
	0.304427900033
	0.543249629335
	0.449388415976
	0.384808180127
	0.408141268441
	0.266296944562
	0.428159618507
	0.52832413402
	0.389911598981
	0.559302673258
	0.495291407001
	0.371787712079
	0.368779404103
	0.654292386562
	0.518953400201
	0.532689501751
	0.402643639197
	0.368409544438
	0.470282052129
	0.467001534646
	0.264063254011
	0.578493773807
	0.164732696083
	0.481749242475
	0.229055932134
	0.231624385582
	0.347176845801
	0.483363668087
	0.263948119816
	0.482495057969
	0.469464827221
	0.258773923807
	0.318243694055
	0.459194615944
	0.680527892587
	0.528851158002
	0.460380522783
	0.183881304906
	0.282993352187
	0.334209891457
	0.235075230147
	0.558735452904
	0.558735452904
	0.265160621053
	0.449922209993
	0.102747755271
	0.357017639542
	0.467118519369
	0.381976850156
	0.402050732195
	0.496189324498
	0.50063391384
	0.311940802195
	0.0121939858619
	0.356138377157
	0.430130901898
	0.510227466146
	0.256094920833
	0.29232214968
	0.458987535004
	0.504831518556
	0.620998139405
	0.562144395644
	0.372074093442
	0.39852849265
	0.392005755714
	0.455845738655
	0.445434916215
	0.400229124617
	0.475200809487
	0.515868349898
	0.329256937836
	0.438870033505
	0.615298483653
	0.530381593526
	0.530381593526
	0.500336111566
	0.435106567631
	0.435439338783
	0.451421414842
	0.280232718132
	0.255171793122
	0.610608289482
	0.197153062902
	0.404251393508
	0.326265619187
	0.39947740344
	0.567783855218
	0.318404547329
	0.369084051279
	0.169663141339
	0.524450397146
	0.399478308147
	0.405143114428
	0.345056399317
	0.574460199578
	0.528670168986
	0.199444184912
	0.409714779684
	0.514853409375
	0.524774992545
	0.341881044689
	0.566860050781
	0.480381780498
	0.507431038155
	0.297894452699
	0.418381841962
	0.691876412312
	0.605089216671
	0.545686290576
	0.399307696019
	0.347877005739
	0.61280842289
	0.396833248064
	0.625784286179
	0.531294557015
	0.401518644846
	0.411655439418
	0.474334023489
	0.509050730349
	0.573445069069
	0.573445069069
	0.400444022182
	0.388546759331
	0.461511737609
	0.17913464626
	0.412644877358
	0.297146007833
	0.379108281902
	0.43464115478
	0.336726025326
	0.59721770567
	0.62648291377
	0.561163885162
	0.483940641939
	0.0335704471783
	0.302304464289
	0.174378602665
	0.271602499258
	0.458527400967
	0.404047812927
	0.242986315735
	0.4800411816
	0.583241905216
	0.388532797643
	0.608445071861
	0.621900811865
	0.700229700117
	0.759523023616
	0.44853110525
	0.274241880658
	0.34818983791
	0.374805155034
	0.364489407203
	0.317214071609
	0.443955116776
	0.506498361489
	0.419183234334
	0.547494511014
	0.271967455648
	0.304603132073
	0.440658106276
	0.222157841234
	0.548709552846
	0.609303985639
	0.330893387873
	0.321629405349
	0.533457693292
	0.556223379147
	0.375306433136
	0.496428509205
	0.32425917331
	0.287626546089
	0.33994275736
	0.67176079458
	0.26169118645
	0.400104802162
	0.479855732096
	0.527809273516
	0.707234148431
	0.397393676144
	0.44313056514
	0.321884791384
	0.185716285847
	0.447523280345
	0.369469675008
	0.477235853678
	0.179258128328
	0.268662215409
	0.533899333929
	0.414881988939
	0.335305231676
	0.307540345419
	0.307540345419
	0.429173553676
	0.346770022534
	0.3056538533
	0.488606075325
	0.333362628119
	0.628952003776
	0.479132139293
	0.442860004797
	0.288169218161
	0.557826158241
	0.329381555086
	0.48834801792
	0.343617839547
	0.4532499864
	0.455860639539
	0.357496374365
	0.488078155873
	0.512651380642
	0.309427984089
	0.472568558213
	0.433452631655
	0.355818666026
	0.438792059997
	0.601141959035
	0.196372188319
	0.626914385152
	0.250437671893
	0.442938212948
	0.497643266193
	0.408480607549
	0.402272807405
	0.442361407724
	0.466775876597
	0.605153994247
	0.605910905155
	0.414288191619
	0.458556528205
	0.38627073892
	0.37942047752
	0.15430983596
	0.332186918976
	0.398932605002
	0.138439609024
	0.237035835197
	0.487341739712
	0.485037918829
	0.277167670608
	0.166167049222
	0.583431687812
	0.546564227716
	0.536153463994
	0.503579589988
	0.286758920189
	0.0949650901751
	0.221600006409
	0.241196761464
	0.281525920001
	0.630801625812
	0.630801625812
	0.419327604289
	0.496439500919
	0.311300084267
	0.53536927123
	0.485250006376
	0.487939901481
	0.0538208059334
	0.681293002833
	0.51397630969
	0.507004928327
	0.206225692129
	0.460410872049
	0.427310601473
	0.389395505185
	0.322540325121
	0.439899204193
	0.598911681598
	0.387411572657
	0.409835450121
	0.319297939441
	0.386333869862
	0.558323349021
	0.32739527521
	0.226041395367
	0.332364336449
	0.570595083118
	0.539839767432
	0.149406270249
	0.455770451868
	0.417177098714
	0.537005660014
	0.046343034336
	0.323663773227
	0.528789447482
	0.243244621034
	0.477238412488
	0.161368936425
	0.506567445853
	0.325464943078
	0.500475825425
	0.340857516848
	0.283916873055
	0.305265493186
	0.640000125047
	0.135481388782
	0.385621973761
	0.302993306685
	0.461522521035
	0.406832205247
	0.469122174754
	0.487522603867
	0.232745852592
	0.44027114098
	0.467522390149
	0.379727489811
	0.333914170797
	0.317227232118
	0.46999349792
	0.412523599604
	0.392687199131
	0.553112444566
	0.350409931216
	0.356432373879
	0.470512133611
	0.500776841398
	0.492034359536
	0.492034359536
	0.482729936465
	0.427501459128
	0.502504270249
	0.365754556756
	0.195186075277
	0.380304995215
	0.115112709642
	0.439647313621
	0.384810521056
	0.427578072815
	0.518575111173
	0.293799401318
	0.49473245719
	0.425695609055
	0.433365301757
	0.462088879981
	0.275353468708
	0.167875946929
	0.548595437862
	0.255880191619
	0.509172040211
	0.539582648818
	0.474783941259
	0.228321685297
	0.186286153787
	0.367814509247
	0.520713859927
	0.321399166734
	0.395953911384
	0.42610932229
	0.42610932229
	0.570865446126
	0.601829688248
	0.39293626563
	0.452251363296
	0.228753005399
	0.159377726494
	0.412807522526
	0.397575887684
	0.458391953655
	0.220811443907
	0.356159575213
	0.489763486813
	0.49349126734
	0.408979167207
	0.215176098058
	0.06688564667
	0.492653946908
	0.410325989592
	0.428064639956
	0.440157803759
	0.588554791954
	0.588554791954
	0.22212398765
	0.460992186701
	0.337128189961
	0.412271981718
	0.315643350026
	0.297199936107
	0.277807501427
	0.298859038916
	0.509250803325
	0.428309922957
	0.505453202652
	0.438356641176
	0.284333041634
	0.22427979598
	0.520411354306
	0.329506834413
	0.408156906624
	0.434811562524
	0.508961460431
	0.405161830452
	0.481572061342
	0.254490874783
	0.259475062565
	0.482381081392
	0.424930385051
	0.362512605704
	0.483859268378
	0.381769505774
	0.528177637813
	0.242833819725
	0.442632572234
	0.417124725909
	0.53714632594
	0.358867351584
	0.45671906639
	0.513735231291
	0.385315129065
	0.178195131738
	0.302917745732
	0.328617096541
	0.426263500548
	0.340596873191
	0.538657591929
	0.352940208141
	0.300743826946
	0.376808381279
	0.199093915987
	0.188961230652
	0.629466810676
	0.471112057907
	0.413223098744
	0.364385804365
	0.597745922422
	0.520887798357
	0.440843761344
	0.223222729105
	0.56064559462
	0.394460178254
	0.575631706096
	0.360487884669
	0.525752213974
	0.485818338778
	0.256016176738
	0.267994229792
	0.287285034692
	0.215601569383
	0.392268761708
	0.409354127255
	0.493243464725
	0.275519612181
	0.162442597331
	0.464431796726
	0.497945222238
	0.0568152529176
	0.443711194537
	0.420108251434
	0.373243711045
	0.502234691267
	0.663690373433
	0.288926327924
	0.550907612994
	0.497751124229
	0.44721983025
	0.16909632664
	0.299154429212
	0.423577899182
	0.329916796197
	0.314421193777
	0.0438255344209
	0.534554276865
	0.446135802569
	0.343755792976
	0.552800640462
	0.324258259398
	0.222612541671
	0.615615553964
	0.255941098569
	0.423915074707
	0.427738585094
	0.399608173484
	0.26649108026
	0.233583005321
	0.581168391884
	0.213030947636
	0.502621050009
	0.180173788456
	0.236635568958
	0.390797116633
	0.299256952517
	0.438622793925
	0.415145579169
	0.28544488574
	0.47442652917
	0.330246248794
	0.163568983769
	0.445363411104
	0.404500875839
	0.429921541163
	0.470485468136
	0.674306130394
	0.260208606458
	0.626810527733
	0.316272680519
	0.43435936721
	0.242749430576
	0.323789264859
	0.435122664592
	0.347627382982
	0.523361381591
	0.565207432904
	0.0209503597937
	0.333090848312
	0.517321001347
	0.0783542856365
	0.328521004779
	0.459436954557
	0.43285097834
	0.306184596965
	0.45992672743
	0.591228401881
	0.411457223817
	0.426844869872
	0.334398913799
	0.472262060665
	0.495919990714
	0.40512977679
	0.375986773262
	0.204569963381
	0.585113982401
	0.585113982401
	0.53783006804
	0.563960730991
	0.418296154193
	0.339931833497
	0.409540431914
	0.502173184476
	0.382293619482
	0.328533059447
	0.652778425655
	0.427775189508
	0.474744904109
	0.304263411659
	0.51753709826
	0.40703772092
	0.574795117799
	0.373262672465
	0.529835753245
	0.367412053729
	0.144100512765
	0.445853361531
	0.460708779412
	0.472972691966
	0.551167210908
	0.373771260872
	0.502206669051
	0.45702091097
	0.228478997459
	0.298378374938
	0.541710013659
	0.0832246062199
	0.636862030816
	0.509661899377
	0.55991664794
	0.541895883151
	0.408705657773
	0.151753506126
	0.35481385831
	0.183865866986
	0.226100026611
	0.545066124377
	0.26938738417
	0.490416668267
	0.543693232388
	0.345061650044
	0.330352017895
	0.423582258626
	0.339685963133
	0.462518893836
	0.60281425237
	0.394384974387
	0.394384974387
	0.391079509143
	0.673745190705
	0.454401280206
	0.174621968849
	0.417419985157
	0.193136970568
	0.433692225859
	0.43025959897
	0.37043794147
	0.534880304253
	0.549767076595
	0.441669073912
	0.350957954953
	0.570322708615
	0.633404168786
	0.508287013221
	0.434078375564
	0.264283467182
	0.452213847294
	0.326696405564
	0.547672008107
	0.456078392857
	0.430206777829
	0.369708177506
	0.369708177506
	0.43807060728
	0.26074512112
	0.398603786491
	0.269998138824
	0.300126938267
	0.433906272525
	0.429556983478
	0.394716368852
	0.201685167677
	0.336246542143
	0.539935347955
	0.454796198619
	0.54905655566
	0.584720777558
	0.401208051552
	0.307568755699
	0.511414434369
	0.258218609262
	0.662618790089
	0.375099671026
	0.327745696842
	0.221140811754
	0.475531465893
	0.444903267563
	0.263340248657
	0.344382028081
	0.50742053943
	0.470495062413
	0.318070565921
	0.420041108197
	0.521615845199
	0.384979713854
	0.300081870622
	0.498711319756
	0.484445386341
	0.587005684038
	0.170564491318
	0.487298153167
	0.370796850902
	0.281842772918
	0.440098504736
	0.455334189326
	0.363914033894
	0.332455885544
	0.298326045131
	0.483204639147
	0.405656384966
	0.279296260316
	0.346681441683
	0.248972389951
	0.248972389951
	0.382980202449
	0.378732920415
	0.627100785762
	0.335334231835
	0.578592752428
	0.318133165463
	0.562494551182
	0.316940270195
	0.331567945193
	0.571243699498
	0.449694730043
	0.417794573795
	0.421805333046
	0.424505824052
	0.662969548578
	0.444043432221
	0.508032876307
	0.528078635545
	0.354052260955
	0.361107613426
	0.287760505445
	0.289964821061
	0.226324290503
	0.501592312345
	0.234707047369
	0.398419055151
	0.46915759566
	0.501575672417
	0.501575672417
	0.555826760932
	0.511179708291
	0.162354994529
	0.473681077346
	0.243794299412
	0.617595229595
	0.443111871092
	0.574953094443
	0.426688827621
	0.427550968345
	-0.122459851246
	0.502395379726
	0.327462689353
	0.32445685258
	0.210670980157
	0.210670980157
	0.539665698609
	0.49196193804
	0.28133080667
	0.394398083426
	0.491059681486
	0.638485826336
	0.410152632722
	0.410152632722
	0.427669649893
	0.427669649893
	0.359041603513
	0.376021889079
	0.436266012922
	0.28315540673
	0.323349654798
	0.444866688265
	0.394786268259
	0.501224558309
	0.380712030554
	0.154316191673
	0.415880594972
	0.440935003365
	0.490957224145
	0.258718714917
	0.520499003674
	0.290662281583
	0.204493978286
	0.547774147301
	0.340381366036
	0.352546851395
	0.522981660568
	0.552485403885
	0.413235379804
	0.414595714141
	0.564842878235
	0.425647771741
	0.442132247845
	0.485919748249
	0.577987784874
	0.583558633028
	0.514007707404
	0.216988045947
	0.348363073358
	0.215107897174
	0.166939730623
	0.430235426469
	0.179061139442
	0.393152093978
	0.409439487171
	0.510675497544
	0.510675497544
	0.358044768984
	0.382171305166
	0.33761394885
	0.528085728896
	0.618236294541
	0.374646166936
	0.0996607059384
	0.268625770174
	0.219431604429
	0.3100543216
	0.313112857419
	0.434408079157
	0.0302132049308
	0.370683359034
	0.375973539642
	0.265859014205
	0.526134155582
	0.33459038545
	0.394175621522
	0.272591062001
	0.43498775265
	0.694716598123
	0.621799227868
	0.299440262091
	-0.0925244198201
	0.479950981843
	0.186909404956
	0.682946220655
	0.293504358717
	0.223272782205
	0.231470287472
	0.467706210714
	0.308727140075
	0.474977717021
	0.456314139545
	0.445176005963
	0.320981312938
	0.623358546485
	0.320331134366
	0.301353298379
	0.443083099909
	0.490659847824
	0.296675764456
	0.394886117299
	0.39492407493
	0.454322746758
	0.457851449224
	0.422892485567
	0.232252773687
	0.538299704064
	0.538299704064
	0.157404276716
	0.587049682667
	0.440252346318
	0.514358356476
	0.631606564789
	0.438680189433
	0.339758408433
	0.278743539504
	0.364992698926
	0.128119128985
	0.483990764302
	0.360473733444
	0.377091807088
	0.324789927283
	0.331503251059
	0.331503251059
	0.599694600282
	0.537067023668
	0.320094788756
	0.48912647609
	0.493746161454
	0.343514265365
	0.360530601539
	0.576266863633
	0.502222694635
	0.48662416451
	0.554098854765
	0.554098854765
	0.433089338635
	0.198773470203
	0.253837710863
	0.0554648442859
	0.472504012616
	0.431540569286
	0.23224489276
	0.453767479602
	0.430905669513
	0.561133329301
	0.493340728431
	0.474749336986
	0.519453941646
	0.418301663189
	0.44427196281
	0.432984820203
	0.3350229945
	0.241925551676
	0.418330597837
	0.605804624274
	0.445671506419
	0.556024505098
	0.412287673416
	0.476418673872
	0.533159708068
	0.285879773832
	0.36959463596
	0.604258054486
	0.530585196128
	0.509387091847
	0.347917531647
	0.32620201367
	0.31617434755
	-0.132867403235
	0.149570682811
	0.375364731689
	0.575641259896
	0.522382422556
	0.623379055204
	0.455364314617
	0.583187868505
	0.473124566114
	0.387066978911
	0.210614780654
	0.377574584987
	0.505743560448
	0.382147234243
	0.331447048451
	0.33300864517
	0.200571221429
	0.517113467127
	0.39890692538
	0.253306224165
	0.41182229937
	0.324939128361
	0.285415174642
	0.44897809256
	0.547138121227
	0.0994049580125
	0.434062727957
	0.649607600851
	0.413441081105
	0.411560169583
	0.51721368662
	0.352384253179
	0.338759764306
	0.385302261865
	0.578964990719
	0.252320856149
	0.469284716781
	0.241418934565
	0.481207313482
	0.397869578838
	0.572659079806
	0.42606975455
	0.624996597239
	0.487460525756
	0.611814745628
	0.498393357545
	0.160309881783
	0.19804578222
	0.340439918358
	0.55599200119
	0.639879533619
	0.507112342887
	0.368013826409
	0.372538233333
	0.428782074051
	0.416718876937
	0.233897040133
	0.458394765124
	0.451487751209
	0.19906746218
	0.409773804914
	0.430867460202
	0.451178000875
	0.255301822002
	0.383198353149
	0.333588666149
	0.547725157212
	0.370882801859
	0.189719440716
	0.214620222908
	0.323437896874
	0.591002758088
	0.320263161073
	0.347493488164
	0.369277365835
	0.285258499245
	0.410587162434
	0.504325333385
	0.404936924297
	0.34943897752
	0.593667238501
	0.433472427689
	0.324642561057
	0.31276451874
	0.413969970591
	0.142940463243
	0.32250784539
	0.515941480821
	0.412375836517
	0.386754675254
	0.541772588275
	0.608829988967
	0.31318735176
	0.455120997386
	0.488021132219
	0.488021132219
	0.366665464309
	0.290633467717
	0.328647678533
	0.446075144929
	0.610507874013
	0.504636623708
	0.292733588656
	0.427563494367
	0.173814908642
	0.440912133959
	0.37918973511
	0.346094690296
	0.362760481097
	0.606449000269
	0.326281699027
	0.0464350692361
	0.561590595049
	0.411615752175
	0.416872317334
	0.416872317334
	0.484399737826
	0.328243032029
	0.564980064475
	0.196621938454
	0.421039272909
	0.517981919588
	0.596659024061
	0.596659024061
	0.388939408374
	0.390970944086
	0.36763470323
	0.595211637381
	0.456044949334
	0.502332843385
	0.326422215552
	0.199646725567
	0.329448328752
	0.356576534532
	0.465814427835
	0.501562451877
	0.340438857765
	0.486773502665
	0.352818840506
	0.301553098445
	0.311679765978
	0.470387774542
	0.447355611255
	0.513098553379
	0.520319368186
	0.272571137752
	0.441099057797
	0.289481286158
	0.268666241733
	0.331142937019
	0.375151841717
	0.357157126811
	0.454541595385
	0.219042428334
	0.622891954796
	0.497828546876
	0.455994800728
	0.572857761564
	0.425125727348
	0.538990322942
	0.538990322942
	0.636270999622
	0.573650310508
	0.149422853287
	0.506376836432
	0.12611513814
	0.316100485741
	0.56410094417
	0.428571712314
	0.46716033219
	0.595886400341
	0.492942795371
	0.483783010401
	0.497333229607
	0.497333229607
	0.65527359207
	0.430716433424
	0.478165362237
	0.53849254018
	0.407604291708
	0.70642215556
	0.373383508343
	0.302850149506
	0.441845299236
	0.203541778851
	0.186266991386
	0.556008316155
	0.556008316155
	0.516335889637
	0.358941658149
	0.358941658149
	0.343937590944
	0.325054807374
	0.303723497154
	0.143213588802
	0.493141340872
	0.513866496462
	0.564455303763
	0.703798587628
	0.671312357084
	0.209069850077
	0.381296454164
	0.562870633985
	0.21420288267
	0.066665390974
	0.437887893446
	0.500998383091
	0.227470932049
	0.0279403501334
	0.271420948994
	0.40368253458
	0.405914722844
	0.427088546079
	0.377362049369
	0.480948391908
	0.332872131131
	0.221735830917
	0.480011134555
	0.539581575832
	0.586387054048
	0.657765841258
	0.480243915154
	0.467855037494
	0.44608467128
	0.384922042252
	0.427773520224
	0.588354763607
	0.41674852282
	0.41674852282
	0.478092588363
	0.120096536418
	0.435185424576
	0.5856661451
	0.492011762518
	0.457282348863
	0.436063127764
	0.460760496765
	0.467538137872
	0.116151762091
	0.267971846523
	0.362532808494
	0.369217549198
	0.571645356597
	0.389281265216
	0.301248721357
	0.199990310345
	0.576790723506
	0.386850991954
	0.119826466737
	0.623643237995
	0.190274192873
	0.307376622582
	0.296356046087
	0.480751200798
	0.411475388178
	0.291384654197
	0.278574225198
	0.560465302337
	0.46405281263
	0.46405281263
	0.646345491016
	0.453265982214
	0.41110237676
	0.369952083707
	0.374283540258
	0.355844181822
	0.380457977171
	0.476813228741
	0.203332307644
	0.362874854743
	0.459630341092
	0.485854667867
	0.425401221543
	0.293443269512
	0.46410267081
	0.452365184585
	0.458116394823
	0.35154457667
	0.259539727753
	0.246815330758
	0.456400615872
	0.385015778568
	0.541250801929
	0.532482387022
	0.532097760674
	0.559547001487
	0.416467469857
	0.418343665593
	0.334304589662
	0.219203803946
	0.42866176589
	0.58703661576
	0.343709681759
	0.535017041525
	0.320221582282
	0.447648457147
	0.664674430023
	0.250053984137
	0.342573843231
	0.27414121096
	0.562153903445
	0.232034188071
	0.324280424724
	0.521860148633
	0.254839771133
	0.389428592439
	0.237413591669
	0.325528600276
	0.476868380268
	0.456591528116
	0.462122336719
	0.349412060134
	0.51717579347
	0.297187518544
	0.296363184602
	0.376368670576
	0.376368670576
	0.471523786549
	0.471523786549
	0.386498214109
	0.3153493295
	0.472960550596
	0.460975448622
	0.250703478004
	0.676043765631
	0.060219965664
	0.136458893705
	0.453477860632
	0.222991137734
	-0.0384537819065
	0.378715247146
	0.41963952538
	0.14943548771
	0.651312838889
	0.480608141446
	0.613806724369
	0.190427863613
	0.402465216042
	0.319871219743
	0.375727756
	0.290693787056
	0.497823180095
	0.441240231838
	0.453306580935
	0.463263491204
	0.349133539485
	0.289895230137
	0.489604371594
	0.321161533322
	0.284999864385
	0.359810504199
	0.205117259593
	0.507161755656
	0.417312081341
	0.27970705569
	0.415269264593
	0.368344062001
	0.627024585144
	0.566845683786
	0.457669281008
	0.202686973047
	0.415579951981
	-0.0616462185755
	0.437457609732
	0.419256449312
	0.292806117356
	0.446645084204
	0.604746513594
	0.338481209364
	0.339808153964
	0.443632419336
	0.452715216868
	0.619199863843
	0.372660423379
	0.423691891603
	0.426704328967
	0.421032925592
	0.421032925592
	0.423060727387
	0.486919673643
	0.332588256317
	0.446867967553
	0.265717916208
	0.467930127237
	0.0784771866154
	0.0510220363271
	0.519780502371
	0.47785709032
	0.211569251311
	0.392398159943
	0.423269154923
	0.295195962843
	0.451333494398
	0.214130715934
	0.425694081381
	0.383660273526
	0.468607462309
	0.394219923322
	0.534398069272
	0.557905597092
	0.469903306526
	0.469903306526
	0.404055853204
	0.429854319525
	0.485293577147
	0.235486142609
	0.491774077948
	0.361936158794
	0.351509339128
	0.284598494718
	0.42740690509
	0.402890296081
	0.225427800651
	0.214820611659
	0.128959539369
	0.188964206525
	0.483279727958
	0.333605691791
	0.328123696848
	0.202785512189
	0.370453075981
	0.417601013319
	0.269213808779
	0.175981436732
	0.0741024910065
	0.267423863139
	0.198323247207
	0.473801253014
	0.429189837211
	0.350399479774
	0.476101351735
	0.4715374802
	0.49070192106
	0.627530451106
	0.620603881179
	0.427017335096
	0.448578967674
	0.448699757779
	0.485869415917
	0.485869415917
	0.452568611177
	0.276374433773
	0.306697085597
	0.555313924273
	0.399500211091
	0.255762323906
	0.409904178505
	0.441158434974
	0.277138421719
	0.330716643104
	0.106055905933
	0.364823078295
	0.482292870802
	0.432920614344
	0.48773867199
	0.469600116747
	0.469600116747
	0.389028868414
	0.385507431754
	0.514859664475
	0.380777630085
	0.14894267522
	0.556417782365
	0.537459085745
	0.291385489934
	0.417507609551
	0.58808393783
	0.459091339154
	0.320976445062
	0.515701090196
	0.545351412515
	0.223932760721
	0.523974664113
	0.427812025393
	0.427812025393
	0.427812025393
	0.411202863775
	0.301142867253
	0.337053815008
	0.205376481964
	0.262075118254
	0.452020417221
	0.516496485274
	0.526313135815
	0.318271318885
	0.318345437196
	0.588059757327
	0.487299765729
	0.44280940594
	0.415041307535
	0.575095012353
	0.299137284292
	0.456101008333
	0.35399030006
	0.31127621612
	0.498437650429
	0.395801177762
	0.206735671533
	0.507402156667
	0.446724505868
	0.451870637275
	0.256362894497
	0.0925541464396
	0.337560409272
	0.347488214554
	0.646045371448
	0.189680016061
	0.374780683809
	0.49803724809
	0.493562442927
	0.0830751371475
	0.2128541732
	0.350221388317
	0.474314097324
	0.4366262701
	0.329021661231
	0.371579495664
	0.420487937823
	0.179894428525
	0.407387782512
	0.381988054459
	0.259639791035
	0.2506053505
	0.379571648896
	0.425999077324
	0.369770900506
	0.383312483436
	0.516157688279
	0.38368755204
	0.518661306308
	0.392528344895
	0.399739641073
	0.421313099393
	0.311717336928
	0.551046304208
	0.455459564278
	0.155615299169
	0.294063623169
	0.299994468014
	0.532927102965
	0.291626770713
	0.29206556071
	0.218168121828
	0.156822056035
	0.146442097894
	0.432277221426
	0.414376446103
	0.372712459386
	0.396352044692
	0.373553530405
	0.438955669775
	0.483511174644
	0.555700007052
	0.411370200375
	0.468288240294
	0.481887785288
	0.363792120549
	0.641022427278
	0.445393580824
	0.497170060694
	0.482752830729
	0.457935993343
	0.425780367151
	0.467737606102
	0.461005515008
	0.565584325582
	0.514840105598
	0.256713896163
	0.289989294425
	0.463910374391
	0.327356302
	0.30504647263
	-0.0470202317403
	0.408479763524
	0.469880518977
	0.525295507377
	0.473320495202
	0.508232788408
	0.558007606364
	0.526611663918
	0.402798999278
	0.253648772865
	0.309099769865
	0.373554795731
	0.287847870226
	0.45064697684
	0.226857524353
	0.305275919397
	0.276326395321
	0.549584915562
	0.558683259354
	0.664551328871
	0.347836842049
	0.417037401982
	0.511070648533
	0.457937454635
	0.291893770618
	0.395386103939
	0.391340772559
	0.355839458548
	0.263024779353
	0.293963187077
	0.377624936634
	0.466645921179
	0.388037644284
	0.241236960808
	0.112932244146
	0.202771423636
	0.490213310027
	0.450541095292
	0.450541095292
	0.386654732696
	0.411953259354
	0.37061794767
	0.362121485616
	0.57288646195
	0.285934386113
	0.460508105039
	0.360352325023
	0.382521191526
	0.483634675018
	0.58038593733
	0.654899896008
	0.584371659532
	0.486352093932
	0.341002147334
	0.378142312801
	0.231178657993
	0.462286516034
	0.449955306448
	0.343227449074
	0.539553182301
	0.528212671372
	0.369330082013
	0.602664542963
	0.529067071278
	0.466228248049
	0.389086432093
	0.361168201899
	0.361168201899
	0.33827346228
	0.521339114209
	0.576481447721
	0.617019330507
	0.111800777954
	0.439525473337
	0.419183385282
	0.467483662648
	0.476902620263
	0.589705395253
	0.236470165692
	0.281529157728
	0.608391213521
	0.397909402085
	0.249548571006
	0.332897896183
	0.275446111391
	0.580335597666
	0.244872828153
	0.511638286567
	0.282519201141
	0.39505671315
	0.368153843336
	0.533444363505
	0.243086737136
	0.622846649161
	0.354875321411
	0.541104972781
	0.370001740234
	0.0698415438996
	0.462184747134
	0.332919593126
	0.5853288471
	0.362522424387
	0.57167007762
	0.694606670554
	0.312071122576
	0.465280785774
	0.403895216725
	0.452166129634
	0.345030932906
	0.468505116012
	0.166678443279
	0.618775179585
	0.530972938762
	0.361135110895
	0.383751792079
	0.34170032596
	0.266188992565
	0.360596052557
	0.530793597944
	0.537047736984
	0.154793221919
	0.417385766964
	0.551507208087
	0.462306560602
	0.0359353162526
	0.451694239653
	0.421341148432
	0.421275632659
	0.357807839275
	0.469490242514
	0.509392230211
	0.570653897894
	0.519901523306
	0.468655218869
	0.541457106422
	0.387372785816
	0.158034279943
	0.482449542126
	0.699155106442
	0.404699672867
	0.490054913907
	0.282115231126
	0.17109461922
	0.17109461922
	0.231892822739
	0.362384893065
	0.501593002416
	0.359235550256
	0.399308689124
	0.331223509965
	0.346755917412
	0.468908978819
	0.655646395709
	0.275979716524
	0.457756343987
	0.418703666046
	0.479350366195
	0.477190095746
	0.425600750481
	0.270651973523
	0.317241337256
	0.427985325015
	0.518799050067
	0.244389396722
	0.405783692816
	0.373122011415
	0.582377374709
	0.462838426064
	0.526977595101
	0.417646757468
	0.180675470985
	0.618442462038
	0.501643924
	0.510994086517
	0.624797058428
	0.342095159788
	0.504453877779
	0.4427460892
	0.449209744462
	0.324834354987
	0.430075128993
	0.411471859069
	0.422843529251
	0.163151558719
	0.363017890792
	0.260027067159
	0.553070286421
	0.365814288024
	0.522092565847
	0.336355535247
	0.417816715134
	0.326416320524
	0.249465171211
	0.590281635569
	0.34458289601
	0.519154311561
	0.362212217248
	0.563116750257
	0.400154424914
	0.518107527802
	0.226712823744
	0.31098999464
	0.337348714859
	0.180564234298
	0.411367010814
	0.259485719134
	0.314778593872
	0.424592990461
	0.612440220475
	0.2992160154
	0.316678610761
	0.646229444707
	0.466694966662
	0.163307973357
	0.380188782182
	0.394598505052
	0.5725409563
	0.364883892964
	0.581637937066
	0.357450705815
	0.48446322408
	0.457740186007
	0.356677603724
	0.660335947181
	0.501976153391
	0.596555840955
	0.331562158363
	0.10379213188
	0.361871543058
	0.317462455751
	0.424123916953
	0.417117360699
	0.376918141079
	0.471691900541
	0.545538436749
	0.328978694767
	0.145636651846
	0.515867053052
	0.327221911287
	0.293520026696
	0.419656534964
	0.458920191063
	0.488244213722
	-0.036100821676
	0.535880256449
	0.457657310331
	0.503415044549
	0.593706834427
	0.414880009547
	0.522801282206
	0.0577445908096
	0.470839535716
	0.42790788043
	0.397588762976
	0.293625898796
	0.601191831925
	0.404002466205
	0.286345658879
	0.472130149165
	0.370283463769
	0.55728986157
	0.474184863648
	0.334659288004
	0.522032794324
	0.374548147571
	0.22734600759
	0.612875495563
	0.412251190142
	0.274760725728
	0.554412709886
	0.224529398364
	0.511539766548
	0.328888754534
	0.396399229321
	0.403437085086
	0.0167133142801
	0.413104298581
	0.354400640929
	0.601422066816
	0.185959694948
	0.30176587374
	0.450563268018
	0.233310459852
	0.445514197796
	0.563377261327
	0.736276688772
	0.556241690353
	0.307329036198
	0.454233840586
	0.475130563848
	0.300816019633
	0.298561055654
	0.556152049232
	0.410930355268
	0.649958073633
	0.542444656294
	0.48534995175
	0.455333462526
	0.482862656234
	0.456800596358
	0.4589457277
	0.285635487507
	0.465422135568
	0.550413435397
	0.539789937162
	0.348173972306
	0.661604861739
	0.408167672458
	0.265358725048
	0.246315878662
	0.434432152071
	0.128310110362
	0.536508121928
	0.611736046489
	-0.0350634000341
	0.277660505578
	0.406768506964
	0.293436814592
	0.428716953218
	0.426213607511
	0.31436516218
	0.333019009817
	0.40860756314
	0.40860756314
	0.0203417496904
	0.383391666314
	0.393517829646
	0.234198828
	0.326037967696
	0.4067452805
	0.160089367617
	0.450632533938
	0.563032187344
	0.459063858183
	0.40990392358
	0.64158725418
	0.364195559563
	0.364195559563
	0.458282797055
	0.616189935984
	0.356206684015
	0.439756910076
	0.42108365467
	0.474376920242
	0.424444595174
	0.409868035008
	0.256771802671
	0.429271042452
	0.429271042452
	0.496730052927
	0.216475403403
	0.191214111429
	0.465613010658
	0.351896930595
	0.260898546956
	0.637154245951
	0.494174670398
	0.315714785624
	0.377580403608
	0.662823116144
	0.497863867969
	0.455310574985
	0.301950074708
	0.440537193837
	0.241372599702
	0.337524460423
	0.505457129054
	0.625241595668
	0.429555944694
	0.255332192177
	0.50372418943
	0.537881899208
	0.465954931108
	0.281015231346
	0.63268924151
	0.449028082142
	0.189530474886
	0.36892071384
	0.477115810915
	0.425511278708
	0.476265827447
	0.296264124153
	0.443485797769
	0.245272128952
	0.317960433352
	0.52674002272
	0.554368551672
	0.496756773341
	0.557075467325
	0.348354655529
	0.348354655529
	0.560621377392
	0.561232441655
	0.412292052878
	0.393082892251
	0.371226364087
	0.351016764679
	0.433085818661
	0.618552856207
	0.470159309134
	0.361977302261
	0.45474627874
	0.60799400511
	0.441905718243
	0.251185647089
	0.503192059168
	0.259825727339
	0.387351100661
	0.516044912301
	0.421595694165
	0.316678697568
	0.663729894762
	0.491464650734
	0.491464650734
	0.482132415217
	0.509885488304
	0.377671217444
	0.489193370974
	0.381471835159
	0.466990689098
	0.535637863933
	0.279400280387
	0.518754900884
	0.466448077465
	0.247483340959
	0.43235122292
	0.499332375071
	0.319863181179
	0.505396757017
	0.226454088733
	0.43094917482
	0.538408241053
	0.332018124965
	0.583925296052
	0.314867272506
	0.244630308585
	0.330063455391
	0.331023383939
	0.18919495421
	0.397635491277
	0.176923563692
	0.383821555244
	0.616772337044
	0.28010323393
	0.358477185579
	0.553033674495
	0.522045247148
	0.312254155621
	0.529358917744
	0.539639522122
	0.378091268533
	0.3511086993
	0.491612066768
	0.494489711741
	0.270016085409
	0.217239411923
	0.452440088073
	0.299966160611
	0.471792726889
	0.435634865113
	0.435634865113
	0.349765989772
	0.132757704173
	0.399634444247
	0.185125244204
	0.261730308784
	0.421655336537
	0.618836574145
	0.509395030887
	0.236097408601
	0.420145265917
	0.469698992051
	0.559850228653
	0.48456287154
	0.526951766738
	0.553597011822
	0.416081568392
	0.490552021127
	0.518833058262
	0.513221842013
	0.529273169249
	0.465834371816
	0.197967070544
	0.178552583811
	0.508685526422
	0.419646611519
	0.230983368565
	0.374564266229
	0.291867292347
	0.168640958507
	0.232491861238
	0.331836354066
	0.351269094129
	0.604470068439
	0.581237386383
	0.488459041166
	0.600416560992
	0.261765526349
	0.387311191315
	0.475569078879
	0.444311430936
	0.391627016984
	0.490192784891
	0.359035343799
	0.228410216542
	0.318816982652
	0.339309395517
	0.380363459855
	0.186089936454
	0.268326820848
	0.533156682228
	0.314126922133
	0.590265175008
	0.342976756591
	0.380817315644
	0.311926660493
	0.280548527994
	0.439869183502
	0.274938261398
	0.334086834669
	0.297387629675
	0.254163345155
	0.37786265294
	0.496931707119
	0.360385512556
	0.357274358957
	0.425762438249
	0.310307023839
	0.386942432697
	0.299128533461
	0.370457959967
	0.53399584129
	0.414210600254
	0.365676498526
	0.528695672434
	0.241752389834
	0.406807949469
	0.513050792441
	0.57168394827
	0.557852727527
	0.371586412089
	0.237648534479
	0.456710133319
	0.448795661842
	0.292446527131
	0.249410416367
	0.397393544024
	0.362677443149
	0.512698706457
	0.198037394234
	0.514617223819
	0.226445960987
	0.226445960987
	0.374774741869
	0.557267814906
	0.490608786679
	0.608378903439
	0.201532303675
	0.530868899925
	0.534013343969
	0.449837277564
	0.461279840042
	0.452130337256
	0.342876155309
	0.138554439428
	0.373975601536
	0.346905691583
	0.612248988513
	0.57448954005
	0.402433698941
	0.439820987734
	0.402388452538
	0.392003086887
	0.601637106466
	0.427453609694
	0.35518753254
	0.490110496292
	0.453557238595
	0.377390520848
	0.337484163523
	0.342096827875
	0.566368479404
	0.410471806962
	0.441068805478
	0.400575568595
	0.359183111781
	0.472733157984
	0.415835308522
	0.415835308522
	0.448863982693
	0.519129354639
	0.298882410761
	0.45965318002
	0.532759703286
	0.429852848018
	0.436023188352
	0.525194008941
	0.287600047308
	0.22474388228
	0.466125108118
	0.288034751705
	0.425699083836
	0.439052734809
	0.636485807364
	0.425827391557
	0.350369025488
	0.27086242258
	0.254460808459
	0.381709422073
	0.370063634161
	0.45050067539
	0.391085433998
	0.326809005249
	0.480618526118
	0.48113229921
	0.288748758398
	0.490599438711
	0.21716125047
	0.287331570167
	0.249923274195
	0.422463164874
	0.457566595865
	0.581040476058
	0.327841344633
	0.361959594401
	0.399757090881
	0.199795509185
	0.361185891469
	0.373769697877
	0.387292614712
	0.491081072935
	0.45811109195
	0.480238089501
	0.308326783123
	0.344209509781
	0.28272565517
	0.488242507969
	0.658391804512
	0.225415051265
	0.42256451964
	0.458579684431
	0.290011362656
	0.542838365717
	0.488039801081
	0.618043201891
	0.484238267968
	0.459818395322
	0.323487016
	0.137670724976
	0.239575820556
	0.596388718743
	0.263197889702
	0.431709441151
	0.192686322081
	0.620137218427
	0.416198708167
	0.291927316797
	0.588182768193
	0.365203835023
	0.486899002339
	0.466102961602
	0.333999328648
	0.578985760096
	0.355743738171
	0.473699685588
	0.531522504988
	0.325474475602
	0.406028781017
	0.635073231307
	0.417943995059
	0.417943995059
	0.348611285197
	0.391246508189
	0.519300728895
	0.456123461482
	0.328792599162
	0.480852012802
	0.00654512305046
	0.311396473001
	0.383722841858
	0.218086527824
	0.553563390707
	0.476444652624
	0.308213162782
	0.557794581396
	0.493908052381
	0.391930868254
	0.445644584658
	0.613291452033
	0.346080392291
	0.345485125522
	0.233386338233
	0.659216519045
	0.41915067095
	0.491604354666
	0.503890179168
	0.119992881444
	0.279336852422
	0.248017714831
	0.634845675396
	0.428722262195
	0.595952403888
	0.617125904454
	0.618647576446
	0.155960413291
	0.2279831738
	0.306466287281
	0.45228438973
	0.33562084629
	0.487775088873
	0.335162350342
	0.462510578211
	0.258614833064
	0.252199209746
	0.229698436424
	0.548822919731
	0.36092615429
	0.5574797511
	0.0981255336602
	-0.0479603592288
	0.491660769017
	0.44246256229
	0.561514684698
	0.281457862694
	0.342869504911
	0.624818855714
	0.282167545838
	0.185662242832
	0.291438198429
	0.130304454478
	0.321462860336
	0.501621296079
	0.241749637701
	0.399409345985
	0.194838928271
	0.456338373295
	0.435426915172
	0.415480967467
	0.53506310647
	0.0769815153428
	0.349394419948
	0.489302683788
	0.48352592756
	0.431120643617
	0.22499341813
	0.524290161113
	0.229541032713
	0.43144173043
	0.464596998818
	0.498044085805
	0.498044085805
	0.474088055721
	0.374561119009
	0.157015449118
	0.26645714346
	0.416301015576
	0.461984042154
	0.464473292315
	0.345172434595
	0.656053976585
	0.454812019051
	0.454812019051
	0.532741171163
	0.469191492494
