	0.665271006319
	0.727826576118
	0.747151244893
	0.702534676619
	0.667692194005
	0.650412207708
	0.497611228388
	0.783467216321
	0.562821400042
	0.626161228076
	0.546905664425
	0.351561537247
	0.441847377144
	0.45478373668
	0.309493202355
	0.724362601264
	0.664186056942
	0.719229150077
	0.415528246778
	0.729504390981
	0.690155949861
	0.813879431923
	0.742583975507
	0.529723476083
	0.558058810172
	0.783253558568
	0.639108386842
	0.639108386842
	0.415204776773
	0.267617897643
	0.441566752503
	0.819398689426
	0.337672373491
	0.229611203252
	0.61782071929
	0.420176789238
	0.515371927815
	0.49717032574
	0.564445175967
	0.747279671904
	0.617203445589
	0.679087622318
	0.607531891622
	0.607531891622
	0.599384608189
	0.720275057964
	0.131194406904
	0.129646182567
	0.768458228036
	0.600026751983
	0.708822475337
	0.732691217013
	0.595615215231
	0.580408085084
	0.577980350622
	0.577980350622
	0.425076331688
	0.609672724704
	0.679631085009
	0.234431229704
	0.694181020961
	0.655314921471
	0.432523630482
	0.67475770168
	0.737368496763
	0.454289056797
	0.776425255
	0.776425255
	0.544528257064
	0.666135742745
	0.723687986697
	0.803348239434
	0.570332318118
	0.591276226558
	0.650243663897
	0.749688108243
	0.494611380661
	0.743473892808
	0.713145293769
	0.823641381228
	0.458432378499
	0.237582203477
	0.704661039111
	0.622164434032
	0.390927985495
	0.445885229738
	0.572031158669
	0.623865402237
	0.629492990615
	0.73513389307
	0.75667076529
	0.703679412228
	0.643197817755
	0.658832422997
	0.661138439311
	0.403448861102
	0.677986052454
	0.681666446354
	0.764682521169
	0.692250280907
	0.803074213115
	0.549968651912
	0.630199942758
	0.617774057518
	0.526152743466
	0.799271062817
	0.531813832785
	0.786172283286
	0.681454414004
	0.446985484262
	0.446985484262
	0.654725870058
	0.395787620784
	0.529864189972
	0.639689682886
	0.741727329577
	0.697507070135
	0.845047187098
	0.781814681638
	0.787075558481
	0.700523906632
	0.700523906632
	0.728737423582
	0.737026850973
	0.620626881127
	0.539743472321
	0.527253045368
	0.540288457863
	0.654971584984
	0.643437231299
	0.609087742618
	0.411467538228
	0.433880300237
	0.679179135052
	0.772410012129
	0.640636233112
	0.60530028271
	0.60530028271
	0.476415109083
	0.735285535204
	0.69850066684
	0.723890708858
	0.550823794344
	0.604410769061
	0.714990623386
	0.720795451406
	0.720795451406
	0.395960004378
	0.681328733569
	0.650156092629
	0.571059523733
	0.571059523733
	0.504330652227
	0.49290717388
	0.612353823134
	0.604083443635
	0.514891169575
	0.600080709761
	0.376221935946
	0.466941617368
	0.364945895453
	0.594846300562
	0.343542603
	0.814943271619
	0.75501462198
	0.684333943523
	0.545604641738
	0.56869488788
	0.547179530255
	0.686521640601
	0.616354164961
	0.472503988237
	0.615468257228
	0.733864967639
	0.749788996137
	0.749788996137
	0.626904773563
	0.64495702807
	0.509861005599
	0.509861005599
	0.749674835232
	0.657312776881
	0.4832130925
	0.830405587161
	0.843383351248
	0.793493392214
	0.718561225837
	0.709238033834
	0.597924666012
	0.62107161023
	0.738949376787
	0.575466593154
	0.654776684787
	0.630861627184
	0.424914523657
	0.498920688612
	0.645728837514
	0.645728837514
	0.317139339051
	0.703609214547
	0.2651512718
	0.485377644006
	0.477214442727
	0.722657292233
	0.720583184985
	0.711509573958
	0.778614441858
	0.721020075669
	0.775039430591
	0.840578642624
	0.792830125797
	0.563205834963
	0.6207549434
	0.75418838827
	0.0151926758352
	0.474418718635
	0.767335714841
	0.410865329965
	0.695745186461
	0.706098851444
	0.304677547096
	0.0691629791598
	0.660682882124
	0.733839756992
	0.502938211152
	0.689045290383
	0.582015346869
	0.716538421211
	0.76736345013
	0.622720592303
	0.608827694988
	0.403679156379
	0.729740392291
	0.686671617423
	0.696799266264
	0.600379883163
	0.537676267121
	0.816312623288
	0.790521749936
	0.703577219698
	0.656169728153
	0.384597708725
	0.562290851854
	0.562290851854
	0.562290851854
	0.599513050054
	0.736807494163
	0.757249490981
	0.757249490981
	0.491158049761
	0.536408911729
	0.739069546159
	0.299735270923
	0.714887593466
	0.0806086028241
	0.673447730547
	0.625069767985
	0.551360427438
	0.631929381384
	0.6330215778
	0.566430554483
	0.745245363027
	0.598873759094
	0.811297729305
	0.7200491249
	0.387319413562
	0.719102810742
	0.610671053109
	0.72583888197
	0.702403327272
	0.639846672582
	0.515003426627
	0.71618201112
	0.577518624743
	0.54220358866
	0.738959690919
	0.683759288437
	0.381527479398
	0.392525796022
	0.648071569219
	0.740481698939
	0.702162217633
	0.692919816713
	0.509578481396
	0.563220424879
	0.594284019672
	0.299851910883
	0.585979339843
	0.585979339843
	0.586671691841
	0.672104724372
	0.38939551972
	0.742502309719
	0.733870900744
	0.644867031117
	0.539634636177
	0.573435320788
	0.47308049033
	0.794682384731
	0.800466916212
	0.574097123263
	0.50953405042
	0.7299029391
	0.651007473567
	0.651007473567
	0.515677603646
	0.520003565094
	0.478458717899
	0.803606545899
	0.643248575921
	0.643248575921
	0.401902010297
	0.662556820072
	0.500255904805
	0.507058856753
	0.788225942088
	0.603864314438
	0.550366584463
	0.828482635863
	0.753693459647
	0.489096930545
	0.64834800982
	0.662702395947
	0.610052379145
	0.617390762938
	0.740531013817
	0.698626734484
	0.782825257821
	0.775807845788
	0.445233099343
	0.74750840229
	0.55476068087
	0.795196812846
	0.415950553815
	0.758049342943
	0.666007757183
	0.599940992894
	0.671403238995
	0.346886318934
	0.553542739278
	0.720902745305
	0.645848833387
	0.714222187214
	0.525413232558
	0.501634421839
	0.524604846925
	0.709984869692
	0.396812447524
	0.515803620216
	0.5443152816
	0.541585703478
	0.696422486038
	0.562998792067
	0.628423374319
	0.666968785841
	0.350747031452
	0.73091730486
	0.549450282043
	0.602824067067
	0.378717198719
	0.644091858686
	0.644091858686
	0.719685098309
	0.544599693252
	0.679572700839
	0.679572700839
	0.611314739909
	0.611314739909
	0.60074438371
	0.747480404754
	0.348020500446
	0.313018488712
	0.134358128398
	0.331338131508
	0.778845080928
	0.447729164945
	0.719953900017
	0.545170068955
	0.610589222969
	0.583030101888
	0.533225624384
	0.533225624384
	0.533225624384
	0.695809847537
	0.472975129428
	0.605045392723
	0.381387600847
	0.636405169883
	0.636405169883
	0.68317356715
	0.675124691079
	0.734803668611
	0.647554064703
	0.630773963682
	0.785887266209
	0.789205391574
	0.769542659519
	0.595539647227
	0.399570014711
	0.265010011339
	0.523184410975
	0.693574464903
	0.575557715366
	0.502806108964
	0.653879698252
	0.563305244049
	0.698779253429
	0.404900038212
	0.426662646456
	0.295986813601
	0.387613719187
	0.696113535034
	0.809169156226
	0.722688108899
	0.722688108899
	0.656822025857
	0.500768324651
	0.64745393997
	0.691169677641
	0.809042994359
	0.348614405329
	0.62380339214
	0.663106111572
	0.628557323036
	0.628557323036
	0.516766559386
	0.58582419756
	0.904952173143
	0.411885431052
	0.591365776228
	0.531314575382
	0.612242473577
	0.627541376902
	0.694189160737
	0.485388829431
	0.740841139493
	0.735058885496
	0.762027494722
	0.540954335031
	0.679737534315
	0.679737534315
	0.768736328499
	0.61232182138
	0.61232182138
	0.622575916584
	0.622575916584
	0.76106728703
	0.726352206374
	0.639720006433
	0.581236831941
	0.622253836625
	0.546486565509
	0.557215854951
	0.684349764484
	0.675321769568
	0.525025313831
	0.537350291835
	0.409860662359
	0.726087068003
	0.392563514657
	0.636597457977
	0.698621817576
	0.789910128656
	0.750002906379
	0.704800818598
	0.706757602631
	0.694671095035
	0.652610342998
	0.805251233293
	0.556091030288
	0.673722027966
	0.733701307154
	0.733701307154
	0.720867383849
	0.723550558126
	0.642000675112
	0.734275047773
	0.590859427018
	0.785884308094
	0.654960947137
	0.273964853926
	0.720122612528
	0.720122612528
	0.862487427461
	0.862487427461
	0.730715532575
	0.69815250101
	0.557855177335
	0.311707101332
	0.510392572964
	0.708219929083
	0.752115155772
	0.752115155772
	0.535022578894
	0.535022578894
	0.571633540708
	0.488666306383
	0.575371949989
	0.164748330339
	0.626533566592
	0.626533566592
	0.735346836663
	0.406737535777
	0.593818081367
	0.816505552115
	0.595150060191
	0.595150060191
	-0.234660870068
	-0.018181571321
	0.678056673947
	0.512525236213
	0.389114568842
	0.637602963944
	0.721995789682
	0.723843110387
	0.737916607499
	0.390154911626
	0.316132846104
	0.738775276651
	0.578026615131
	0.327223729705
	0.370459499147
	0.650287093171
	0.536891583755
	0.559361414888
	0.0267769402125
	0.524749716057
	0.696202287227
	0.788664714832
	0.602334448604
	0.376545635198
	0.170586545827
	0.620023821984
	0.469966784018
	0.792421520131
	0.669172903907
	0.540408564963
	0.497293289305
	0.709778295006
	0.756487217418
	0.727491728946
	0.773930019705
	0.54266788049
	0.665550214595
	0.645868399665
	0.681891551635
	0.631216942477
	0.580594972964
	0.823675318071
	0.862738000404
	0.283694764346
	0.419060793933
	0.623828508844
	0.691360786581
	0.455283314801
	0.677589954213
	0.45769649771
	0.560724522952
	0.703310209485
	0.56035771973
	0.618677646666
	0.490052220999
	0.722798794616
	0.664746970986
	0.681470543466
	0.43380256249
	0.445230277624
	0.494418688476
	0.831583431414
	0.517508939797
	0.533339908113
	0.718571441754
	0.619454318956
	0.619454318956
	0.612887754081
	0.610052334107
	0.695390608262
	0.702463254439
	0.74327841114
	0.498176409025
	0.514005118862
	0.732854940675
	0.706681328135
	0.767991364948
	0.767991364948
	0.47120710319
	0.778232055357
	0.735781587224
	0.632344630133
	0.742513524045
	0.62463599791
	0.678007137568
	0.349096203013
	0.545473294942
	0.757036981463
	0.76558594586
	0.771445056055
	0.774199346947
	0.648282256021
	0.571234526328
	0.537788847366
	0.750271821503
	0.487403747068
	0.755039441309
	0.438665546765
	0.709240400506
	0.639657834539
	0.516186977065
	0.651933253625
	0.585431134584
	0.66790533454
	0.546105822136
	0.291894241863
	0.291894241863
	0.375436676196
	0.646152615277
	0.537563826448
	0.713331001463
	0.651356603824
	0.579885436337
	0.632007057974
	0.61198436553
	0.760873578541
	0.760873578541
	0.416845290743
	0.52601065551
	0.620112144556
	0.620112144556
	0.636260070052
	0.766155285902
	0.420091952602
	0.573715925179
	0.694402075141
	0.674272754809
	0.377782208081
	0.717313863382
	0.43452508795
	0.594713097323
	0.64454705443
	0.598951353744
	0.424181601999
	0.519944346741
	0.685657292564
	0.672215818456
	0.672215818456
	0.477688901239
	0.708852081288
	0.735644809025
	0.399288283302
	0.48763522025
	0.465366661017
	0.720890197692
	0.803220842416
	0.760335176003
	0.504061365581
	0.238863276126
	0.693124612384
	0.728642659712
	0.48724729955
	0.59416763798
	0.516398134838
	0.583094705608
	0.485461578125
	0.569171960251
	0.464213144595
	0.586520988972
	0.763173911328
	0.77584238565
	0.679064368142
	0.346471548936
	0.22599925659
	0.383101836904
	0.422762536912
	0.505588221315
	0.71458231644
	0.644790291099
	0.439196893029
	0.647667298623
	0.770307600896
	0.602609374486
	0.549367694256
	0.803050386481
	0.516992394092
	0.82123079103
	0.823572074952
	0.487887185154
	0.563527038525
	0.759032298141
	0.468919964279
	0.42556258771
	0.570028403893
	0.835874369471
	0.497525671143
	0.48664476117
	0.648417599541
	0.648417599541
	0.559833034305
	0.807887110982
	0.602217194747
	0.692949316562
	0.716716735972
	0.469906920005
	0.488381495171
	0.685835882815
	0.755475029087
	0.667888312509
	0.310355791499
	0.246665283984
	0.515444131774
	0.6239668846
	0.570379981954
	0.699609461446
	0.747839280673
	0.486469470264
	0.531710422876
	0.368758711389
	0.692575011916
	0.330383141268
	0.537281416322
	0.405154479252
	0.703783392338
	0.725845417198
	0.393762958228
	0.725359836992
	0.557982888779
	0.759649364119
	0.543019970072
	0.714863789411
	0.761905718997
	0.571616941721
	0.747875841105
	0.533198514171
	0.783351447292
	0.393798321191
	0.492374698317
	0.545491626807
	0.714976991003
	0.34364211753
	0.578200194606
	0.667629511451
	0.434599199831
	0.654919384985
	0.671779215115
	0.728889008743
	0.720012912993
	0.624353622205
	0.705501107336
	0.382813208886
	0.463307236997
	0.542974826094
	0.542974826094
	0.614299728733
	0.614299728733
	0.465907540659
	0.692178087364
	0.494546410501
	0.619253658719
	0.571590629322
	0.661921075393
	0.828839335918
	0.671288288032
	0.671288288032
	0.749671733476
	0.606786623746
	0.538971776412
	0.538971776412
	0.699979383184
	0.458101679877
	0.184023487408
	0.342259495426
	0.528740845094
	0.528740845094
	0.324111579999
	0.419418074872
	0.641523290498
	0.730548467448
	0.246601033495
	0.580314003345
	0.53940895688
	0.530838942469
	0.390265805931
	0.497817913647
	0.585012117365
	0.642780980676
	0.56957479587
	0.56957479587
	0.698180378943
	0.654620438337
	0.654620438337
	0.505250959791
	0.617277461428
	0.664158098291
	0.410270599085
	0.626554074222
	0.819608740431
	0.746578309482
	0.729804450127
	0.688116505149
	0.537640243957
	0.614377236022
	0.666320465623
	0.569954560457
	0.697742017936
	0.63094685478
	0.679758309822
	0.632930272687
	0.368089076321
	0.513225695318
	0.777063393682
	0.716954928191
	0.47422652199
	0.581484514312
	0.482042259256
	0.331009619268
	0.331009619268
	0.76693573859
	0.777028580416
	0.473888576538
	0.395845475035
	0.672376003214
	0.440050309191
	0.628349361558
	0.571648574799
	0.630499681806
	0.4247968747
	0.662762740842
	0.712319405478
	0.809706642069
	0.223273855892
	0.711386426281
	0.610625564621
	0.785032053154
	0.7807571704
	0.560469612862
	0.362347059913
	0.408864444144
	0.738037998885
	0.483644229841
	0.624200083321
	0.534868624285
	0.700215770835
	0.613728398221
	0.744660818994
	0.756343422787
	0.668073077825
	0.644105843584
	0.697542595352
	0.614209389072
	0.766999057123
	0.701977020561
	0.683786408476
	0.657341077097
	0.801850760711
	0.581741815817
	0.801317549544
	0.656354178079
	0.595049619225
	0.562240432243
	0.774279525244
	0.650149712669
	0.598635289668
	0.812045966841
	0.678182556394
	0.678182556394
	0.53215943685
	0.53215943685
	0.734483729668
	0.734483729668
	0.510910860448
	0.652015082436
	0.553289283229
	0.609326994897
	0.694714651379
	0.750350544647
	0.750350544647
	0.42135707574
	0.376467278899
	0.569445316337
	0.615168871905
	0.746408764067
	0.666556518371
	0.666556518371
	0.695626235
	0.695626235
	0.602868695721
	0.730721578334
	0.743903481785
	0.641538504434
	0.641538504434
	0.646451032613
	0.559939825747
	0.447308837467
	0.477191220036
	0.664897174711
	0.526610431359
	0.763153652872
	0.673392788203
	0.563111440163
	0.781909399901
	0.721102427658
	0.502553405696
	0.645581325989
	0.789394813573
	0.528013051053
	0.671083236316
	0.515443933294
	0.658791910909
	0.392651974059
	0.667090506982
	0.563507251751
	0.554953056409
	0.668277263141
	0.602951279682
	0.624787221344
	0.738787388102
	0.428641689199
	0.739170117074
	0.691842234651
	0.610750726833
	0.509507977346
	0.549261394184
	0.643479038108
	0.643479038108
	0.65755720516
	0.45442296736
	0.61705016555
	0.669097057904
	0.622582225565
	0.57346279977
	0.444838349656
	0.33101179706
	0.568306777705
	0.482508498143
	0.653603721812
	0.529815548224
	-0.0307140782285
	0.641441734832
	0.398643067969
	0.726804040792
	0.525632235954
	0.448984649888
	0.791139818491
	0.326049785282
	0.607895415609
	0.499394058281
	0.722457101975
	0.488593626622
	0.678607164661
	0.58809575376
	0.385128820801
	0.469085510214
	0.459279251152
	0.696850578937
	0.560214312058
	0.741401655118
	0.630896565191
	0.790656254314
	0.561706799355
	0.461362425438
	0.517447959328
	0.565940103196
	0.532722742205
	0.532722742205
	0.553569618677
	0.632189334964
	0.724634150414
	0.680540702101
	0.680540702101
	0.67974642186
	0.467661363801
	0.595388034556
	0.766002144229
	0.651328909064
	0.416265405342
	0.697083273982
	0.564248309207
	0.300332692967
	0.520807157963
	0.666646056943
	0.666646056943
	0.228366795113
	0.627357241245
	0.496341692927
	0.506706298093
	0.703196079565
	0.714111849958
	0.487230017366
	0.464746728579
	0.490102237602
	0.7243321498
	0.7243321498
	0.672267051829
	0.648970578547
	0.661636874154
	0.298211748408
	0.349262294632
	0.68321323505
	0.671283115088
	0.668283701746
	0.648136411502
	0.648136411502
	0.696293808714
	0.640884572046
	0.659787032455
	0.704445821004
	0.73837861356
	0.636607289682
	0.462535469861
	0.461570288342
	0.558755920038
	0.487609403605
	0.640394449957
	0.735212471245
	0.489154865929
	0.737233181348
	0.805258324339
	0.661440077526
	0.395631538641
	0.658319301339
	0.701714029918
	0.701714029918
	0.520572681217
	0.758028356012
	0.728906017055
	0.569545137527
	0.569545137527
	0.771651221698
	0.715152082513
	0.649613271006
	0.670545905247
	0.765561669473
	0.639575356883
	0.683860417131
	0.556463633236
	0.625993014038
	0.641792270624
	0.739623005359
	0.800346851609
	0.802090971542
	0.802090971542
	0.578564685383
	0.67410006809
	0.504878979863
	0.814726314125
	0.377214733467
	0.60550107679
	0.759383833525
	0.430668205547
	0.412768145493
	0.407921374808
	0.629047099656
	0.799912892507
	0.50527048874
	0.659687016941
	0.64087887546
	0.587504357176
	0.710763941754
	0.508878888063
	0.542191579824
	0.633333402302
	0.441589019187
	0.174209430473
	0.667181075774
	0.667185949485
	0.46913037983
	0.657753780513
	0.567785903483
	0.841793325598
	0.571213172317
	0.699893991618
	0.73843685017
	0.73843685017
	0.60827582595
	0.665370545476
	0.752211312369
	0.654832496382
	0.462213341666
	0.48203086303
	0.52254023209
	0.675476211515
	0.675476211515
	0.73800424029
	0.793967402059
	0.109582849708
	0.66759273098
	0.498795215185
	0.683191982709
	0.329598118258
	0.538067699914
	0.769440040626
	0.720372446151
	0.635478545021
	0.655132118966
	0.713888835991
	0.617194107131
	0.812372841886
	0.750662886705
	0.561859529595
	0.548114362449
	0.312228506327
	0.560747990287
	0.606757059574
	0.615661946101
	0.350511440888
	0.627931662079
	0.787499319505
	0.589406059718
	0.636754864484
	0.636754864484
	0.624823504097
	0.640682720823
	0.640682720823
	0.640682720823
	0.679731617484
	0.679731617484
	0.728541344284
	0.653324371076
	0.57487882695
	0.62477548734
	0.576648676213
	0.660836872473
	0.612585421003
	0.785566348547
	0.34668378067
	0.60060596851
	0.614084761265
	0.680162592497
	0.76170158585
	0.746538418134
	0.403746650751
	0.754600482988
	0.611432104476
	0.724486309348
	0.456123357463
	0.680120985219
	0.686757095306
	0.572710120975
	0.512467744006
	0.315284946908
	0.684678919604
	0.684678919604
	0.516258047497
	0.699448505227
	0.65944369452
	0.608962254824
	0.695852168931
	0.517352645671
	0.757582972583
	0.77007354617
	0.403720714645
	0.754659538908
	0.45409873166
	0.745409509735
	0.172390190155
	0.487604745701
	0.707758313367
	0.707758313367
	0.597264244964
	0.597264244964
	0.756736263755
	0.787129198326
	0.723387607271
	0.706367490929
	0.665226854667
	0.809074969783
	0.541109400207
	0.729326251478
	0.696256063311
	0.481507266274
	0.373778218394
	0.810460453656
	0.810460453656
	0.855042121985
	0.792363011126
	0.497548015016
	0.38908688451
	0.604549061055
	0.632440379769
	0.684451091076
	0.525893064317
	0.525893064317
	0.724818093497
	0.584390815792
	0.540339938942
	0.454583304166
	0.688475552542
	0.530255629377
	0.714546221304
	0.404225336543
	0.245112900289
	0.643274101279
	0.689772304625
	0.0281877127858
	0.795301085367
	0.613196782771
	0.613196782771
	0.448117870137
	0.651338405092
	0.651338405092
	0.540175283135
	0.593488599518
	0.76866780471
	0.448489911012
	0.698407670713
	0.680429848655
	0.597677857047
	0.57033807309
	0.667383889682
	0.647349486964
	0.691002219841
	0.691002219841
	0.757522527374
	0.418091419424
	0.713966591002
	0.636432044983
	0.763368609986
	0.699562672989
	0.582781232225
	0.530613208718
	0.66999136694
	0.66999136694
	0.780070405101
	0.730786531225
	0.721518136669
	0.753002052275
	0.477535373927
	0.498411631016
	0.691962847563
	0.691962847563
	0.724455222081
	0.702744935446
	0.734239489006
	0.710388504412
	0.555211560164
	0.413571189017
	0.533041594683
	0.52249526285
	0.516208939162
	0.5392190844
	0.5392190844
	0.488509529742
	0.510754969951
	0.621809890737
	0.60948602759
	0.60948602759
	0.416041037519
	0.682251636181
	0.268130956469
	0.619172570857
	0.547491719735
	0.305785084047
	0.710653260513
	0.545901289986
	0.521159870035
	0.827009728422
	0.506887312275
	0.731974023633
	0.641519006891
	0.567527692238
	0.718359388566
	0.725901782232
	0.737635575136
	0.489670885862
	0.690446655087
	0.750580261178
	0.612941064439
	0.817628015746
	0.544456985974
	0.505591590475
	0.762446830012
	0.7168300598
	0.684923618523
	0.625653749888
	0.739099882384
	0.739099882384
	0.344302956635
	0.554244597136
	0.47702671676
	0.556950705879
	0.672817218572
	0.479613640193
	0.70703214282
	0.666710569679
	0.618797301214
	0.514861712984
	0.651552557149
	0.701673861931
	0.684600882107
	0.463647927267
	0.576750460368
	0.634965592164
	0.819646747741
	0.495792917764
	0.495792917764
	0.421392599974
	0.611692053483
	0.19851813672
	0.600508168499
	0.397505574138
	0.797528171558
	0.657872124955
	0.652175455864
	0.475124790868
	0.66118883979
	0.872505566078
	0.678848849054
	0.606847839313
	0.64656296717
	0.801863886923
	0.190966612197
	0.707701398833
	0.590061228685
	0.644617757635
	0.520318182912
	0.668894607275
	0.460582325859
	0.47703601538
	0.48449425494
	0.524098019546
	0.647144605206
	0.591171699454
	0.737364857379
	0.326533492049
	0.6109388438
	0.66219720668
	0.615302969986
	0.47113597416
	0.696481569003
	0.687889742381
	0.687889742381
	0.505590188632
	0.6988282173
	0.464580749211
	0.543221409417
	0.577410930256
	0.647100897635
	0.70385312784
	0.586996364327
	0.531841712568
	0.659858199389
	0.659858199389
	0.590099386436
	0.689697880575
	0.689697880575
	0.444619648049
	0.444619648049
	0.409273865958
	0.563459143238
	0.772371988436
	0.772371988436
	0.573770742034
	0.817797063013
	0.56882151171
	0.759329397901
	0.748958746206
	0.64543510523
	0.688536192766
	0.701848858471
	0.786346049264
	0.726334877055
	0.677161822125
	0.763576037653
	0.545651218007
	0.795974250067
	0.795974250067
	0.633513088553
	0.691877739103
	0.7384964753
	0.445523834252
	0.882315488059
	0.612653606127
	0.616114192251
	0.616114192251
	0.691033495862
	0.779131483424
	0.662904755535
	0.421774967053
	0.521589104892
	0.649757351753
	0.652845752387
	0.601219561346
	0.490361552052
	0.733937445204
	0.568140136489
	-0.0737453816719
	0.429092579264
	0.619713591291
	0.543588184534
	0.759254446701
	0.659646804165
	0.678448026902
	0.585050513816
	0.403711795763
	0.69086133129
	0.726599271457
	0.829435529339
	0.700000815465
	0.700000815465
	0.440276197808
	0.440276197808
	0.52927913685
	0.507248130978
	0.279014791182
	0.249091727538
	0.631050244166
	0.450190960796
	0.639905124422
	0.622949673532
	0.509206831754
	0.468112454808
	0.472434255843
	0.619923554684
	0.549297845289
	0.765598011672
	0.567686554485
	0.389266904442
	0.553335979911
	0.455551464767
	0.62429063739
	0.62429063739
	0.703702554043
	0.703702554043
	0.70004573479
	0.508623703947
	0.44473424861
	0.710295781657
	0.699775436779
	0.630628259708
	0.779969618215
	0.779969618215
	0.757021871632
	0.638691340979
	0.828404417201
	0.622890091027
	0.693910620608
	0.736253807697
	0.621488511389
	0.669355176608
	0.725185605022
	0.725185605022
	0.43911558384
	0.630083254606
	0.461750594726
	0.774797213242
	0.774797213242
	0.774797213242
	0.560332973255
	0.554418853284
	0.281375785727
	0.29732014381
	0.63334278223
	0.658740389022
	0.68374435667
	0.68374435667
	0.572239979037
	0.571745301205
	0.719342506968
	0.719342506968
	0.590975103249
	0.716745076444
	0.4863861733
	0.500374093243
	0.681441115486
	0.487140155166
	0.61460306041
	0.400138557616
	0.580753478197
	0.4591905157
	0.747777423537
	0.795008101925
	0.772939376424
	0.840124660403
	0.700099210914
	0.686974387148
	0.686974387148
	0.602064706003
	0.322604534065
	0.374529057339
	0.580777919333
	0.564436893598
	0.451962060206
	0.689610291311
	0.105841119416
	0.674007709876
	0.500567812085
	0.40341014982
	0.301082413692
	0.72647187705
	0.55640115339
	0.683663371006
	0.627802666381
	0.771677701544
	0.624237353243
	0.536470791554
	0.575483430314
	0.514763374895
	0.688673041924
	0.396141458473
	0.68461882992
	0.506674439011
	0.505736517495
	0.630819187163
	0.60436937808
	0.480913776218
	0.480913776218
	0.559708863704
	0.529618812199
	0.421497449854
	0.698189136505
	0.245311164478
	0.712202165732
	0.142620792692
	0.657711365756
	0.713042943866
	0.703271097411
	0.690209186669
	0.629658632356
	0.676371114267
	0.574822418339
	0.660609816026
	0.744597497882
	0.568076297649
	0.335852662849
	0.7697532066
	0.748572171229
	0.765668160091
	0.765668160091
	0.555882674801
	0.555882674801
	0.77453095895
	0.80342890413
	0.776448596375
	0.664178013997
	0.629771347183
	0.69075547041
	0.731245899907
	0.707991220268
	0.682349896553
	0.511942328019
	0.697811781067
	0.397519030042
	0.459591818628
	0.637388510774
	0.671839707008
	0.625121729944
	0.519831778714
	0.46897503475
	0.673149690521
	0.46146484299
	0.162104040965
	0.818412099752
	0.584228349576
	0.573158509028
	0.543706690354
	0.401747260901
	0.671192368431
	0.703419352703
	0.703419352703
	0.622337243501
	0.710851053089
	0.42838348364
	0.548131164637
	0.809107232816
	0.719740005196
	0.676704557893
	0.585588615481
	0.547798473675
	0.766302608008
	0.599392654999
	0.602078761981
	0.608317916748
	0.714824263438
	0.413309485244
	0.7701842282
	0.684414360837
	0.442964583772
	0.527769612525
	0.409901643961
	0.523812757325
	0.477333971423
	0.755972789961
	0.623911342631
	0.253805003112
	0.668103352892
	0.665005467981
	0.665005467981
	0.665005467981
	0.628064971169
	0.636158163103
	0.365689497388
	0.743126910906
	0.447661858646
	0.461629249881
	0.419164952591
	0.305977100811
	0.644507745293
	0.793740157005
	0.793740157005
	0.735112151651
	0.545466037105
	0.765882476862
	0.641172868357
	0.819101229671
	0.494684838092
	0.446274228279
	0.227823007777
	0.572086523258
	0.445564026421
	0.584913615943
	0.681463424681
	0.681463424681
	0.66253017761
	0.63342408693
	0.63342408693
	0.638107091899
	0.570406769888
	0.476953035507
	0.725897091596
	0.485189657289
	0.510097262246
	0.265591579919
	0.509344497524
	0.64466822694
	0.549133601802
	0.407009180349
	0.656686638317
	0.695847851392
	0.745688940623
	0.607492882531
	0.24584090642
	0.627973880895
	0.717151880039
	0.79092352289
	0.630797035638
	0.665921344762
	0.694553791338
	0.284973414847
	0.668979069291
	0.668979069291
	0.755174650483
	0.755174650483
	0.627394901207
	0.601083182972
	0.522782790279
	0.64439932396
	0.650309470349
	0.650309470349
	0.68516026493
	0.681797897097
	0.320586384492
	0.512896270793
	0.45671866819
	0.661298999978
	0.718869594993
	0.599993757697
	0.488130424802
	0.436379629154
	0.804460415259
	0.650355793742
	0.519143703142
	0.519143703142
	0.237964342255
	0.781904412785
	0.507769159882
	0.726263304553
	0.59323028615
	0.557225904266
	0.805354312341
	0.348561218125
	0.622034137961
	0.38083306364
	0.685612210914
	0.685612210914
	0.571643007725
	0.129447059222
	0.700302046953
	0.589513530302
	0.668558114933
	0.717397486071
	0.458551209433
	0.549560662741
	0.466116820012
	0.727062373811
	0.494375658868
	0.665062329167
	0.234840772837
	0.626560762687
	0.74702748653
	0.640467217331
	0.65556246875
	0.642418826442
	0.543967008887
	0.794715704089
	0.821962872108
	0.757259551024
	0.721436381993
	0.766981619553
	0.766981619553
	0.500658126968
	0.384255202897
	0.606654860373
	0.430878689368
	0.678550864737
	0.694838584379
	0.789952484595
	0.666689069276
	0.540062686633
	0.40904513668
	0.755235582779
	0.751732243469
	0.438463802383
	0.686626777369
	0.719701724118
	0.601013267671
	0.742978099375
	0.588293426267
	0.250720018192
	0.666234122351
	0.445562755588
	0.358218836891
	0.776412194719
	0.767580845742
	0.643807717558
	0.781268722072
	0.618222829081
	0.701369459371
	0.488753472952
	0.763592191579
	0.647007243368
	0.578886635549
	0.665087683058
	0.52662450095
	0.443091174893
	0.657132843376
	0.646780748744
	0.800248593008
	0.720726669263
	0.621469282769
	0.209661669177
	0.630576174173
	0.710692147072
	0.475792352343
	0.356077690701
	0.71033033289
	0.622646937867
	0.470046092203
	0.630236166883
	0.506284005405
	0.758873560432
	0.695507814579
	0.229526732474
	0.66093578932
	0.623175711181
	0.447600640136
	0.640753931658
	0.58941023778
	0.58941023778
	0.715303269269
	0.660845480791
	0.287475425645
	0.712743401214
	0.717368040841
	0.67054224584
	0.657170889861
	0.620202750724
	0.51291242474
	0.690966227493
	0.766197204436
	0.637910753978
	0.473751109774
	0.554960486575
	0.241218052381
	0.271558944577
	0.78453538429
	0.717371653647
	0.717371653647
	0.519376495859
	0.575036659175
	0.636645075468
	0.666867391918
	0.578604296791
	0.800154157022
	0.514695455476
	0.640402969343
	0.590782421066
	0.81254548047
	0.81254548047
	0.615237946887
	0.563090006548
	0.563090006548
	0.632812443567
	0.423949114421
	0.180955369445
	0.202536816506
	0.631531878823
	0.648499466756
	0.685207246404
	0.346942847195
	0.768221741912
	0.815383166501
	0.63142418006
	0.649624410031
	0.649624410031
	0.708914786018
	0.704447709159
	0.80506304885
	0.400382753124
	0.723019431154
	0.777132621775
	0.742494768871
	0.742494768871
	0.391984895102
	0.527448879967
	0.527448879967
	0.527448879967
	0.438090046335
	0.750888265858
	0.771729541369
	0.66150806287
	0.453069603827
	0.465215041984
	0.407384367126
	0.680001675253
	0.460091439447
	0.612896435982
	0.488549298331
	0.488549298331
	0.517731244668
	0.500273950767
	0.51231062135
	0.558315659098
	0.797168968804
	0.616140296163
	0.549671321741
	0.617086606565
	0.615049303267
	0.739743591512
	0.660640678227
	0.727735783227
	0.687659843888
	0.543125107926
	0.68715464443
	0.761426418964
	0.21801869398
	0.723627285355
	0.760334646322
	0.692012020649
	0.719311277757
	0.530599194079
	0.530599194079
	0.720011235331
	0.727857926897
	0.703676005383
	0.668607802157
	0.838785142257
	0.689019521549
	0.452080109988
	0.662782181796
	0.57794904834
	0.636177942386
	0.604716889562
	0.54531243316
	0.615901421775
	0.466220585559
	0.588116371936
	0.464439086906
	0.464439086906
	0.73188151803
	0.538099880625
	0.598430011595
	0.390511968938
	0.543798696765
	0.725534436194
	0.537138358706
	0.530094723143
	0.677353899261
	0.707897907507
	0.746866886071
	0.486383853512
	0.24115693726
	0.480956869805
	0.512126296599
	0.501761829014
	0.791384448702
	0.452757755717
	0.471841810644
	0.644084644378
	0.698885001281
	0.53057830771
	0.537651494596
	0.45014058211
	0.566975118683
	0.50025698916
	0.792843921711
	0.513803603608
	0.655988858735
	0.651449117549
	0.479988833373
	0.684574303341
	0.615270924784
	0.655727808349
	0.861561775095
	0.622034623202
	0.679877719937
	0.398485533742
	0.678380975986
	0.588744532419
	0.719694115325
	0.637397924167
	0.791292601302
	0.627361713468
	0.640626329589
	0.660920091951
	0.711203952039
	0.711203952039
	0.698958848282
	0.625326796479
	0.704564020585
	0.662876168327
	0.662876168327
	0.672772737249
	0.714555343164
	0.455683204732
	0.752103098937
	0.520371913427
	0.520371913427
	0.624948762553
	0.624948762553
	0.614500465518
	0.628121374984
	0.497901936469
	0.551449091323
	0.628989605028
	0.642014777418
	0.645290628734
	0.362658572855
	0.334695543213
	0.588408556338
	0.719203123066
	0.416704751481
	0.555643162256
	0.6072712362
	0.205895945186
	0.796229818494
	0.597137624703
	0.616578185597
	0.733298919248
	0.784987634827
	0.642022967716
	0.725898245496
	0.78852255953
	0.78852255953
	0.702413584014
	0.624023258873
	0.624023258873
	0.748815211664
	0.619108982857
	0.358560337283
	0.52713617832
	0.819556603074
	0.55226611169
	0.656295725642
	0.440927419979
	0.432569868719
	0.635726589385
	0.500333187948
	0.601967017511
	0.387221772697
	0.716968165241
	0.716968165241
	0.690746450747
	0.518535362942
	0.518535362942
	0.405026335611
	0.565482973864
	0.60167337532
	0.68442430605
	0.73623858639
	0.55864726646
	0.643297252412
	0.796816410424
	0.459309083833
	0.422449647856
	0.4755709224
	0.579612351937
	0.525548015181
	0.551944121625
	0.608595625177
	0.536171703843
	0.712448290665
	0.649213120137
	0.513789046399
	0.513789046399
	0.631469832664
	0.402155301437
	0.487301395957
	0.685384801152
	0.685384801152
	0.685384801152
	0.473742716541
	0.536031769032
	0.688063729914
	0.353181016813
	-0.0306987208237
	0.698979538554
	0.698979538554
	0.626499702133
	0.744303422432
	0.616556076854
	0.789376639536
	0.761050694293
	0.56904843025
	0.711079574837
	0.354072131605
	0.174010147288
	0.23547480363
	0.666434113437
	0.671020399992
	0.593491087737
	0.593491087737
	0.651023225532
	0.647485577923
	0.623605507515
	0.532719128203
	0.392688298723
	0.444421816918
	0.434307305145
	0.6673895174
	0.508758574278
	0.677839573785
	0.731430423819
	0.545065476014
	0.633186018108
	0.60485148341
	0.374498336431
	0.584120113451
	0.463266981741
	0.800397278287
	0.851952896607
	0.411501429915
	0.571711730484
	0.777966581513
	0.715787137193
	0.548835581074
	0.780743802078
	0.500666892264
	0.756458811297
	0.525104671093
	0.721275720038
	0.7452700573
	0.448987411733
	0.804469308325
	0.552518535945
	0.727333971509
	0.754951456979
	0.162627302136
	0.40846152673
	0.627318532021
	0.776464004901
	0.776464004901
	0.518631840594
	0.747626496541
	0.695592569443
	0.631440892895
	0.687042088849
	0.753685375064
	0.615951921753
	0.615951921753
	0.549724878085
	0.549724878085
	0.493259040124
	0.713774769796
	-0.00446577742014
	0.655633070602
	0.655633070602
	0.884464665068
	0.42052971154
	0.5752941701
	0.761882517261
	0.534041141898
	0.626437758301
	0.711779938971
	0.739899433116
	0.569478773969
	0.674479082996
	0.487060466136
	0.518718429944
	0.660883956988
	0.166457666872
	0.757270974924
	0.642522593026
	0.659238854461
	0.522048804455
	0.711118225708
	0.565700166747
	0.578900999995
	0.629892531585
	0.756519043108
	0.658977715021
	0.865670649771
	0.838640909601
	0.779086360669
	0.645092476213
	0.538663723778
	0.706444090608
	0.752095427816
	0.799996271576
	0.667097700135
	0.68945391303
	0.471379640579
	0.560352165259
	0.523229970538
	0.732402539823
	0.686571742207
	0.491793574474
	0.339725022011
	0.425546306527
	0.615233896832
	0.573495490289
	0.540916498786
	0.298272263432
	0.44847732045
	0.068804887204
	0.499692673688
	0.595293098813
	0.707597693994
	0.535326130116
	0.585577869548
	0.710102295592
	0.760047442946
	0.602651124021
	0.738609134548
	0.738609134548
	0.367561332381
	0.65534883729
	0.60378906277
	0.435027983516
	0.743411052851
	0.629786589933
	0.457547135777
	0.681713544051
	0.486469280399
	0.544237490736
	0.722369182583
	0.722369182583
	0.704668955036
	0.713332060337
	0.37180139443
	0.827939134814
	0.861655617947
	0.666108067955
	0.56412829727
	0.445008928998
	0.360005475845
	0.60055683312
	0.580565065921
	0.802655468424
	0.81088478445
	0.346248948949
	0.647764200844
	0.735619910608
	0.576497160252
	0.604745942732
	0.615275141773
	0.639428003074
	0.0867810719459
	0.682022577822
	0.633233954317
	0.623831864576
	0.502770322294
	0.529683928681
	0.70501883887
	0.522362838443
	0.690480126212
	0.558728260894
	0.286418693465
	0.779745102613
	0.497161499834
	0.675741374184
	0.592251191459
	0.736495372986
	0.687122424969
	0.682602452523
	0.638730276107
	0.674752170847
	0.584339219956
	0.529035975877
	0.377646801605
	0.421272663424
	0.692733069589
	0.498025063642
	0.612891248528
	0.612891248528
	0.612891248528
	0.665584021859
	0.691721636008
	0.543939417122
	0.704447232152
	0.839527086375
	0.529003295066
	0.793976041722
	0.77606044916
	0.517579582911
	0.600410015972
	0.769192125295
	0.507935559862
	0.693411709042
	0.693421381167
	0.517578298373
	0.428769715233
	0.478669348719
	0.804228433153
	0.524457744694
	0.442691581557
	0.734669233348
	0.715987389123
	0.537283940879
	0.573930050477
	0.423442587402
	0.705645906902
	0.795720584656
	0.77474781811
	0.727874736339
	0.54546549954
	0.511358296241
	0.694849240132
	0.811464271521
	0.678870201678
	0.536916135728
	0.65308109988
	0.752601890571
	0.283405691406
	0.738863694947
	0.807609884371
	0.382244241901
	0.712880735093
	0.69436497092
	0.220940412622
	0.363482088423
	0.551291712003
	0.405795637853
	0.682288111307
	0.682288111307
	0.642826684361
	0.667559478096
	0.684151061359
	0.714932379719
	0.780184011895
	0.530797219133
	0.619452334766
	0.578527505584
	0.280700434468
	0.64306656989
	0.668004299219
	0.695698405724
	0.695698405724
	0.661427951802
	0.751665596964
	0.647185664902
	0.56360596105
	0.690517229989
	0.610836458978
	0.369816267514
	0.607137209862
	0.661256746125
	0.734204792176
	0.378320078459
	0.735045433217
	0.746153676561
	0.582155527806
	0.707295942565
	0.734607055753
	0.384184383556
	0.714233175765
	0.528496614031
	0.561904172927
	0.747868962754
	0.456603840838
	0.69424064705
	0.716423188362
	0.651744621984
	0.592685484059
	0.592685484059
	0.617618534728
	0.650376819841
	0.650376819841
	0.636587155588
	0.653149644274
	0.398033034058
	0.479230658487
	0.593755895063
	0.271458082607
	0.555193750638
	0.703198146598
	0.795329170369
	0.689642545857
	0.528970678528
	0.799660423203
	0.546774112928
	0.446189293818
	0.559319927028
	0.4115636006
	0.796977882962
	0.523971175809
	0.748364989951
	0.592459695114
	0.442071577832
	0.691680212396
	0.667460111037
	0.587557609914
	0.521114694137
	0.503728166359
	0.734638640609
	0.721003972843
	0.617493743738
	0.464355697286
	0.742941648448
	0.57299862935
	0.575005942387
	0.645721017712
	0.304482532342
	0.261832574058
	0.691323604147
	0.74620324542
	0.669504509478
	0.528951412796
	0.254357399415
	0.731748417887
	0.796993297541
	0.323945589387
	0.335001369397
	0.63923777086
	0.339333770813
	0.497674977411
	0.703334968566
	0.758097709292
	0.790630750151
	0.660065578512
	0.813019354468
	0.478669921084
	0.542156473288
	0.634536930905
	0.586508744111
	0.688982863528
	0.389127006621
	0.491694942659
	0.190289404076
	0.58241636739
	0.58241636739
	0.361145530857
	0.327039209432
	0.375698107617
	0.774973996373
	0.647094629884
	0.626742482137
	0.566307295818
	0.543597789926
	0.555918367847
	0.622295479716
	0.532682863178
	0.770244686523
	0.789162560803
	0.756284772308
	0.756284772308
	0.787487779424
	0.497849092868
	0.6416270064
	0.6416270064
	0.661698831091
	0.697128953579
	0.642992014986
	0.297103585841
	0.506619341938
	0.724328885184
	0.643162194715
	0.643162194715
	0.517627785315
	0.611589006116
	0.497866801114
	0.651729081234
	0.726915287451
	0.637410337803
	0.722337032476
	0.662766147141
	0.711460414914
	0.775133220103
	0.417894932301
	0.746322317429
	0.746322317429
	0.618560785966
	0.609974207931
	0.526412196277
	0.518079004064
	0.67167469902
	0.485449466379
	0.641678944133
	0.470443340874
	0.745692799744
	0.755391865843
	0.727851859556
	0.455315769786
	0.602249803642
	0.38917481243
	0.410911589635
	0.585698613651
	0.597524577475
	0.734715647699
	0.721815170891
	0.721815170891
	0.762349664824
	0.774782839909
	0.699033445631
	0.699033445631
	0.5431569592
	0.696696804567
	0.441533967894
	0.666525998599
	0.472048262347
	0.510244152501
	0.812178432969
	0.593525471093
	0.680966248196
	0.66385829523
	0.66385829523
	0.619964727208
	0.55634182002
	0.612475330121
	0.579545956247
	0.595581225196
	0.587726883612
	0.498096337229
	0.737074963941
	0.678779263633
	0.678779263633
	0.692845841129
	0.690205648038
	0.739464596814
	0.699148649855
	0.69076618667
	0.777883789999
	0.580645900066
	0.690964150815
	0.663614537197
	0.730908645007
	0.692888069932
	0.632344011229
	0.752986050229
	0.7720465604
	0.611064435665
	0.291194448719
	0.760368549445
	0.677460769491
	0.683216809573
	0.576184712412
	0.576184712412
	0.572627416085
	0.761204052484
	0.735023564914
	0.583030732535
	0.672831874339
	0.754512339022
	0.64161838865
	0.364507786314
	0.504367387169
	0.548622818847
	0.768735194937
	0.768735194937
	0.724497091559
	0.758534327564
	0.609749949927
	0.349484914659
	0.497618742388
	0.466953397248
	0.530150752234
	0.690621928952
	0.502186437906
	0.429312336914
	0.711501918293
	0.521181298664
	0.810046908567
	0.621523549537
	0.503721568656
	0.59642929047
	0.420947109259
	0.530449785552
	0.643352513952
	0.460673853037
	0.744783525854
	0.564572641748
	0.856015431462
	0.529494106999
	0.492082647249
	0.603967025572
	0.617363117669
	0.436230008819
	0.690272253014
	0.64458700235
	0.706271061375
	0.338491928888
	0.645218392686
	0.488108700456
	0.488108700456
	0.49104258498
	0.731405580337
	0.780482605498
	0.686619222423
	0.686619222423
	0.642596721868
	0.632661480364
	0.777187121369
	0.641163426618
	0.631597029458
	0.654240854441
	0.560096744992
	0.573045909984
	0.390240382365
	0.38460496968
	0.569408668319
	0.498704118922
	0.394767521398
	0.563719973946
	0.513432482269
	0.494071859551
	0.343568113983
	0.677940418026
	0.548057429411
	0.636777763028
	0.738562365197
	0.754904654211
	0.564588958548
	0.57234385677
	0.540832809279
	0.62674362795
	0.807420504556
	0.414209320956
	0.610343961298
	0.613343252116
	0.616392262511
	0.616392262511
	0.311623592429
	0.470009607706
	0.643446692072
	0.519351838517
	0.769600320939
	0.519702886534
	0.505036949244
	0.350325988525
	0.493629768198
	0.596809479246
	0.321009269204
	0.738058735089
	0.730838898711
	0.730838898711
	0.730838898711
	0.314999088584
	0.628773998446
	0.628773998446
	0.631340812754
	0.773220693874
	0.75301598365
	0.753479448984
	0.836617134073
	0.61331405967
	0.410525354653
	0.593592158812
	0.547763935266
	0.752927416303
	0.73969961109
	0.485543082
	0.692939331204
	0.481888910584
	0.356248269947
	0.295064910289
	0.603048199265
	0.738740887297
	0.573358116341
	0.730293492419
	0.55006719061
	0.486122368554
	0.559811147747
	0.748808392842
	0.571095828042
	0.569600385447
	0.410465129928
	0.627596686852
	0.705277501515
	0.37870011971
	0.52999313909
	0.457578899545
	0.630652630863
	0.771430883931
	0.581475387805
	0.444566245549
	0.608354456519
	0.774255199438
	0.649279803478
	0.230462785909
	0.842783183182
	0.745527511369
	0.670541157747
	0.426782477391
	0.518511803857
	0.525701650178
	0.572350688056
	0.709856970782
	0.66027529607
	0.674669023808
	0.731396054754
	0.794881024116
	0.794881024116
	0.307664952587
	0.726625549054
	0.454516920878
	0.585306349951
	0.498797330789
	0.513141573112
	0.639930012154
	0.634774696622
	0.508400835659
	0.691732177868
	0.691732177868
	0.691732177868
	0.691732177868
	0.713101553805
	0.757057445332
	0.595579961141
	0.62798129905
	0.530362180413
	0.736296636603
	0.298744533168
	0.646688660813
	0.50191317957
	0.503095232862
	0.636215522601
	0.611873306925
	0.611873306925
	0.744183075898
	0.344968782963
	0.640815546527
	0.846811181223
	0.565893573057
	0.758911549888
	0.528400553243
	0.167144820302
	0.612680215305
	0.597055154227
	0.597055154227
	0.636545242543
	0.478213813878
	0.299163740388
	0.435020368083
	0.726883232357
	0.368215228455
	0.737176495633
	0.615206162691
	0.37366723524
	0.625265613782
	0.638233352965
	0.741628624755
	0.528274219279
	0.721541845683
	0.799844913985
	0.636299381898
	0.689739487979
	0.654997458045
	0.744772902883
	0.229472721306
	0.555874269261
	0.453447635133
	0.439806974484
	0.733682293994
	0.733682293994
	0.723208080592
	0.629848697279
	0.716722905559
	0.55328969177
	0.0390867674399
	0.860725267977
	0.707846552094
	0.707846552094
	0.737442093693
	0.722536383373
	0.440507509054
	0.583257230532
	0.553185124749
	0.515689123503
	0.511819859403
	0.520350677992
	0.631059452458
	0.53311087546
	0.653004493935
	0.608658110184
	0.766068135063
	0.675456014595
	0.491892259991
	0.600170560512
	0.76904553746
	0.437942821693
	0.629712026027
	0.848391341849
	0.737571637379
	0.538889374354
	0.538889374354
	0.685112040018
	0.392454609407
	0.466611544789
	0.523639091371
	0.747948939363
	0.511223465972
	0.745670638432
	0.600447881934
	0.652135881875
	0.471587757657
	0.821771583128
	0.829321117985
	0.608438469786
	0.757990064241
	0.803526879133
	0.583215320019
	0.701860792688
	0.543908068565
	0.544121003112
	0.739440718363
	0.690108314018
	0.384706961242
	0.673589433931
	0.659931019037
	0.659931019037
	0.690777396588
	0.588832739331
	0.832453074357
	0.603310928598
	0.629397385939
	0.51698917963
	0.505780001068
	0.753341328847
	0.62471412725
	0.459116004613
	0.322253656655
	0.68107504381
	0.717784141965
	0.717784141965
	0.21631172464
	0.615497519539
	0.615497519539
	0.725469474439
	0.247830148462
	0.762440974654
	0.638669671909
	0.419187725223
	0.702829478362
	0.823281859402
	0.557756512291
	0.396327636291
	0.638502437926
	0.715874104902
	0.710861199294
	0.709908854093
	0.868263360008
	0.74272953304
	0.569158949198
	0.659309016205
	0.362353656805
	0.452829912745
	0.755242549216
	0.451183957786
	0.64620082426
	0.544455167384
	0.588091858884
	0.654121185396
	0.696459644117
	0.710894388796
	0.648284915788
	0.626112389187
	0.852789236351
	0.805838828893
	0.845526699786
	0.774356071754
	0.631230982824
	0.7538595449
	0.557504443495
	0.557504443495
	0.533268032897
	0.686045494771
	0.574053544485
	0.500685374284
	0.71418067408
	0.54632082903
	0.660441734336
	0.59818178331
	0.494361560501
	0.81963237853
	0.619980212361
	0.756056148331
	0.246202754823
	0.310578554506
	0.763958944288
	0.608064057428
	0.407795347802
	0.364390442152
	0.711231614792
	0.372507383469
	0.777722499165
	0.61857264631
	0.572525797554
	0.335650664263
	0.358483278354
	0.802640787256
	0.709802149927
	0.81369726846
	0.612371550543
	0.561572809364
	0.759043543426
	0.652639177372
	0.646269959579
	0.707942064762
	0.564491108234
	0.456102410443
	0.388199350708
	0.561574897892
	0.592763935829
	0.667781239018
	0.290221722556
	0.191417851659
	0.561786334255
	0.768741569709
	0.821738035906
	0.419124013907
	0.710732282485
	0.557132614983
	0.570533197849
	0.733587204714
	0.533084648619
	0.641627002274
	0.618165456086
	0.842116585601
	0.586413733648
	0.586413733648
	0.745730991197
	0.600628900386
	0.51911357473
	0.604758873215
	0.669585492492
	0.515092706109
	0.711050433517
	0.723159225792
	0.517981453581
	0.517981453581
	0.513822073229
	0.530611264077
	0.85808298442
	0.774921305968
	0.766775945772
	0.595491089778
	0.749059979582
	0.749059979582
	0.711941640678
	0.261469427243
	0.768887501339
	0.618445309502
	0.638195157859
	0.73036133001
	0.607946819052
	0.627503621363
	0.588538850259
	0.555109193783
	0.550830432823
	0.648329792702
	0.578603973426
	0.67551603053
	0.735857811347
	0.469982485868
	0.712607395501
	0.742357909874
	0.742357909874
	0.742357909874
	0.742357909874
	0.504446157173
	0.639610296374
	0.673284655331
	0.445397280664
	0.32231600593
	0.635429797181
	0.721086830788
	0.846374890025
	0.813494789551
	0.845517376297
	0.33124430489
	0.665090656192
	0.703128529484
	0.463526161707
	0.693938329633
	0.601728182804
	0.694803791418
	0.723190141626
	0.747546108792
	0.630714067504
	0.779297384138
	0.752277984871
	0.634002600622
	0.727647642329
	0.625311598516
	0.681220511072
	0.628327851432
	0.789773113364
	0.558890466187
	0.576228563455
	0.363877512494
	0.639237615188
	0.574658238993
	0.678962984477
	0.786670455688
	0.58298668335
	0.442007736223
	0.535504470977
	0.783602177538
	0.376042251499
	0.0843616552187
	0.641680540228
	0.806000668625
	0.550359945402
	0.430773656996
	0.576496046776
	0.378644341257
	0.318802530585
	0.695078751919
	0.667021962315
	0.566027997155
	0.566027997155
	0.732559679974
	0.758973810945
	0.758973810945
	0.758973810945
	0.65019895812
	0.425976822364
	0.474966596632
	0.317229649601
	0.79289050442
	0.589673930136
	0.548098262914
	0.5579472127
	0.480972748902
	0.592959679767
	0.702600532662
	0.772199146435
	0.786260890034
	0.642734763702
	0.700280056206
	0.585602289188
	0.553107480178
	0.658622327022
	0.548294336753
	0.670530550222
	0.827293945592
	0.751644611197
	0.709725468664
	0.698412663625
	0.739989635261
	0.571085556731
	0.73819960007
	0.635807128667
	0.795365023133
	0.546206533804
	0.793590068288
	0.724429807434
	0.754220817088
	0.639054995683
	0.566180626804
	0.567746138318
	0.645651995024
	0.619572012674
	0.582208296995
	0.658637349289
	0.693903784779
	0.402420900543
	0.369165860229
	0.728663561123
	0.487784076263
	0.503262582604
	0.360557756265
	0.660721528779
	0.45470608594
	0.545679487781
	0.854462847375
	0.733151742344
	0.733151742344
	0.610556423134
	0.608242731414
	0.746688695331
	0.580940181584
	0.491920567752
	0.670004111173
	0.711023259752
	0.480387328203
	0.65374621946
	0.695646295845
	0.52834062367
	0.293015333615
	0.568255848381
	0.293594552708
	0.391567801154
	0.519965316422
	0.825744178851
	0.309470338163
	0.507336185273
	0.76300788086
	0.622151061265
	0.138825329982
	0.782286061454
	0.584735940044
	0.356934039839
	0.399544188311
	0.639386597092
	0.596781255135
	0.757407055601
	0.586572042113
	0.39447118858
	0.131339460206
	0.317318002931
	0.719347567644
	0.719347567644
	0.648397964997
	0.600687240454
	0.593502839844
	0.593502839844
	0.593502839844
	0.373690206204
	0.667998173567
	0.551872234404
	0.626373654962
	0.738737362244
	0.452181486466
	0.365707282856
	0.688232714589
	0.823001932473
	0.545669021016
	0.400013707143
	0.588920506254
	0.677070015577
	0.683804194483
	0.588644053809
	0.692321483598
	0.654246639723
	0.676716846597
	0.65093265031
	0.484936877625
	0.795813001039
	0.645757417299
	0.645757417299
	0.682788742142
	0.663252102376
	0.607734453581
	0.419701996666
	0.535352018361
	0.442651258459
	0.49504836459
	0.55586391113
	0.54367286851
	0.186732131692
	0.751227810593
	0.812063161302
	0.575016168116
	0.772653041191
	0.72256321497
	0.254663666952
	0.881150398309
	0.427536242761
	0.384408539307
	0.659537659857
	0.659537659857
	0.523542378054
	0.401500627743
	0.785559033771
	0.492422559202
	0.60270682341
	0.710130038175
	0.710130038175
	0.483686068525
	0.647816487654
	0.505841193572
	0.69396491261
	0.783284853988
	0.708425425955
	0.774048200002
	0.743652792213
	0.626757063461
	0.626757063461
	0.548092308991
	0.759596959492
	0.759596959492
	0.605477991258
	0.422333811643
	0.748756158409
	0.462048141687
	0.664916699729
	0.67495861857
	0.684152888049
	0.482168402715
	0.514417644
	0.574898125889
	0.407119805787
	0.749856469486
	0.659100392306
	0.604308725903
	0.293827812776
	0.460374231783
	0.548415854817
	0.539776843108
	0.523086171446
	0.696890083974
	0.6588532004
	0.709873334627
	0.483133452632
	0.610450082098
	0.836478545777
	0.618316909111
	0.546726000226
	0.398493044141
	0.231149169161
	0.74906197004
	0.584540139642
	0.581476949928
	0.58805034935
	0.668246829888
	0.45795414646
	0.685305803789
	0.661758502692
	0.735137466755
	0.863033686131
	0.74554575122
	0.776672673224
	0.70059248079
	0.636203767523
	0.511730404517
	0.813256356385
	0.414573003192
	0.681934182283
	0.582413287299
	0.52132585222
	0.52132585222
	0.502325771385
	0.63379130928
	0.445425318138
	0.626800273683
	0.432350344286
	0.588176326172
	0.536502803352
	0.413769734166
	0.729571252892
	0.537106847017
	0.315132189337
	0.845283790039
	0.761298299802
	0.611792296183
	0.777704039452
	0.545619796218
	0.720463792824
	0.720463792824
	0.609163528464
	0.528866038125
	0.505741424801
	0.542332940324
	0.506649827939
	0.63609956965
	0.769990788325
	0.770833645915
	0.231886377527
	0.680144756108
	0.588622527772
	0.772136975677
	0.784794637074
	0.70179951431
	0.584034283154
	0.436534571955
	0.673760437827
	0.654532156359
	0.626940517021
	0.626940517021
	0.417880703148
	0.501431600134
	0.606346625276
	0.501535472155
	0.461760853717
	0.179806764132
	0.59449531802
	0.680840719198
	0.68533609686
	0.344000321256
	0.653500262932
	0.616511562644
	0.616511562644
	0.62142202555
	0.660074003465
	0.518808848839
	0.759101857398
	0.779645655926
	0.684380248442
	0.684380248442
	0.522773729791
	0.699959156447
	0.811245591977
	0.567169325085
	0.624489424705
	0.62669414738
	0.62669414738
	0.540858855537
	0.542525880894
	0.737326497521
	0.661365040717
	0.652552382479
	0.243995336125
	0.479552881606
	0.79211378856
	0.566881575482
	0.630752964742
	0.765959750227
	0.71032244291
	0.618595579732
	0.688502374437
	0.56022218712
	0.659401539847
	0.691906093332
	0.724606556425
	0.490359428871
	0.490359428871
	0.483741748564
	0.601349468742
	0.510671258484
	0.592683136375
	0.541209319557
	0.756772188173
	0.756772188173
	0.590483887648
	0.644068369573
	0.578530449087
	0.788384027698
	0.673399019566
	0.632494205434
	0.632530671658
	0.842272356755
	0.729883094966
	0.42434919778
	0.621590788099
	0.580906468149
	0.610506068214
	0.745580461605
	0.719767076932
	0.647406372454
	0.647406372454
	0.745660365826
	0.685482802595
	0.104160974267
	0.573283561865
	0.698056554133
	0.668320643862
	0.329412002794
	0.18083239401
	0.777302434345
	0.372663435633
	0.743056094438
	0.628072817919
	0.741850594426
	0.741850594426
	0.534891023893
	0.779407218954
	0.552246044916
	0.740126101364
	0.579453234781
	0.584793338745
	0.224609019799
	0.679596950442
	0.49459406031
	0.386192798062
	0.550613714151
	0.523824371899
	0.679759054689
	0.735137263836
	0.735137263836
	0.492698369706
	0.610154059831
	0.610154059831
	0.562721544601
	0.693298213239
	0.567773019155
	0.567773019155
	0.625116763995
	0.681138618528
	0.479210056683
	0.456048992563
	0.66784165221
	0.540893319905
	0.692462429594
	0.612788563073
	0.666152844317
	0.556151375713
	0.815566081483
	0.714297487562
	0.701186123669
	0.55819275183
	0.548045480992
	0.759575268567
	0.722576917057
	0.573328232506
	0.757190564448
	0.683558138504
	0.799848854863
	0.522222863263
	0.800605991071
	0.66853328338
	0.520569054863
	0.754265926055
	0.754265926055
	0.777412197199
	0.831411550156
	0.79829022664
	0.378442054724
	0.763343660443
	0.601978787215
	0.482193730797
	0.44725780294
	0.324358787501
	0.437984010964
	0.488781105388
	0.463684952651
	0.702991876757
	0.55947049622
	0.280862977421
	0.67364025865
	0.282965996961
	0.63021317485
	0.52321705539
	0.448119122797
	0.467101500352
	0.477222243277
	0.318968325272
	0.538488349197
	0.665904781218
	0.694609573741
	0.808448917509
	0.755029123648
	0.583020391765
	0.705850054135
	0.622893471783
	0.535247702972
	0.714784788336
	0.676848537234
	0.578733832567
	0.68280466484
	0.250319542637
	0.637077066003
	0.664931961851
	0.664931961851
	0.662912634931
	0.615207592901
	0.657481953592
	0.752008956557
	0.534744425922
	0.597735424893
	0.844897749681
	0.844897749681
	0.751681563046
	0.538509076622
	0.538509076622
	0.529217220651
	0.736986322505
	0.569086122327
	0.355958893472
	0.749469878979
	0.749469878979
	0.520773318907
	0.490917924548
	0.728255613146
	0.601609133316
	0.704204628614
	0.644756621921
	0.701070796876
	0.701070796876
	0.770637843242
	0.710803780022
	0.710803780022
	0.445154938458
	0.802030692605
	0.683888492567
	0.633900572199
	0.288081278633
	0.427214998978
	0.700145019645
	0.482304238165
	0.75294260788
	0.665814634996
	0.504854232453
	0.399377853497
	0.646077758141
	0.598889564019
	0.713560476376
	0.64254577052
	0.765103201636
	0.732581012136
	0.732581012136
	0.732581012136
	0.737604705586
	0.631638834704
	0.73924634246
	0.553746289904
	0.707115038451
	0.645003645604
	0.645003645604
	0.586444599058
	0.772575099103
	0.324229313492
	0.735812533148
	0.458313388412
	0.667773658564
	0.603893458214
	0.634105456571
	0.643696782105
	0.300151572584
	0.645404152846
	0.419086320107
	0.748094400983
	0.688141873777
	0.656565857382
	0.656565857382
	0.400028183069
	0.597635426228
	0.776271951688
	0.437146452116
	0.774875951485
	0.703396014833
	0.593532823934
	0.633744190385
	0.420667462875
	0.637922517046
	0.631435193583
	0.44051136044
	0.575470977934
	0.65581986393
	0.560809337667
	0.710522617257
	0.722635160679
	0.585675305851
	0.756801497652
	0.67370833398
	0.769249157417
	0.769249157417
	0.367597085819
	0.595318442536
	0.423603072787
	0.173201403713
	0.603500662558
	0.520017793252
	0.562385334359
	0.765441432804
	0.602522772445
	0.730718633242
	0.615480880357
	0.496485142009
	0.74161041451
	0.546804580526
	0.567422232381
	0.638711556626
	0.759379302677
	0.759379302677
	0.662312544246
	0.125186038131
	0.526970979827
	0.399547048226
	0.808433322299
	0.600466363522
	0.597787087
	0.683944246524
	0.683944246524
	0.454152456682
	0.518231115422
	0.5385070216
	0.743359849444
	0.743359849444
	0.336883068569
	0.631092144348
	0.644855704928
	0.664620405346
	0.596359663384
	0.519273975764
	0.543032817751
	0.644601565456
	0.576279872204
	0.638064667733
	0.44950926684
	0.490755965687
	0.490755965687
	0.422994350343
	0.58941591972
	0.701639363722
	0.701639363722
	0.245493042722
	0.781045189455
	0.524460594364
	0.530080353504
	0.575714408259
	0.432075981832
	0.610409330374
	0.712491399571
	0.817321387316
	0.722893519902
	0.722893519902
	0.582647413054
	0.723337266065
	0.490525099976
	0.609539094357
	0.378308479652
	0.222816694131
	0.467595197169
	0.700874758444
	0.713348396857
	0.713348396857
	0.636236402234
	0.686705199399
	0.597538752432
	0.597538752432
	0.691558317192
	0.560594260583
	0.742309789654
	0.734851101847
	0.574152709168
	0.688223230551
	0.456572772504
	0.509692778227
	0.445105507604
	0.547009239031
	0.589992843216
	0.670082710459
	0.725607826628
	0.7825991369
	0.7704824505
	0.19875084516
	0.529466240584
	0.698347328641
	0.877086813951
	0.715090483689
	0.718407304338
	0.718407304338
	0.561004651746
	0.6437971105
	0.75550959088
	0.544997544932
	0.557844603713
	0.724890174304
	0.66693511376
	0.649488655321
	0.601352090507
	0.665118936863
	0.665118936863
	0.565055769819
	0.639746410798
	0.414824067973
	0.601427623175
	0.457104620912
	0.554309535459
	0.723240857418
	0.485531906922
	0.63804184506
	0.670184017191
	0.666484810411
	0.666484810411
	0.666484810411
	0.62646356851
	0.534769215235
	0.224486404288
	0.313378748892
	0.663227414039
	0.75276100116
	0.668583832755
	0.694463639388
	0.771602390168
	0.200902528853
	0.585547024708
	0.420239789475
	0.834801018409
	0.834801018409
	0.799658799042
	0.596637803421
	0.726033959652
	0.633297550871
	0.651036688285
	0.65849811438
	0.611944544501
	0.5505880833
	0.454434758842
	0.562402890995
	0.437209286073
	0.530866062184
	0.410715063513
	0.560120615236
	0.65501566117
	0.648826150997
	0.676663668696
	0.771835827513
	0.561141289564
	0.705596453433
	0.70999622626
	0.699009948427
	0.452953210008
	0.458505709085
	0.55031893824
	0.557954181687
	0.714519056801
	0.758349328024
	0.721111491351
	0.819123542137
	0.66790826811
	0.894464777182
	0.432208335426
	0.741107756222
	0.741107756222
	0.469105249664
	0.720396434419
	-0.0563347867361
	0.762308917752
	0.737900793241
	0.754902507502
	0.687682592935
	0.304882587023
	0.714888393836
	0.714888393836
	0.85128322459
	0.675308858254
	0.476924187629
	0.459101748948
	0.412037755076
	0.750439338475
	0.752729897676
	0.316161158035
	0.45202551479
	0.57730989745
	0.542359382066
	0.500101118176
	0.585018508871
	0.593906883643
	0.680445547366
	0.560943519105
	0.598306780873
	0.686979757555
	0.532964530311
	0.574956004944
	0.491664531137
	0.502525767809
	0.664112216351
	0.773727873708
	0.401471785261
	0.620817627029
	0.799361981099
	0.340365780476
	0.763495418166
	0.699832902298
	0.31777508806
	0.763831886618
	0.763831886618
	0.522167885768
	0.391923531045
	0.417196197037
	0.456096338092
	0.594158580387
	0.678205553723
	0.637939272508
	0.614602107212
	0.645211435844
	0.664201335285
	0.511684764535
	0.508327435093
	0.658146716356
	0.666414810307
	0.761543184872
	0.590971047144
	0.583018169395
	0.621991290544
	0.805724605914
	0.56535530367
	0.555976302388
	0.696036498316
	0.673934473604
	0.684327074553
	0.716045364631
	0.653122757191
	0.480728404578
	0.622162900336
	0.622162900336
	0.707054746642
	0.421898112631
	0.781178588133
	0.330297610355
	0.454473384128
	0.439790510783
	0.599390469495
	0.768534959627
	0.704747213397
	0.550603290147
	0.587855942401
	0.595822081473
	0.666819355955
	0.716718796724
	0.69693737669
	0.69693737669
	0.532020958039
	0.524580496538
	0.862933233189
	0.721162777713
	0.724663323007
	0.570898265378
	0.586992527668
	0.586992527668
	0.660610567379
	0.508608714907
	0.492417090351
	0.757674015616
	0.714923344264
	0.562053697597
	0.625492480268
	0.579639369997
	0.540255788304
	0.452650898492
	0.778632113179
	0.70681566236
	0.565142805306
	0.818559624128
	0.441074483276
	0.658278915441
	0.391115282387
	0.558549794553
	0.558549794553
	0.251777368939
	0.497152015521
	0.693254245388
	0.73535949039
	0.580273963536
	0.636508635203
	0.653332918034
	0.680759549616
	0.709475086702
	0.520148528774
	0.557383202287
	0.603239138404
	0.539265967981
	0.40920157764
	0.761709932634
	0.691934972551
	0.783503386378
	0.720113490723
	0.720113490723
	0.661702721667
	0.678021432494
	0.158828743215
	0.590807226862
	0.569354943581
	0.569354943581
	0.612927485013
	0.68112922931
	0.726589089969
	0.690008998909
	0.719153495104
	0.666986059071
	0.692746893441
	0.749043465122
	0.624768223921
	0.458753491892
	0.597476315457
	0.507751984616
	0.537982265051
	0.535710854865
	0.502795828806
	0.439380925507
	0.439380925507
	0.508953085301
	0.63437552796
	0.665800615291
	0.437642301055
	0.633102677485
	0.634574412742
	0.711921882572
	0.381024094959
	0.651575318251
	0.665060629124
	0.677245608398
	0.513792426299
	0.353851957722
	0.519128292194
	0.519128292194
	0.61305508417
	0.770174058222
	0.391934464711
	0.522645704763
	0.548579253803
	0.6181599504
	0.622033559679
	0.629191845841
	0.589723796492
	0.53507163806
	0.765013381339
	0.392084994813
	0.516055291495
	0.824868122942
	0.824868122942
	0.513220888635
	0.512566427267
	0.450401701132
	0.813276522486
	0.605780070071
	0.385657033252
	0.808171244535
	0.42400478273
	0.522318130042
	0.638505187661
	0.471523416863
	0.321745490494
	0.667789720028
	0.421779375785
	0.517393248561
	0.561398583406
	0.695659992484
	0.510882154657
	0.485638807677
	0.530961505832
	0.611459841696
	0.550716241578
	0.417380124118
	0.659814727009
	0.657458412269
	0.677743667469
	0.647431267158
	0.730603352387
	0.75485396162
	0.208144913593
	0.681935885682
	0.702660461419
	0.655403669824
	0.606475940595
	0.319920477129
	0.391765844326
	0.400120013252
	0.502585198351
	0.646603680468
	0.526413044107
	0.535246358128
	0.741998346725
	0.336492344049
	0.531301939161
	0.79956710754
	0.746760532899
	0.722608809024
	0.448122392126
	0.647196105222
	0.499775621823
	0.59608520691
	0.635428888377
	0.74935417386
	0.797680534584
	0.806754823804
	0.704910990394
	0.416950175005
	0.427216080353
	0.705167039099
	0.735818871864
	0.791355920578
	0.563372291549
	0.828573355445
	0.779507482255
	0.740982847208
	0.498212691193
	0.621092647789
	0.785206064863
	0.743145664764
	0.515048632706
	0.554497799938
	0.774399410678
	0.411921776263
	0.704307598278
	0.435624923237
	0.472998891523
	0.677174768868
	0.418681507541
	0.79555688331
	0.607548166325
	0.70752802443
	0.625680966138
	0.625680966138
	0.643517398513
	0.656588620239
	0.622022261644
	0.65961679894
	0.424159557101
	0.352399451619
	0.74183905928
	0.76846974346
	0.320459595979
	0.555701198581
	0.383322273445
	0.465804774813
	0.748694313398
	0.720758548686
	0.792953166591
	0.856206627346
	0.611682906491
	0.787176873109
	0.655023252229
	0.573675554818
	0.339141687829
	0.766026893472
	0.705797358536
	0.64121334674
	0.500474865894
	0.836337970442
	0.757022301177
	0.649823864169
	0.672739647197
	0.608591435604
	0.739913841932
	0.665080702166
	0.731569206001
	0.69591390336
	0.311250063367
	0.542464937605
	0.393426123959
	0.303624494821
	0.495102772737
	0.453638537895
	0.629717015148
	0.729195709732
	0.729195709732
	0.0842951557182
	0.674676309205
	0.546121111158
	0.426747482194
	0.469273738504
	0.657521263571
	0.688491309114
	0.703087089795
	0.773857162006
	0.71760080827
	0.63248297935
	0.63248297935
	0.828165020551
	0.516809480796
	0.60522918567
	0.56360219659
	0.474522237552
	0.545243496081
	0.659380087624
	0.421675454702
	0.79791348046
	0.79791348046
	0.79791348046
	0.680962025591
	0.799852288584
	0.740290919308
	0.795775731275
	0.427907467229
	0.396590958794
	0.406411401352
	0.679772218582
	0.758388083794
	0.646760468424
	0.510773329411
	0.522235657302
	0.566032576801
	0.554696079953
	0.730970076747
	0.766239882338
	0.72016989412
	0.712740631796
	0.568298471934
	0.656104526493
	0.392758255354
	0.407614040249
	0.444554192642
	0.735233056269
	0.802605325032
	0.585255219355
	0.605136754034
	0.527339112762
	0.438192706091
	0.706267638944
	0.764882531503
	0.373403332963
	0.478526958656
	0.468158607167
	0.468158607167
	0.690328981649
	0.614456367112
	0.51204692892
	0.579877071866
	0.414298321603
	0.447821690462
	0.617573471726
	0.514810771851
	0.514810771851
	0.632172451047
	0.760256272756
	0.713969061732
	0.65394546745
	0.373687454854
	0.676617340986
	0.519595990369
	0.69996061873
	0.44492346605
	0.42066819894
	0.617033999424
	0.606281298609
	0.500874496981
	0.694731781477
	0.628958509803
	0.698641525337
	0.631925515021
	0.141257900949
	0.558748082448
	0.763577049955
	0.761770260225
	0.73267675012
	0.805471310266
	0.636268653135
	0.558543609598
	0.53729924933
	0.507163443586
	0.501720588379
	0.720259620989
	0.720259620989
	0.606213440862
	0.553485881897
	0.797157219534
	0.718484155317
	0.535835121878
	0.60229167038
	0.718432915016
	0.783600812038
	0.647917157722
	0.477912423349
	0.449462158894
	0.423010505561
	0.507936459135
	0.692727257002
	0.441668858078
	0.791719178711
	0.733740963138
	0.734922966008
	0.751832308529
	0.775454164077
	0.674687237489
	0.710543609787
	0.622266305573
	0.306695864198
	0.684752771844
	0.635036391837
	0.656872829428
	0.464159243325
	0.496901331881
	0.607496494337
	0.499627914395
	0.467348089525
	0.670674658148
	0.680127185749
	0.431117444765
	0.591377370375
	0.411664215541
	0.798342906671
	0.688964975027
	0.577955393722
	0.577432864663
	0.609293233867
	0.64670314231
	0.533861275264
	0.817237142484
	0.779639273327
	0.544077393541
	0.580357294696
	0.493093676914
	0.0949425831708
	0.663819546429
	0.375148274845
	0.451477568854
	0.445579749484
	0.707660995643
	0.707660995643
	0.585260977896
	0.366163970625
	0.472268803488
	0.538205891144
	0.507405815083
	0.28998963463
	0.304676133358
	0.581308328008
	0.73052280946
	0.739105630148
	0.285488364606
	0.588943134152
	0.557874732794
	0.557874732794
	0.56784492028
	0.699077124785
	0.372746060067
	0.748508222559
	0.520821259929
	0.524141139006
	0.742589207944
	0.369006064163
	0.676543255319
	0.622138252778
	0.665637379402
	0.646942926034
	0.37849617996
	0.455155017581
	0.496908479733
	0.775363926634
	0.87853864551
	0.761033145708
	0.37972978932
	0.564573705333
	0.673951410766
	0.542575989786
	0.673445226031
	0.643527262782
	0.463813810018
	0.598905125882
	0.657296325134
	0.785190255929
	0.726751552559
	0.472562218322
	0.66708230231
	0.784656173609
	0.784656173609
	0.726144327653
	0.802558518953
	0.488350839398
	0.769741139666
	0.748098485809
	0.465559683586
	0.692559148405
	0.632433170334
	0.893307910727
	0.663438085435
	0.591851524228
	0.649534219725
	0.690326072871
	0.710444978807
	0.704369281082
	0.704369281082
	0.704369281082
	0.812819677362
	0.77158608199
	0.68532334278
	0.547969523641
	0.682616866711
	0.682616866711
	0.733128881181
	0.700402861393
	0.557877400179
	0.311186635309
	0.457661611903
	0.554217515814
	0.35143039609
	0.46759423557
	0.479775818845
	0.534362295642
	0.501501877847
	0.571433349235
	0.363614539404
	0.699776419736
	0.718389916274
	0.759482295499
	0.639357576841
	0.599833073163
	0.186784262401
	0.65159522194
	0.305301036918
	0.500389896144
	0.602524694153
	0.51173515785
	0.665721623082
	0.615028690336
	0.558809496163
	0.399014372363
	0.662020736124
	0.409911359923
	0.605047696674
	0.50154801805
	0.404665677206
	0.691336201349
	0.648671609825
	0.714192707864
	0.587716721546
	0.470078806765
	0.531806677238
	0.599054830736
	0.599054830736
	0.500296828633
	0.611175444467
	0.441026824997
	0.603450638232
	0.561956260483
	0.39442375386
	0.835420831347
	0.719060876074
	0.599926935546
	0.779101369653
	0.703238377838
	0.406418507608
	0.522990332472
	0.757889909354
	0.424842161174
	0.562883565381
	0.561696248818
	0.548537589614
	0.650401777207
	0.771865385754
	0.613192759869
	0.611779944922
	0.785424774991
	0.77073623436
	0.618442743505
	0.615434121494
	0.839306012726
	0.799155502814
	0.416978361897
	0.590671953695
	0.590671953695
	0.701688912909
	0.808907767369
	0.848483941616
	0.631879660568
	0.520104870424
	0.368386186703
	0.593428281443
	0.615505015079
	0.197159058187
	0.438362318407
	0.577840090229
	0.624811574017
	0.575247425954
	0.208720907523
	0.692854969783
	0.657598170331
	0.573576239465
	0.714876789572
	0.695970308344
	0.695970308344
	0.701468879329
	0.645894432442
	0.645894432442
	0.409055625021
	0.682811727186
	0.225069487119
	0.635767367263
	0.502344930093
	0.211007073566
	0.607513396966
	0.703244856641
	0.554530288677
	0.624489845449
	0.473447902773
	0.647870311699
	0.647870311699
	0.677833923384
	0.668404548591
	0.645128610849
	0.378217439248
	0.288341000635
	0.763297105586
	0.632126327745
	0.496494967112
	0.77047413888
	0.576248794438
	0.215002705197
	0.862760664196
	0.772727391221
	0.63602920552
	0.528489288127
	0.521348266919
	0.378171970208
	0.688424631972
	0.688424631972
	0.69372841382
	0.679342638177
	0.758943389238
	0.620830673635
	0.776753559971
	0.596310467
	0.397047502385
	0.303061368901
	0.239495559042
	0.660152581065
	0.759610802379
	0.64736352045
	0.650270353318
	0.793888709853
	0.578189908698
	0.392709727109
	0.753517081798
	0.45497862861
	0.841621990309
	0.638209611341
	0.602050427771
	0.425806928647
	0.466135631161
	0.569696583684
	0.59622525848
	0.631979051806
	0.604885932402
	0.578180200946
	0.596541750106
	0.605404297214
	0.316622836662
	0.496941650488
	0.637668047283
	0.590801330769
	0.539710016273
	0.480647972227
	0.432342740811
	0.441902373539
	0.553519844185
	0.489102939204
	0.675201202322
	0.675201202322
	0.675201202322
	0.670956761758
	0.50953280348
	0.646921832889
	0.397475745786
	0.692212101472
	0.60055362219
	0.501689405458
	0.41816226103
	0.624193543969
	0.593257492037
	0.643894600737
	0.643894600737
	0.608938643264
	0.554386727994
	0.553268674075
	0.632292287875
	0.518351113541
	0.524387469415
	0.641067375641
	0.557296018456
	0.421528867758
	0.622675198372
	0.539693888268
	0.501759686063
	0.554977698994
	0.554977698994
	0.602005073908
	0.547323673741
	0.576468497101
	0.532609956695
	0.662704259119
	0.662704259119
	0.662704259119
	0.685085729425
	0.702420568904
	0.469207854123
	0.770550101731
	0.466979883868
	0.562870721952
	0.49285369488
	0.658642205512
	0.770103365549
	0.477288779911
	0.272112746405
	0.884686858114
	0.330448158302
	0.563794824417
	0.351025174398
	0.838031058145
	0.274933888598
	0.62457861056
	0.742959508887
	0.691594388823
	0.603298982621
	0.603298982621
	0.695486044836
	0.56570889222
	0.484180543042
	0.727954859181
	0.601802289665
	0.601802289665
	0.433233831128
	0.512435814784
	0.533946358082
	0.705637431169
	0.535881931696
	0.616599095341
	0.503359687954
	0.576691188328
	0.352858088724
	0.565547967985
	0.766048159766
	0.482216382947
	0.455847785226
	0.567581893776
	0.500077400676
	0.780148970587
	0.699110465596
	0.567035712091
	0.483804359653
	0.449917158181
	0.519978887577
	0.502968844578
	0.721220084344
	0.322826441693
	0.527752275861
	0.457127474031
	0.676680933968
	0.677055316524
	0.58264483315
	0.54439523699
	0.464751602485
	0.4676089863
	0.745323487656
	0.387980066364
	0.373993929147
	0.333808888601
	0.190138046965
	0.727630411145
	0.672292379776
	0.672292379776
	0.655171495754
	0.655171495754
	0.455335910477
	0.616371258126
	0.642032650118
	0.686062719631
	0.561993405064
	0.435051754307
	0.340725441306
	0.536977657972
	0.659333262133
	0.530872349876
	0.572432255573
	0.353487754857
	0.643247036121
	0.591047770999
	0.59208582062
	0.497013718718
	0.520617443616
	0.661892726671
	0.741402833302
	0.640115366975
	0.541321556482
	0.649323339616
	0.712894740639
	0.597857658686
	0.624518712988
	0.822460188226
	0.555756920767
	0.894050655378
	0.712470718496
	0.713775362341
	0.564356888205
	0.756152615886
	0.678531260898
	0.539184074816
	0.612839928463
	0.376504338057
	0.761138635798
	0.819614314008
	0.589286957569
	0.639282968095
	0.510051314923
	0.510051314923
	0.451032111155
	0.512634440107
	0.731090410782
	0.69073015575
	0.699071094076
	0.699071094076
	0.791619583446
	0.680418055438
	0.80778330035
	0.217795332513
	0.760584633625
	0.78214878298
	0.78214878298
	0.643005581847
	0.342688305269
	0.717792333754
	0.658736356983
	0.620837778198
	0.691456954999
	0.549012829945
	0.760311278893
	0.585027169461
	0.518713974354
	0.756777920453
	0.627927521561
	0.618342381913
	0.651273969669
	0.510055544903
	0.620570984349
	0.821944541201
	0.76703233544
	0.442794097367
	0.318671305722
	0.625371364012
	0.479091964172
	0.605881601445
	0.758647669411
	0.710544691597
	0.619978279372
	0.619978279372
	0.316201766995
	0.331895312587
	0.261175069348
	0.667643903132
	0.798336067211
	0.789760739521
	0.845914640137
	0.46592586164
	0.355949448751
	0.418923668654
	0.599410365385
	0.649637762017
	0.649637762017
	0.614912363667
	0.646103443272
	0.721244567648
	0.721244567648
	0.52148153293
	0.522232056656
	0.721540570116
	0.224925682348
	0.605267344159
	0.630426771101
	0.490169882628
	0.583311525075
	0.708397402503
	0.489339375954
	0.762231881806
	0.694939269344
	0.502958775785
	0.411037692977
	0.626031348456
	0.420696802188
	0.651446151179
	0.7005206828
	0.434104733538
	0.582523648728
	0.617450848158
	0.764498704812
	0.616434921442
	0.69912674063
	0.69912674063
	0.703299801018
	0.739676889598
	0.561629927347
	0.602283828695
	0.536087134816
	0.696581596786
	0.458293532983
	0.740360579305
	0.294479558863
	0.748277039389
	0.719513762482
	0.663855553607
	0.543349723651
	0.543349723651
	0.543349723651
	0.482054889459
	0.62508854022
	0.660918269947
	0.69668007636
	0.63429980716
	0.792776876665
	0.664231699727
	0.65599365274
	0.584584469533
	0.735998363889
	0.668317178666
	0.668317178666
	0.466548020352
	0.78022589302
	0.402835122791
	0.619912329938
	0.568478369474
	0.376671190944
	0.514185557737
	0.74916047404
	0.693833588068
	0.701018105963
	0.59526742246
	0.34201829468
	0.464845305163
	0.686242735845
	0.828135297106
	0.768324527125
	0.688247882457
	0.517109181486
	0.466438611193
	0.570525862694
	0.196217477294
	0.530702984195
	0.708647409738
	0.22094188189
	0.556388361312
	0.630593868565
	0.78230892997
	0.603526828786
	0.839172805863
	0.588188090523
	0.550251419591
	0.645447555036
	0.714773352319
	0.655313379723
	0.6997931142
	0.602449212757
	0.518491134037
	0.60759578984
	0.784814022603
	0.700302972985
	0.504910087746
	0.720786091609
	0.587241836076
	0.519176850703
	0.519176850703
	0.652734042518
	0.767428393725
	0.55725218777
	0.646633343874
	0.829133317324
	0.829133317324
	0.671582069796
	0.723509864551
	0.511331382255
	0.648542393027
	0.56619196814
	0.478146985589
	0.409994914314
	0.541254058172
	0.754152384472
	0.551859825554
	0.584218681698
	0.764308427027
	0.465744023611
	0.480866567051
	0.63784013403
	0.764274897653
	0.507577291004
	0.291177134842
	0.745986007168
	0.636385094578
	0.570846154969
	0.677868361026
	0.70754080372
	0.507929308894
	0.48480836728
	0.539246925872
	0.816813251833
	0.603330687783
	0.793598506541
	0.843246114494
	0.571050820495
	0.711223997917
	0.492399414961
	0.323722375268
	0.715006809663
	0.517593439685
	0.727468091325
	0.706090918676
	0.504748939669
	0.485024968031
	0.307956417198
	0.70055988021
	0.546363831981
	0.752744714968
	0.859460868931
	0.468656630767
	0.681804095236
	0.609431893735
	0.661795296401
	0.517089937208
	0.480321018682
	0.696099526643
	0.646370314851
	0.316446959323
	0.238374843501
	0.622843287278
	0.737473234756
	0.659546438253
	0.622434795735
	0.622434795735
	0.153337304136
	0.629689075436
	0.559050887816
	0.769495133434
	0.769495133434
	0.747148820741
	0.747148820741
	0.629177027023
	0.399329515576
	0.522055704913
	0.649951947164
	0.499637763956
	0.713223709299
	0.614992226013
	0.673078363815
	0.626695300502
	0.538942252256
	0.523166205207
	0.523166205207
	0.480329769521
	0.573693226541
	0.7032015553
	0.7032015553
	0.7032015553
	0.779561317605
	0.55155999638
	0.61749644943
	0.875962660658
	0.620296439028
	0.745341658643
	0.525914495619
	0.545607256099
	0.812667543276
	0.485926946886
	0.724966667147
	0.724966667147
	0.702308591468
	0.596332719744
	0.528606284202
	0.554969481068
	0.670240435847
	0.494042630914
	0.678220866057
	0.44524258822
	0.292263294781
	0.317276406712
	0.514233239289
	0.35665233113
	0.614965958068
	0.369733658955
	0.566000616622
	0.697156568453
	0.791530124299
	0.791530124299
	0.706818163829
	0.612249739854
	0.612249739854
	0.693304914763
	0.541538282536
	0.541538282536
	0.492864869559
	0.369080240237
	0.405822808215
	0.408083142727
	0.671571296951
	0.627527595477
	0.453494102668
	0.338622160982
	0.409103563452
	0.415054392926
	0.652608619762
	0.659288009017
	0.80644320427
	0.80644320427
	0.683294269021
	0.452650825452
	0.452650825452
	0.597017892767
	0.619468576556
	0.784877239916
	0.697306181532
	0.20303497034
	0.377323453323
	0.666140875165
	0.666140875165
	0.665717238576
	0.591317030834
	0.754251641298
	0.604701037759
	0.620014293221
	0.574609392232
	0.681786065478
	0.683533226314
	0.742696676064
	0.669626480117
	0.670616833364
	0.692141821176
	0.629645383869
	0.703757184531
	0.341750070726
	0.492407274787
	0.427411788463
	0.646959384014
	0.415052754648
	0.84983167761
	0.669805627701
	0.722381338985
	0.368348753306
	0.510215114759
	0.727583481925
	0.460629394155
	0.670832313007
	0.775237516329
	0.60423919746
	0.707638397163
	0.518467316549
	0.571027427384
	0.763800411299
	0.771127611014
	0.590847874171
	0.213561412422
	0.561086457448
	0.659939375987
	0.380219550106
	0.642779836398
	0.715170653
	0.715170653
	0.668059101356
	0.642305834287
	0.702017416323
	0.585227533809
	0.756730579209
	0.756730579209
	0.477439432018
	0.664165661639
	0.774181797573
	0.542814617614
	0.622950402964
	0.640834853884
	0.548123336559
	0.680703425834
	0.693227336819
	0.61088625112
	0.681983439295
	0.528071480785
	0.741842950731
	0.735611596142
	0.633072787375
	0.625426256193
	0.37196227729
	0.619381133898
	0.612023452879
	0.635153438313
	0.639927897551
	0.698510070734
	0.578860805506
	0.614191525215
	0.535129006086
	0.646727991657
	0.621873152269
	0.745997486289
	0.742959499991
	0.488651973354
	0.408552721904
	0.361448161456
	0.791439550398
	0.596572084266
	0.806345938228
	0.674440350517
	0.66117607973
	0.335973337436
	0.619549047344
	0.569921182448
	0.680874079568
	0.561490262577
	0.755027005596
	0.620850742213
	0.719212167453
	0.604195281438
	0.604195281438
	0.540972113358
	0.797244473052
	0.47157467172
	0.47157467172
	0.588414919795
	0.551968098816
	0.753160120743
	0.589079395803
	0.602826860636
	0.369117563586
	0.724395141999
	0.233864916291
	0.59550884427
	0.709786984166
	0.667925051627
	0.619909501361
	0.690263363538
	0.745975143879
	0.416097014849
	0.65687660893
	0.752124396279
	0.752124396279
	0.36960140573
	0.457140065438
	0.287958711148
	0.70764391592
	0.70764391592
	0.71453923872
	0.635651656414
	0.620695055565
	0.631037870149
	0.665640476591
	0.614470969106
	0.405510818808
	0.728420196565
	0.560364589232
	0.682389866909
	0.550208277188
	0.485185008638
	0.731832044154
	0.790823490963
	0.790823490963
	0.828467240575
	0.614126308294
	0.347948410582
	0.520286011148
	0.675093955703
	0.640454893545
	0.657045231786
	0.41843831873
	0.365210505719
	0.517517049881
	0.782448055096
	0.30642076941
	0.659959226504
	0.249467910025
	0.442303914162
	0.549510034696
	0.558387189568
	0.383239043548
	0.76914946616
	0.660912123184
	0.550015032035
	0.441949029111
	0.561046509891
	0.438141287553
	0.723719218961
	0.71974830634
	0.636917491433
	0.63675400995
	0.523013088793
	0.627297411267
	0.581040710554
	0.623595091529
	0.704460892289
	0.615846682146
	0.843591762117
	0.761634454711
	0.769197814158
	0.705014634765
	0.59081602372
	0.746304241524
	0.518242734443
	0.680920345265
	0.821652047046
	0.665832632279
	0.451708969341
	0.812302382057
	0.550468331468
	0.635281044673
	0.668905213186
	0.46133878926
	0.528484893268
	0.764352727654
	0.689888073602
	0.65024725112
	0.72954025467
	0.55421905313
	0.705492042431
	0.379418586668
	0.482258702504
	0.477047846091
	0.315000763668
	0.151922087852
	0.337919502894
	0.614213921932
	0.392063087099
	0.494894578236
	0.445078910927
	0.520689057702
	0.479461612769
	0.77180853243
	0.751041383149
	0.784443984895
	0.505311484849
	0.653630939435
	0.707620661356
	0.237114244623
	0.66405175689
	0.339239295394
	0.612985177467
	0.533939551669
	0.65948010914
	0.523623437251
	0.675386791294
	0.419129420944
	0.36144815544
	0.715710437043
	0.66550025713
	0.741738529904
	0.491554903253
	0.689450142232
	0.611411704804
	0.606948672657
	0.315363868956
